S0180000746F7765725F626F6F746C6F616465722E7372656351
S113000000D0FF1F11040000530800001D1600005B
S11300101F16000021160000231600000000000037
S11300200000000000000000000000005308000071
S1130030530800000000000053080000870B000074
S1130040130E0000130E0000130E0000130E000028
S1130050130E0000130E0000130E0000130E000018
S1130060130E0000130E0000130E0000130E000008
S1130070130E0000130E0000130E0000130E0000F8
S1130080130E0000130E0000130E0000130E0000E8
S1130090130E0000130E0000130E0000130E0000D8
S11300A0092D00000D2D0000012D0000052D00007C
S11300B0130E0000130E0000130E00009D480000F4
S11300C0130E0000A9480000130E0000C5480000EC
S11300D0130E0000130E0000130E0000130E000098
S11300E0130E0000130E0000130E0000130E000088
S11300F0130E0000130E0000130E0000130E000078
S1130100130E0000130E0000130E0000130E000067
S1130110130E000047430000130E0000130E0000EE
S1130120130E0000130E0000130E0000130E000047
S1130130130E0000130E0000130E00004F0D0000FC
S1130140130E0000130E0000130E0000130E000027
S1130150130E0000130E0000130E0000130E000017
S1130160130E0000130E0000130E0000130E000007
S1130170130E0000130E0000130E0000130E0000F7
S1130180130E0000130E0000130E0000130E0000E7
S1130190130E0000130E0000130E0000130E0000D7
S11301A0130E0000130E0000130E0000130E0000C7
S11301B0130E0000130E0000130E0000130E0000B7
S11301C0130E0000130E0000130E0000130E0000A7
S11301D0130E0000130E0000130E0000130E000097
S11301E0130E0000130E0000130E0000130E000087
S11301F0130E0000130E0000130E0000130E000077
S1130200130E0000130E0000130E0000130E000066
S1130210130E0000130E0000130E0000130E000056
S1130220130E0000130E0000130E0000130E000046
S1130230130E0000130E0000130E0000130E000036
S1130240130E0000130E0000130E0000130E000026
S1130250130E0000130E0000130E0000130E000016
S1130260130E0000130E0000130E0000130E000006
S1130270130E0000130E0000130E0000130E0000F6
S1130280130E0000130E0000130E0000130E0000E6
S1130290130E0000130E0000130E0000130E0000D6
S11302A0130E0000130E0000130E0000130E0000C6
S11302B0130E0000130E0000130E0000130E0000B6
S11302C0130E0000130E0000130E0000130E0000A6
S11302D0130E0000130E0000130E0000130E000096
S11302E0130E0000130E0000130E0000130E000086
S11302F0130E0000130E0000130E0000130E000076
S1130300130E0000130E0000130E0000130E000065
S1130310130E0000130E0000130E0000130E000055
S1130320130E0000130E0000130E0000130E000045
S1130330130E0000130E0000130E0000130E000035
S1130340130E0000130E0000130E0000130E000025
S1130350130E0000130E0000130E0000130E000015
S1130360130E0000130E0000130E0000130E000005
S1130370130E0000130E0000130E0000130E0000F5
S1130380130E0000130E0000130E0000130E0000E5
S1130390130E0000130E0000130E0000130E0000D5
S11303A0130E0000130E0000130E0000130E0000C5
S11303B0130E0000130E0000130E0000130E0000B5
S11303C0130E0000130E0000130E0000130E0000A5
S11303D0130E0000130E0000130E0000130E000095
S11303E0130E0000130E0000130E0000130E000085
S11303F0130E0000130E0000130E0000130E000075
S1130400FFFFFFFFFFFFFFFFFFFFFFFFFEFFFFFFF9
S113041072B60E480E49886000220023002400258D
S113042000260027B846B946BA46BB46BC4609482A
S1130430854609488047094880470948804762B68D
S113044000200021074A9047FEE70000000000005A
S113045000ED00E000D0FF1FB54D000015140000B2
S11304604F140000231000005F170000000000007C
S11304707117000000000000071800004F19000069
S1130480F51700007F180000171A00000000000094
S1130490B91A000000000000AB17000000000000C3
S11304A0851700007F1800002B1A000000000000D0
S11304B0951A00000000000017170000000000005B
S11304C0DF17000000000000000000000000000032
S11304D0C71A000000000000DB1A00000000000042
S11304E0FD1A00004F190000000000000000000089
S11304F0000000000D5900001759000021590000A8
S11305000000000000000000B1280000FF280000E7
S113051033290000000000000000000053290000FF
S1130520000000000000080000001000000020008F
S113053000004000000080000000000100000002F4
S113054004000240691C0000951C0000D11C00003E
S1130550BB1D000000000000571E000000200340E7
S1130560952E0000032F00002D2F00000000000036
S113057000000000432F0000B5340000DF34000009
S11305804735000087360000D13600007B38000074
S11305906F35000031360000CF37000065390000A8
S11305A07939000000000000D5380000ED38000063
S11305B00000000067370000AD390000E139000099
S11305C0D12F00002B3A0000E544000071430000E5
S11305D0994300001544000051440000D543000035
S11305E0592500005D2500006F250000AD250000A1
S11305F000000000000000000100000001000000F5
S1130600A90B000084060000940600009C0600006C
S11306100200000001000000F10B00006005000072
S1130620700500009C0600000400000001000000AA
S1130630390C000008050000180500009C060000A5
S1130640100000000000000000000000CC060000C4
S113065000000000DC0600000000000000000000B4
S11306600000000000000000000000000000000086
S1130670094500003B4500004D46000007470000C7
S113068088C4FF1F71490000C7490000E149000008
S113069000000000000000000D4A00006D4A000048
S11306A0734A0000DB4A0000794B0000714A0000E5
S11306B0854B00004D4A0000043A262290C1FF1FDA
S11306C094C1FF1FD0C1FF1FF8C1FF1FC74F000017
S11306D0BF500000775100002B530000AD510000C3
S11306E0DB5100005D52000013530000235300004F
S11306F0275300000000000005E0002070470020A0
S11307007047002070474FF6FF707047416F11F13A
S1130710010F01BF816F11F1010FC16F11F1010FC1
S113072002D042F6A20101E042F6A301C162704781
S1130730FEB5254881680C69E16A012542F6A302E9
S113074091423FD004F1700100258A68002A36D016
S11307500E1D534231688B4222BF406803689942A0
S113076021BF40685118491E884228D300A800F0D0
S11307702DF80C2000F52340C03031687268071D45
S1130780B9423CBF5318984208D2421A00A800F05C
S113079023F8306871680818C21B394600A800F0B5
S11307A01BF802A900A800F03FF80298E16F884204
S11307B006BF012542F6A00042F6A10001E042F680
S11307C0A400E0622846FEBD00C0FF1F4FF0FF31C9
S11307D001600021416070477FB5044601208DF817
S11307E000000E462068019015460E480290002035
S11307F0ADF80C008DF80E006DB100F043F800A9BF
S1130800002000F05FF82A463146002000F073F81B
S1130810019000F03DF8019820606068281860603D
S11308207FBD0000B71DC10438B504460D462079CC
S113083010F0030007D000A900220A60C0F10402EE
S11308402046FFF7C9FF20682860002000F044F824
S113085031BDFEE70160704772B60168491C016052
S113086062B601680029FCD10120704772B60168A4
S1130870491E016062B6704772B60B4900200860D9
S113088062B6704772B608480168491C0160704737
S113089005480168022901D20021EAE70168491EDE
S11308A00160704700000000A4C3FF1F083040012E
S11308B0484A1150704782689200920842EA817156
S11308C08160704709B90120704720B9424A136812
S11308D043F48023136051E0404951F8201041F261
S11308E021024A6000228A6020B93B48016821F451
S11308F0802101607047F8B50E46384951F8204010
S1130900A068870F154605D0022F07D004D3032F04
S113091006D00EE0032104E0022102E0012100E000
S113092000212046FFF7C7FF03E016F8010B2070F3
S11309306D1E16F0030006D0002DF6D103E056F824
S1130940040B20602D1F042DF9D2012D0AD00BD3E6
S1130950032D03D03CBF3088208005E03088208000
S1130960B07800E030782070204600F03DF805466D
S113097039462046FFF79FFF2846F2BD70B50C00AC
S113098001D1012070BD154951F82050144905F1D9
S113099008004601207888512846217BFFF78BFF09
S11309A0607BA968000721F0405100F040500843E3
S11309B0A8600C49A07B88510121A0686860284682
S11309C0FFF774FF6068286000212846FFF76EFF78
S11309D0002070BD640000423C8004405C050000BF
S11309E0600000426800004200F1080252010A4B14
S11309F09A580021D2B21AB1012A08BF016808E04E
S1130A008168090F01F0030102291ABF0329018833
S1130A1041880846704700006000004238B504462B
S1130A203D4D0020C5E90000C5E90200C5E9040008
S1130A30A8612862394800F09EF8E8612046BDE8C4
S1130A4034400FF2590100F094B900F0A5B970B523
S1130A50314D0C46A969072904BF296A88421AD175
S1130A6000F08EF8C0EB0016D5E90001D5E90223A9
S1130A701018B6FBF0F00A2148434FF49661B0FB1E
S1130A80F1F0401D0A21B0FBF1F04FF496614843A8
S1130A902060002070BD012070BD00002DE9F843E6
S1130AA0064600F058F81C4F0446D7E90459884616
S1130AB0B8690021421C651B68EB0909F8694945BE
S1130AC002D82CBFA8420122012ABA6106D0042A06
S1130AD008D0052A0ED0072A0FD018E0C7E900482D
S1130AE03E6214E0D7E90001201A68EB0101C7E96E
S1130AF000010CE0C7E9024809E0D7E90201201A25
S1130B0068EB0101C7E90201304600F045F9C7E985
S1130B100448BDE8F183000090C2FF1F8038010043
S1130B201C48002101606FF07F421B494A6000228B
S1130B308A6007220A601949194A0968C900B1FB89
S1130B40F2F101B90121416070471348016821F0B5
S1130B500601016070470F490A68124800680B6873
S1130B60C0430002000A9A42F6D1002110EB026051
S1130B7051EB12217047074949684843C008704740
S1130B8006480068704703480168491C01607047C3
S1130B90000000007CC4FF1F10E000E0CCC0FF1F79
S1130BA040420F0018E000E0012820D18248834A27
S1130BB019B1022911D006D3704741681140416030
S1130BC00168114012E04168114041F480714160B4
S1130BD07B48016821F0020108E04168114041F4BA
S1130BE0407141600168114041F4407101607047F7
S1130BF0012800D0704710B57248734B6F4C734A8C
S1130C0011B1022909D010BD116821401160516849
S1130C1021405160002119600CE01168214041F429
S1130C2000711160012119605168214041F4007183
S1130C3051600121016010BD012825D15F4A64483B
S1130C4011B102290CD0704701681140016041685C
S1130C5011404160816811408160C168114012E017
S1130C600168114041F4E06101604168114041F4C0
S1130C70E06141608168114041F4E0618160C168D4
S1130C80114041F4E061C160704780B500F0C2F8E2
S1130C905048416B41F478514163016841F440315B
S1130CA0016001BD4B48416B21F4785141630168F7
S1130CB021F4E021016070474648016B41F4802132
S1130CC00163016B490301D40020704742490A784B
S1130CD042F080020A7007230A781A42FCD10168A4
S1130CE041F4E021016001203C4908703C4908704E
S1130CF070473C483C4900680968C0F30360401CE5
S1130D00B1FBF0F07047012802D8374800687047FB
S1130D10002070473548294A0168114041F4807128
S1130D20016033494A6822F080024A60026842F056
S1130D301302026000204FF4FA720B68C3F3C0136D
S1130D401818521EF9D1FA288041C00F704729485B
S1130D500068C0F3006000B9704780B52648416858
S1130D60080005D00120884724494FF0FF3008606F
S1130D7001BD01280FD1224A224B102010704FF0E0
S1130D800040214A10601B4802681A4042F42022A5
S1130D90026019484160704701280BD11B49194A68
S1130DA04FF00040086013480168114001600020C2
S1130DB0114948607047000000D00440FFF8FFFE6E
S1130DC014F10F40940596421405964228B004404D
S1130DD010C00440048004400C2107401C28E44255
S1130DE08428E44244800440CCC0FF1F1CB004406B
S1130DF090F00F4004D00440A8C3FF1FA0D00440CB
S1130E003FE400E0FFFFF0FE04E100E084E100E0E5
S1130E107047FEE70848817804290BD1017801F076
S1130E209F010170FF218278012A04BF034A1278CE
S1130E30491EF8D17047000001E0074002D0074086
S1130E40012811D80FF22C028056012904D100F098
S1130E501F029140054A04E0012100F01F02914065
S1130E60034A400942F820107047000000E100E006
S1130E7080E100E01A1B50F8041B61B150F8042B08
S1130E80D30744BFA9F101039A180023091F42F8AC
S1130E90043BFAD1EFE77047012811D80FF22C0276
S1130EA08056012904D100F01F029140054A04E054
S1130EB0012100F01F029140034A400942F820102A
S1130EC07047000000E100E080E100E01819000034
S1130ED038B504460D46002000F0E6F86C486D4A2B
S1130EE0056044604FF420411160016881F3088873
S1130EF081F3098840688047BDE83240002000F053
S1130F00D3B865498968096900281EBF10F1010F2B
S1130F10624A904206D00A69904203D34B699A18F8
S1130F20904208D34A6A904207D3896A8918884252
S1130F308041C00F704701207047002070472DE9A1
S1130F40F84F554D564EA868006900F1700A3746AF
S1130F500AE09AF81010014205D07869FA688169AC
S1130F60526838469047183738680028F1D14FF452
S1130F707A70FFF700FE07464FF4204000244168D2
S1130F800091D0F800B0FFF7C5FE70BB0098FFF7E2
S1130F90B8FF50B3FFF7CCFB38B3A868006990F8EA
S1130FA08E00C00703D400985946FFF791FFBAF8A2
S1130FB012004FF6FF71884208BF41F2883007FBE8
S1130FC000F4FFF7C8FD8046894674B1FFF7C3FDFE
S1130FD0B0EB080061EB09010025A94201D8A04249
S1130FE003D300985946FFF773FF374600E01837DC
S1130FF038680028E9D0F968096838468847002825
S1131000F5D0002FE1D006E0B74203D0F16889683B
S113101030468847183630680028F5D13846BDE890
S1131020F28F38B5FFF728FCFFF72FFE1A4CA068A3
S113103000688047002000F069F8FFF771FD04F1B3
S1131040200000F04CF9206800688047A0684068E0
S11310508047FFF774FFE061016919B109680A006C
S113106018BF8847E069416919B109680A0018BFC7
S11310708847E06800688047E569E0684068804721
S1131080E868C1680800F8D028468847F5E70000FA
S1131090B4C2FF1F08ED00E000C0FF1F11040000F0
S11310A0F80500007047000070B50446022C04D017
S11310B0002000F09AF9012C0ED00026114D06E014
S11310C04019C16889680A0018BF8847761C18202F
S11310D0704341590029F3D174B9FFF7D3FBFFF7EB
S11310E034FD00F0B4F9084900200860012000F044
S11310F00DF8FFF7D7FD62B6BFF36F8FBFF34F8FC5
S113110070BD00BFF805000008ED00E0F8B55A4CCA
S11311105A4D0100207861D1296861605849896875
S1131120096901F17002117C167F090906F00106B4
S113113001F0010383F001073E42524908D02A68B6
S1131140120F4FF0A070521CB0FBF2F00860F1BD1A
S1131150527FD24302F00F02521C0BB906E0521E1A
S1131160494B4A4EB3FBF2F3B342F8D3464B484ED5
S1131170B3FBF2F3B34228BF521CF7D2164617460C
S113118000E0761CDFF800C1DFF808E1BCFBF6FCE8
S1131190F445F6D2DFF8F0C0DFF8FCE0BCFBF7FC66
S11311A0F44528BF7F1CF5D2012A03D1092E38BF8C
S11311B0092F1AD2761E3606521E06F0706646EACB
S11311C002727E1E360406F4702632432A600B60D7
S11311D0012100F00BF801202070F1BD012904D198
S11311E0002100F003F860682860F1BD884242D015
S11311F001292A482A4B2B4A25D1517801F0CF01E5
S113120041F020015170117801F0C70141F0300123
S11312101170D17841F08001D17000211970117BD7
S113122001F0FC0141F00201117301780029FCD1A5
S1131230D07800F07F00D070D07800F09F0040F0AC
S11312402000D0707047B1B9D17841F08001D170DD
S11312500121197001780029FCD0D07800F07F00BA
S1131260D0700420107080205070D07800F09F005F
S1131270D070002010737047BCC2FF1F448004402C
S113128000C0FF1FCCC0FF1F006CDC02002D310129
S1131290010E27070187930341787D01D000C842DE
S11312A00800C8420040064008B904207047C069DD
S11312B020B10068022801D1002070476D207047DA
S11312C010B508B9042010BDC469606800F0F3F8D3
S11312D0A06800F07DF802202060002010BD10B549
S11312E0040001D1042010BD224923480968C1F338
S11312F0036130F81100000301D1642010BD002106
S1131300216060604FF480710120A0604FF40060A0
S1131310E0601A4890F9002091406161C078A061B2
S1131320002020612046FFF7BFFF20B11448E06190
S11313302046FFF7C5FF002010BD08B90420704700
S11313405B1E194208BF1A4201D06520704703682A
S1131350994221BF4068C0185118884201D26620C2
S11313607047002070470749884201D06B207047BE
S1131370002070474C8004402005000028000240F3
S113138050C0FF1F6B66656B68B1042A02D0082A3F
S11313900BD008E079B110290DD320290BD0A1F18D
S11313A02100132807D304207047102903D0A1F18A
S11313B011000328F7D2002070470000016841F4AF
S11313C070010160BFF36F8FBFF34F8F7047704799
S11313D010B504460B480C490A1A411E204600F079
S11313E099F80A49601C086010BD38B50400200053
S11313F0FFF75AFF0500002D03D10548034909688A
S1131400884731BDBD130000CF1300002CC3FF1F5C
S113141004F0014080B51849184808601849194873
S1131420421A194888421CBF002A00F073F8174872
S11314301749091A18BF00F0A9F816491648421AA4
S113144004D0BDE80840154800F064B801BD144854
S11314504FF0FF31016041608160C1600161416111
S11314608161C1610F48016041608160C1600161B7
S113147041618161C161704708ED00E00000000036
S113148038560000C458000000C0FF1F90C2FF1F60
S1131490F4C7FF1F505900005059000000CCFF1F33
S11314A080E100E080E200E080210170017809061B
S11314B0FCD57047704710B50446124812490A1A01
S11314C0411E204600F026F81049601C086010BD3B
S11314D010B50F4C70212170FFF7E6FE88B90B4957
S11314E00968204688472078810601D5672010BD09
S11314F0C10601D5682010BDC00701D5692010BD03
S1131500002010BDA9140000B514000030C3FF1F53
S11315100000024062B38B0708D0521E11F8013B51
S113152000F8013B00F024808B07F6D1830740F0DC
S1131530208000BF103A07D330B4B1E83810103A15
S1131540A0E83810F9D230BC530724BFB1E8081022
S1131550A0E8081044BF51F8043B40F8043BD2070C
S113156024BF31F8022B20F8022B44BF0B78037000
S11315707047083A07D3B1E80810083A40F8043B2A
S113158040F804CBF7D25307E4E70000002200F050
S113159005B8000062F30F2262F31F42401810F0F6
S11315A0030308D0C91A1FD3DB0748BF00F8012D75
S11315B028BF20F8022D130030B414461546103904
S11315C028BF20E93C00FAD8490728BF20E90C00CD
S11315D048BF40F8042D890028BF20F8022D48BFD9
S11315E000F8012D30BC7047C91818BF00F8012D50
S11315F0CB0728BF00F8012D70470000BFF34F8FC1
S11316000448054A016801F4E06111430160BFF335
S11316104F8FFEE70CED00E00400FA05EEE7EDE77E
S1131620ECE7EBE7DFF8F015C968C968002008604B
S113163070472DE9F041DFF8E055E86982B00024F5
S11316408DF801404669002E62D0E968C9680A68CD
S1131650012A4CD001F1080274680023091DA04737
S113166004001FBF42F21270844242F2137084429B
S11316704ED1E868C168D1F80880B8F1000F47D0AE
S11316804E68377837B1122F04DA806800EBC70050
S1131690083800E00020086200281CBF0068002809
S11316A01CD000A905F1200000F0C0FA040017D1F5
S11316B09DF8000048B14FF4E750791E20FA01F27A
S11316C0D00758BF42F211740AD5EA68D268126A88
S11316D01268414630469047002406E042F21074F6
S11316E03946204600F01FFA94B901200DE0086A3B
S11316F048B14168080003D00DF101008847044651
S11317000CB1002001E09DF80100E968C968086097
S11317102046BDE8F68180B50178002000F003FA88
S1131720DFF8F404C0694169096988470220FFF7BA
S1131730BBFCBFF34F8FDFF8E404DFF8E424016857
S113174001F4E06111430160BFF34F8FFEE7DFF85E
S1131750C804C068C06814210C3000F081BA10B508
S1131760044600F09EFBFFE72178BDE81040DAE173
S113177010B5DFF8A424126852690446A1686068B1
S11317809047F1E710B500F04AF8DFF88C04C06820
S1131790C06861680161082101770020217800F0A8
S11317A0C2F9BDE8104000F02CBD30B583B0DFF8BD
S11317B06844A56800210191009100AB81684068EC
S11317C0AD6801AAC9B2C0B2A847E268D2680021D4
S11317D0116100998A08019900F0B9F937BD10B573
S11317E0DFF834249268D26804466068A168C0B205
S11317F09047B9E710B500F012F800F012F8042190
S113180001770020B0E710B500F009F800F009F8FE
S1131810032101770020A168BDE81040AEE1044631
S113182095E7DFF8F403C068C068A16801616168E6
S11318304161704738B5DFF8E0530446E868C06892
S1131840002141610161007F042804D128680069F6
S1131850804704B90446E868C068017F204600F068
S113186062F942F21270844208D1E868C068007FCD
S1131870082804BFBDE8314000F005BD31BD2DE9A5
S1131880FC4100F0C2F821B900202070FFF7D2FF1C
S11318905AE0012121700669476900200090012364
S11318A0E869D0F814C0DCF804C000AA01A9E04734
S11318B05FEA000805D0E8694169C968884740467D
S11318C003E0009830B942F21270FFF7B3FF002032
S11318D020703AE0B04288BF30460090E868C068A3
S11318E0017F082913D10199C16000998161019890
S11318F0009900F090FC804642F27D7080451CBF48
S113190042F2747080450BD14FF0000808E02B6858
S1131910019A00999B683846984780460098C719F1
S11319200098361A06D0B8F1000F09D0E869416969
S1131930C96888474046FFF77DFF0020207003E018
S1131940E868C068066147610020BDE8F6812DE9BA
S1131950F04700F05AF88AB021B900202070FFF750
S113196069FF4EE00121217006694769C168027F61
S1131970212E2CBF4FF02008B046A9B1424601A841
S1131980FFF7C8FDE869D0F814C0DCF808C00123EB
S1131990424601A9E047A6EB080606B168B3FFF783
S11319A049FF002020702CE0032A08EB070906D128
S11319B02B685B6801AA4146384698470CE0102A18
S11319C018BF4F46DED1407F0090434601AA3946F6
S11319D005F1200000F07CFC5FEA000A4F46D1D0FC
S11319E0E8694569AD680123002201A9A84750466A
S11319F0FFF720FF0020207004E0E868C06806615B
S1131A00476100200AB0BDE8F087834D0446E868CA
S1131A10C0680169704710B57F4B1B68DB680446DA
S1131A20E268A168606898479EE62DE9F0410546A2
S1131A307C4C6E68D5F80880E868774920600027F8
S1131A4049680C3130B10A68904223BF4968491C87
S1131A50814204273046FFF754FA00B90427297855
S1131A60384600F060F89FB966600020FFF71CFB61
S1131A702068C4F8088018B180F3088880F30988C6
S1131A80616840468847BDE8F0410020FFF70CBB81
S1131A90BDE8F08138B504466068FFF732FA08B94A
S1131AA0042005E065680120FFF7FEFAA068A84756
S1131AB02178BDE8344036E010B50446211D5A486B
S1131AC000F04EFC50E610B50446A3686168564821
S1131AD004F10C0200F06CFC46E61CB5044600A8B8
S1131AE00021002206C0A36861684F4800AA00F0E4
S1131AF08BFCA26800A900F045F813BD10B5FFF7F0
S1131B008EFE4548C168C968A2680A6162684A6174
S1131B1010220A77C068C068E16841770020A16894
S1131B20BDE810405BE010B584B0A02201908DF8B0
S1131B300020002200F06AF88DF8022002910222AF
S1131B408DF8032000234469A4680C225BE010B5DF
S1131B5088B0A72300F03AF80020531C8DF8033016
S1131B6006E000AC51F8203004EB8004401CA36074
S1131B709042F6DB00F021F800231AE010B584B09F
S1131B80A3222FE010B588B0AF2300F01FF8022382
S1131B908DF8033040B99008801C8DF80300029240
S1131BA003A8FFF7C7FC01E000200290002300F027
S1131BB004F800A9A04708B010BD1748C0699DF8F3
S1131BC003104469A46889000A1D70478DF8003029
S1131BD0019000238DF801308DF80230704710B564
S1131BE084B0B0228DF800200190012200F00EF89C
S1131BF0029100228DF80220002302228DF8032096
S1131C000C224469A46800A9A0471FBD0248C0690A
S1131C108DF801207047000000C0FF1F0CED00E0AC
S1131C200400FA05E8C2FF1F20C0FF1F002818BFE8
S1131C30002901D1042070470848007800F003020D
S1131C40022A08BF002005D000F0C00080280CBF85
S1131C500120022008700020704700BF02000240EB
S1131C60002200F0FDBB000038B5C64C65682A466A
S1131C70042104F1200000F00DFC00AA012104F16C
S1131C80200000F007FC286800990818401E6860CE
S1131C90002032BDF8B50446BA480D46416B1646DD
S1131CA04A4202EA0401671AEF197F423A4000AB44
S1131CB05242203000F00EFC48B99DF8000008B1F3
S1131CC06C20F2BD32462946204600F047FCF2BDA6
S1131CD02DE9F04FDFF8AC828146D8F8080000699E
S1131CE00D4687B0AE08B600046B9246AF1B04B134
S1131CF001244FF0FF3004902FB13A4606EB0A015D
S1131D0004A8FFF707FCFEF7BDFD684280088000C9
S1131D10414203AA484600F010F9050002D0FEF73C
S1131D20B7FD3DE09DF80C0000B1002406EB090B63
S1131D3046B133465246494608F1200000F040FCC3
S1131D40050008D13FB1042304AA594608F1200034
S1131D5000F036FC0546FEF79BFD0DBBE4B20CB368
S1131D60FEF790FD76B105A80290534606A80190AF
S1131D70324600F01BF8494608F1200000F052FCFE
S1131D8005000AD14FB100F05FF800F00FF8594692
S1131D9008F1200000F046FC0546FEF779FD0DB180
S1131DA0284600E0002007B0BDE8F08FD8F808000E
S1131DB00069806DC0B2009070472DE9F041714D0B
S1131DC08046A8680069066B88B006B101264842BF
S1131DD0800804928000474203AA3946404600F036
S1131DE0ACF804002AD19DF80C0020B1002602E0D2
S1131DF008F104083F1F1FB3FEF744FD042304AA9F
S1131E00414605F1200000F0DBFB0446FEF740FDEF
S1131E10A4B9002EECD0FEF735FD00F015F8A86843
S1131E200069806DC0B20090414605F1200000F0C9
S1131E30F9FB0446FEF72CFD002CD9D0204600E027
S1131E40002008B0BDE8F08105A8029004AB06A804
S1131E50019004227047F8B504460D46FEF712FDC2
S1131E60484E494B2A46214606F1200000F00AFC60
S1131E700746FEF70DFD97B9B0680069006B70B1B5
S1131E80FEF700FDB0680069836DDBB22A46214687
S1131E9006F1200000F032FC0746FEF7F9FC384654
S1131EA0F2BDF8B5374EB068006900F16004002552
S1131EB0216821B96268521E9241D20F00E00022CB
S1131EC08369406BB8B1B2B95F4231B1394004D0D3
S1131ED00020FFF7C0FF05002DD1716860684968D4
S1131EE0404238404042884225D2491C091AFFF733
S1131EF0B2FF05461FE0FEF7C5FC234906F12000AA
S1131F0000F03AFC0546FEF7C3FCA5B9B0680069C9
S1131F10006B68B1FEF7B6FCB0680069816DC9B2A8
S1131F2006F1200000F040FC0546FEF7B1FC15B9AF
S1131F301649012008702846F2BD38B5154600221E
S1131F402A700A460F4C014600AB04F1200000F051
S1131F50C1FAA8B99DF8001029709DF8001079B154
S1131F600A4D297861B9A0680069816DC9B204F18C
S1131F70200000F019FC08B16C2032BD0121297049
S1131F8032BD000000C0FF1F6B66656BF0C7FF1F0A
S1131F90416882688A4209D2891A416082660FF2D6
S1131FA0ED110160012181600020704742F27870D8
S1131FB070470FF2050113E0416ADFF8F4324A89F1
S1131FC08282CA68921E42604A689A4202D1097AA1
S1131FD0022902DB42F2757070470FF20D0100BF57
S1131FE0016000207047000010B5044682B0606AAA
S1131FF041686268A1610168C91E9142A16002D36F
S113200042F2767016BD008910B142F2777016BDA7
S11320108DF8000000A9A748FFF708FE9DF800000E
S113202010B142F2817016BD2046FFF7B1FF16BD14
S113203038B5A14D2B689B680446626A216EE06D39
S1132040984780B928680069804760B900F03AF879
S113205000F033F80098616E884200D038E00FF247
S11320602D102060002032BD38B50446924D00F09A
S113207029F82B68626AE06D9B6810219847D8B9EB
S1132080E06D1030E065206E10382066112828BFFE
S11320908A480FD208B18A480CE028680069804752
S11320A050B900F00AF80098616E884200D00FE041
S11320B00FF2D9002060002032BD00A904F11C00F9
S11320C0FEF7B2BB616A102204F11C00FEF784BB68
S11320D042F27A7032BD10B5044604F11C00FEF7DA
S11320E075FB206E11282CBF7448754890E0724B24
S11320F01B68426E016EC06DDB68184710B504465C
S113210042F27F70E26D11000ED0606E04F118018E
S11321109047012803D12046BDE8104038E7022843
S113212002D100F06EF8002010BD10B500F15C0182
S1132130031D1C684A685A60944202D242F27670C7
S113214010BD0A7AD20707D50A685C69A24203D196
S113215048689860002010BD90F85A10C9075CBF09
S1132160BDE81040FFF714BF42F27C7010BD90F838
S11321705A10C90748BFFFF794BE4F4A1268526904
S11321805C3041680068104700000000B0B50446A8
S113219004F15805606A0FC885E80F005A2701202A
S11321A0415D7F18401C1028FAD32878F9B2884280
S11321B002D042F27970B0BD687807281ED8DFE8F3
S11321C000F01B04080C10131B172046BDE8B04098
S11321D0ABE72046BDE8B0407DE72046BDE8B0400F
S11321E085E742F21270B0BD2046BDE8B04085E7F5
S11321F02046BDE8B040BAE70020B0BD42F27B7093
S1132200B0BD10B52F4C70212046FFF729FD2E4894
S11322102060002010BDF8B504460D4600200026BD
S11322202A4FAE4217D03869C0F11000A91B09E04B
S113223079B13B69325DDA55761C3A69521C3A61D0
S1132240401E491E0028F3D1386100F005F810B98A
S1132250E7E742F27D70F2BD1A491C4A4A62002047
S1132260CA6842B10869904202D2401C086104E085
S113227042F2747070478A6E12B9084609680847BA
S1132280521E8A66704738B50E4890F859100429D2
S11322900CD100F15C042568280004D00020FEF76E
S11322A003FFA068A84742F27E7032BD002032BD11
S11322B053544D5020C0FF1F00C0FF1F6920000071
S11322C03120000044C5FF1FB31F0000B4C5FF1F29
S11322D02DE9F8435FEA0008914614BFB9F1000FF5
S11322E004200F461D4619D0089C2246294638462C
S11322F000F01AF890B904E0716849F8041B3F1D16
S11323002D1F5DB106480668064837600321017039
S113231004724046FFF7DCF80028EDD0BDE8F283F4
S1132320400500000700024010B510F0030F08BF7D
S113233011F0030F01D0652010BD022A0EDA0C182B
S1132340641E012A06D1002804BF481E072805D1AF
S1132350002010BD002AFBD1FF2CF9D9042010BDA8
S113236010B50A46002818BF002A01D1042010BD68
S11323700E4B1C78002104F00304022C14D04521D8
S1132380597111785972517819729178D971D1783B
S1132390997111795973517919739179D972D179E4
S11323A09972FFF795F80146084610BD02000240F5
S11323B0F8B5160004460D461F4601D10420F2BDAF
S11323C03A46FEF7E1FFC8B90D4843214170057054
S11323D0102D0C4800683168416003D0A5F111014B
S11323E0032903D2082F04BF716881602046FFF7D8
S11323F06FF805462046FEF7F8FF2846F2BD00BFF9
S11324000600024040050000F8B5150007460C46DA
S11324101E4601D10420F2BD3246FEF7B5FFA8B92D
S11324200B484121417004703846FFF751F868B9F0
S1132430084909684A682A60102C03D0A4F11102E3
S1132440032A03D2082E04BF89686960F2BD00BF65
S1132450060002404005000062F30F2262F31F42AF
S113246000B500BF130096469446103928BFA0E873
S11324700C50FAD85FEA417C28BF0CC048BF40F832
S1132480042BC90728BF20F8022B48BF00F8012BF2
S113249000BD0000002818BF002A01D104207047A5
S11324A0072915D8DFE801F00408080A0C0E1012F9
S11324B0C0681060002070474068FAE78068F8E759
S11324C00068F6E70120F4E74069F2E78069F0E785
S11324D06A2070472DE9F04180461E000D461746DC
S11324E008BF042034D00423FEF727FF80BBD8F8AC
S11324F014307A195F42C2F1000C07EA0C0CCCF1DB
S1132500000C2F40ACEB07070021B7FBF3F7DFF813
S113251044C00AE0DCF800E0203C6FEA0E0E2EFA1C
S113252004F4E40748BF491C5D1995420AD2B5FB7F
S1132530F3F4202C38BFDCF804E0EED3D8F818E02C
S11325407445E7D319B1B94234BF02210121317076
S1132550BDE8F0811800024000F032B9134680B59E
S11325600A4601461846FEF7D5FF002002BD70B5A5
S113257010F0030F0C46154612D0B0F1005F0FD2D5
S11325802118491EB1F1005F0AD3C0F1005632464A
S11325902946FEF7BFFFA21B71194FF0005001E05E
S11325A022462946FEF7B6FF002070BD10B514463A
S11325B00A462146BDE81040012300F03BB9000063
S11325C02DE9F041044615000E461F4608BF0420BD
S11325D022D004233A46FEF7B0FE5FEA000802D098
S11325E01AE0361D3F1F9FB10C480068066055F87D
S11325F0041B416006200A4908702046FEF768FF64
S113260080462069010018BF8047B8F1000FE8D068
S11326102046FEF7EAFE4046BDE8F0814005000092
S1132620070002402DE9F04106465FEA03080D4623
S1132630174608BF04201ED00423FEF77EFED0B93F
S1132640069C01E03F1F2D1DAFB10C480C490068EA
S1132650056002220A700C7158F8041B8160304630
S1132660FEF736FF0028EDD0079901B10D600899F7
S113267009B100220A60BDE8F08100BF40050000F6
S1132680070002402DE9F041984604460D461646DF
S11326900823FEF752FE07001AD17019461EE0689F
S11326A0B6FBF0F100FB11622AB1491C4843461EF7
S11326B001E0E0684519AE4217D30E480E490068A0
S11326C00560092008704046FEF74DFE070002D061
S11326D03846BDE8F0812046FEF7FAFE0746206939
S11326E0010018BF8047002FE3D02046FEF77DFE8F
S11326F0EEE700BF40050000070002402DE9F84F57
S1132700984604460D4692460823FEF716FE60BB23
S11327106068A168164FB0FBF1F96842C9F1000185
S113272008404642AE4208BF4E4403E0AAEB0B0AFF
S11327305D444E44BAF1000F16D00E4909680D608D
S1132740701BD346824588BF8346012139704FEA06
S1132750DB00010A3971F87087F802802046FEF721
S1132760B7FE0028E2D000E00020BDE8F28F00BFF1
S1132770070002404005000038B50400084601D1B6
S1132780042032BD074A44211170FEF7ECFD050018
S113279007D12046FEF79CFE05462046FEF725FE9F
S11327A0284632BD0700024008B904207047034A96
S11327B0402353701170FEF78BBE00BF0600024029
S11327C01A480068000B00F00F00C01E08282BD820
S11327D0DFE800F005080B0E1114172A1A004FF455
S11327E0804013E04FF4C04010E04FF400400DE08F
S11327F04FF440400AE04FF4803007E04FF4C0301B
S113280004E04FF4003001E04FF4802008494968A7
S11328100322B0FBF2F0C0F1005241F80C2F6FF02C
S1132820604202EB400048600020704700700440A2
S113283000C0FF1F002A01D101207047F0B41F46D9
S1132840034603242340002B09D00424E31A017017
S113285001300824E141521E26D05B1EF7D1042A20
S11328601ADB13D0002F11D00C460D460E46102A49
S113287002DB72C0103AFAE70C2A02DB32C00C3ACF
S1132880FAE7082A02DB12C0083AFAE7042A03DB53
S113289001600430121FF9E7002A05D001700130ED
S11328A00824E141521EF7D1F0BC0020704700001B
S11328B040682C49405C70472B494A6842B10A6819
S11328C013780370501C08604868401E48607047C5
S11328D000210170704710B55A280CD1214A0123F8
S11328E08B54142404FB01210FF20D03CB60BDE8CB
S11328F01040D16A084710BD1A49C96A084730B563
S1132900184DE96285B0044600A80FF26001142254
S1132910FEF710FE6068A2680221904760681421E7
S113292001FB00510A1D00A900F091F8002005B038
S113293030BD10B504460B486168142202FB010047
S1132940001D00F0EAF86068A268BDE810400021AC
S1132950104705480160426041680029FCD100200D
S113296070470000FCC2FF1FF4C2FF1FB92800001B
S1132970D72800000000000008000000010100004A
S11329802DE9F041044682B0D4F800800FF2E4103F
S113299050F82870F86A261D00012BD5B268100083
S11329A028D041464FF49670904723E000F04BF84E
S11329B020699DF80050092805D300F044F89DF8DB
S11329C0000045EA00252069112805D300F03BF8F2
S11329D09DF8000045EA00452069192805D300F058
S11329E032F89DF8000045EA00657D63F86A40F01E
S11329F00070F862F86A8001D8D4F86A800320D5A0
S1132A00BD6BF86A40F40030F86241467268E8B27F
S1132A1090472069092804D3280472684146000EAF
S1132A2090472069112804D3280272684146000E99
S1132A30904720691928E0D372684146280E9047D0
S1132A40DBE7BDE8F3813268414600A81047F0B5E2
S1132A5004460FF2201050F824700D46164685B037
S1132A6014213046FFF7FCF80ECD301D0C3D0EC08E
S1132A703460E86830613D4814B1012C04D007E0AB
S1132A80016841F4805102E0016841F400510160A1
S1132A90384600F09AF800208DF80000ADF80C00DC
S1132AA000A9E8680190287C8DF80800687C8DF8FE
S1132AB00900384600F066F868BB386820F48040A6
S1132AC0386001220121384600F0ABF82848002183
S1132AD000F8341000EBC400012246601921384686
S1132AE000F0EAF801221121384600F0E5F801224D
S1132AF01B21384600F0E0F8002078630121F86AD1
S1132B0040F00070F8622046FEF79AF938684008F1
S1132B1040003860002005B0F0BD70B505680FF2C4
S1132B205400124C50F8256015B1012D06D00CE06C
S1132B302068C00418D50021002004E02068800427
S1132B4012D500210120FEF77BF9304600F03DF854
S1132B5015B1012D04D070BD206820F4805002E02E
S1132B60206820F40050206070BD00003C800440C8
S1132B7074C3FF1F00C0024000D002404001474A16
S1132B801150704738B50D4604462878444A61010F
S1132B90C043505000212046FFF7F0FF2A1D0021BA
S1132BA0204600F044F810B140F2311032BD6A7B87
S1132BB0297B204600F021F800F001F832BD20689E
S1132BC020F0405020600020704710B504460122D8
S1132BD0206820F4804020600120206001462046C7
S1132BE000F01FF82F48E0620020A060E060206140
S1132BF0206344F20100206010BD30B50368C3F3C4
S1132C0080331BB1046824F4804404604401264DDD
S1132C10295126490A511BB1016841F480410160E0
S1132C2030BD4001224B195022490A50704730B53B
S1132C301568042D09D3112D02D30368DB0F04D1C9
S1132C40212D05D30368DB0F02D140F2311030BDD2
S1132C5000EB81016D1E537914790068ED065B0663
S1132C60A406C00FC86803F0007304F080640CD09D
S1132C7020F0FE4005F0F0459279284320431206E7
S1132C80184302F08072104304E020F0FC40284313
S1132C9020431843C860002030BD00007C0000427F
S1132CA03800004200000A9A34000042300000421A
S1132CB02C0000422800004210B5036B01248C4014
S1132CC0A34302FA01F11943016310BD80B5094918
S1132CD001EBC00211F8300028B1074840B1506838
S1132CE0C046C04601BD054810B15068FFF748FE14
S1132CF001BD000074C3FF1F000000008129000013
S1132D000020E3E70120E1E7002000E0012038B5DE
S1132D100FF2781151F82040594901EB0013E17882
S1132D20E27801F012052A43E27001F05002102A01
S1132D3010D04A0614D54807A0780CD540F01000EE
S1132D40A07000208DF8000000A8196888479DF83D
S1132D500000207131BD00F0EF00A070207931BD7A
S1132D60A278C2F300121AB1C807EAD5A078F2E734
S1132D702279014610465A68904731BD0FF20C1172
S1132D8051F8200000218170017081717047F8B5FD
S1132D9004000FF2F8003A4F50F824600D4695E80D
S1132DA00F0007EB041787E80F00364801680CBFD3
S1132DB040228022114301600020B0700121402094
S1132DC0B0710220F0702046FEF766F83078297B57
S1132DD040084941317000207071B0717070B07852
S1132DE040F08000B070B07840F04000B070F1BDA9
S1132DF038B50500234C03D12068400605D431BD05
S1132E00012D10D1206800060DD500212846FEF7BB
S1132E1043F82846FFF7B2FF2068002D0CBF40217D
S1132E2080218843206031BD30B50FF2600353F830
S1132E3020004FF47A73B1FBF3F1134BB3FBF1F1C0
S1132E40002300E023465C1C01FB04F59542F9D302
S1132E502BB90A2462438A4204D3012302E0202BC3
S1132E6028BF1F23817901F0A00103F00F02114351
S1132E70817130BD024A02EB0010416070470000CE
S1132E8084C3FF1F3480044040420F0000600640AA
S1132E900070064040682F494018007C70472E4956
S1132EA04A6842B10A6813780370501C0860486885
S1132EB0401E4860704700210170704725494969E8
S1132EC0084738B504465A2C08460BD1214D4219FF
S1132ED0012111742149FFF7CDFF6969BDE8344030
S1132EE05A20084731BD10B504461A49FFF74FFF71
S1132EF0FDF7FFFE01462046BDE810403222FFF7F1
S1132F0093BF10B50446134841611549896809699E
S1132F1091F88110FF2918BF01736068A26802212B
S1132F2090476068FFF7DFFF002010BD10B504462E
S1132F306068FFF75DFF6068A268BDE8104000218B
S1132F40104705480160426041680029FCD1002017
S1132F50704700005CC0FF1FB4C3FF1FBD2E0000FC
S1132F6000C0FF1FC9B2012ADFF8B82912F82130C6
S1132F700CBF0120002008E0C9B2012ADFF8A4290F
S1132F8012F821300CBF04200820184302F8210055
S1132F907047DFF89009C9B210F8212002F0FD0251
S1132FA000F82120704738B504460D4600F09CFD1A
S1132FB0206900280EBF25616069056165610020F4
S1132FC02861A069401CA061BDE8314000F096BDB5
S1132FD038B504460D4600F087FDA06918B900F025
S1132FE08DFDC12032BD20692860206918B10069B7
S1132FF0206100B96061A069401EA06100F07EFDFF
S1133000002032BDDFF8201901F5007201F51471BA
S1133010C1600161C2620C2181610B22C16801F1AE
S11330201C030B61521E1946F9D10A61416100204B
S1133030704710B582B0044600A9FFF7C9FFDFF856
S1133040EC08406804F12C01400A0A68CB7D400278
S11330500BB9426005E040F0080402F10803636024
S11330600832009B5A600022009B1A70009B5A7021
S1133070009B9A60009B9A700122009BDA75009A6B
S11330808A6000224A75C97D01F0010140EAC1004D
S1133090DFF89C18016013BDF8B506460F461446C8
S11330A01D4600F021FD00F0E9FA07F00F0140EAA7
S11330B04110142111FB076141318A7802F00102A9
S11330C040EAC20254608A78097802F0010240EAB8
S11330D0C200AA0501F00101920D890141EA0241F1
S11330E041F08801016000F009FD00F069FBF2BDC8
S11330F010B5142414FB010001F00F0130F8384F0F
S11331009C4288BF1C46029B1C60DFF820385B6829
S11331105B0A5B0243EA4111837A03F0010341EA4B
S1133120C30343F010035A60827A007A02F001026A
S113313000F0010041EAC201A205920D800141F0B4
S1133140100140EA024040F0880000F038FB10BD56
S1133150F0B5DFF8E017DFF8D447FF220A720B7DE1
S113316043F002030B750B7E03F080030B76002300
S113317065686D0A6D0203F00F0645EA46150026E0
S113318045F008072E603E6045F0100745F018052D
S11331903E602E60142505FB030542356E702E70CB
S11331A00025DFF88067DFB25B1C06F82750062B8A
S11331B0DED3257001230B701C300B7D03F0FD035F
S11331C00B75C57302230380012343800A730879B6
S11331D040F08D000871087D00F0DF0008750020C4
S11331E0F0BD2DE9F047DFF84C5788B08146287CC4
S11331F0DFF838678DF81C00287C0009009001284E
S113320014BF0228287C0821287C2A7C2970C0F35A
S1133210C0007168009B490A490241EA431141EA2E
S11332200013C2F3800243EAC2021268C2F3094ADD
S1133230C2F3830202920D2A0CBF4FF001084FF033
S11332400008009A142303FB029202F13004009A4E
S11332504AEA0202019270B32768002F25D0F86869
S11332605044F860B968091AA07C80F00100A07489
S1133270207C80F00100207402D02089824515D280
S113328000F08CF820604846FFF78DFE20898245C7
S113329004BF009800285ED1012030700022D9F8C4
S11332A004000023114600F096FD74E039464846B8
S11332B000F0E9F96FE00198002854D0307808B1A3
S11332C0002030706768002F65D0F87D68B9E07C15
S11332D0FA6800F0010041EAC000416878681018FB
S11332E081421CBF524600F0ECFDF8685044F8607F
S11332F0B9680E1A0098002804BF02980D280ED150
S113330001220021484600F0B8FA09F140000121E9
S113331001704170C17881F00101C17007E0607CE7
S113332080F001006074E07C80F00100E074B86813
S1133330002818BF002E02D02089824506D200F052
S11333402DF860604846FFF72EFE0CE039464846EB
S113335000F0BEF91FE00198002801BF3078002872
S11333604846FFF766FED9F8040003908DF81A80EA
S113337003A900988DF818009DF81C00C00800F0FF
S113338001008DF81B000098C0B200F0EEFB287D10
S113339000F0DF00287508B0BDE8F087F8680590F4
S11333A039467868049000207047DFF888150422B5
S11333B00A70DFF884251379127842EA0322028422
S11333C020200870704770B504460025142000FBC7
S11333D0054000F13806B078012822D1D4F8AC00B9
S11333E02946FFF7D6FDDFF8440532884068400AD5
S11333F0400205F00F0140EA4110B17A01F00101E9
S113340040EAC101920541F01001920942F008021C
S11334100A60F17A01F0010140EAC100318800F04C
S11334201EFA6D1C062DD1DBDFF80815802008700C
S113343094F83A00012806D1002084F83A00204686
S1133440BDE87040F5E570BD30B5DFF8E844DFF85D
S1133450EC5485B0207821790840000744BF284601
S1133460FFF7BFFE207821790840C00710D501205E
S11334702070207C6968009100098DF80C0000A977
S11334800020ADF80E0001900290102000F06DFBBA
S1133490207821790840400744BF2846FFF785FF7C
S11334A0207821790840000644BF2846FFF78BFFA7
S11334B005B030BD70B50446DFF880640D46304673
S11334C0FFF7A0FDDFF87814DFF878040860FDF753
S11334D013F9C6F8A8002E607460002070BD70B5A2
S11334E006460C4604F1280500F0FAFC2870304624
S11334F000F0EEFCC4F8AC001020A870FF20DFF848
S1133500346430702246DFF84004017801F07F0112
S113351001702878DFF8341400F0E7FC08B98A2039
S113352070BDDFF80814DFF800044860010A317741
S1133530020CDFF81C140A70000E08712046FFF715
S113354007FE002070BDDFF80004017841F080011F
S11335500170DFF80004017841F001010170DFF827
S1133560F803017801F07F0101700020704738B53D
S11335700D46044629786A78142010FB014151183D
S1133580012281F83C20AB78A98A012B05D1B1F541
S1133590806F05DB40F2FF3102E04129A8BF4021E2
S11335A02A7810FB024282F83E302A786B7810FBAE
S11335B0024282F83F302A7810FB0242118700222F
S11335C0297810FB014181F83A20297810FB014148
S11335D081F83B2029786A7810FB0141403132B9E7
S11335E04A70297810FB01400021416305E0002264
S11335F00A70297810FB01400263A8782978012811
S1133600D4F8AC0018BF0122FFF7ACFC6A7802B111
S113361001222978D4F8AC00FFF7AEFC68780028C2
S113362001BF287800282046FFF703FD002032BDA3
S113363070B505460E46144600F01FF9B94900203E
S113364001F8260006F00F0100F018F840EA4110D6
S113365004F0010140EA01104FF0FF31416040F0F5
S113366008004160142010FB06504FF6FF710187DB
S11336702018002180F83C10002070BDAB48406841
S1133680400A40027047F0B50D460446A868E96850
S113369083B0401A01901426E86818B9297816FBFB
S11336A001410D6301A900916968019B42182978C1
S11336B02046FFF71DFD070008D0287816FB0040C0
S11336C00021016320462946FFF76DFC3846FEBD04
S11336D02DE9F0410D460446E868A9680E1A14273E
S11336E018B9297817FB01414D63297817FB01416B
S11336F0098FB14238BF0E46696842189048006885
S113370058B116F0030F08BF12F0030105D00021D1
S1133710E975414201F003010A182978334620462D
S1133720FFF7BAFC5FEA000808D0287817FB0040CE
S11337300021416320462946FFF735FC002E04BFD3
S1133740287800280CD129462046FFF72CFC94F851
S1133750430080F0010084F843002046FFF769FC31
S11337604046BDE8F08170B50D46142111FB0501FA
S113377001F138060121F170B1701446294600F0B8
S11337807CF86A49308849688005490A80094902F9
S113379005F00F0240F08C0041EA42113CB1B27ACC
S11337A002F0010241EAC20141F0100104E0F27AA0
S11337B002F0010241EAC20100F001F870BD0860A4
S11337C06448017801F0DF010170002070472DE9A1
S11337D0F84381460D46142010FB059000F138078C
S11337E00020F870B8701646D9F8AC004F4CFFF7BB
S11337F0D0FB05F00F004FEA4018D9F8AC0096B1A1
S113380001222946FFF7AEFBD9F8AC000122294674
S1133810FFF7B2FB002038726068B97A00F025F82F
S113382040F0100014E001222946FFF79BFBD9F871
S1133830AC0000222946FFF79FFB002078721DB9D7
S11338404846FFF7F6FB06E06068F97A00F00DF8E9
S1133850398800F004F8FFF7B3FFBDE8F283890567
S1133860890941F0080101607047400A48EA402094
S113387001F0010140EAC1007047F0B506460C466C
S1133880142085B0154610FB04601DB9476B002158
S1133890416302E0076B00210163C7B1394630463A
S11338A0FFF781FB4FF0FF30029000A97868019088
S11338B0706800908DF80C4000208DF80E002800F0
S11338C018BF01208DF80F00204600F04EF90020AB
S11338D005B0F0BD214A137803F080030B431C307C
S11338E01370C173012101800020704780B51C4909
S11338F00A7800220A700A7D02F080020A7500220A
S11339000A7415490A7842F040020A700A7842F0B3
S113391080020A70FF218183D0F8A800FCF7F1FE31
S1133920002002BDC020074000C8FF1FBCC3FF1F0A
S11339308800080080200740A0200740C4C3FF1F60
S113394074C4FF1F10CAFF1F1C2007404934000025
S1133950B0200740942007400021074098200740EA
S11339608420074001F00F01142313FB010090F899
S11339703A0010800020704738B501F00F04142578
S1133980FF2315FB0405012A05F83A2F04D1CA09BF
S11339902146FFF7E8FE06E032B9697821B16A7979
S11339A02146FFF714FF0346184632BD70B504469E
S11339B00D46D4F8A8001646FCF79FFE012D04F12D
S11339C01C0007D0042D07D0052D07D0062D08BFF5
S11339D0468004E0068002E0468100E086801EE026
S11339E070B504460E46D4F8A8001546FCF785FECB
S11339F0012E04F11C0008D0032E0AD0042E0AD094
S1133A00052E0AD0062E02D009E0008806E0408880
S1133A1004E0C07B02E0408900E080882880D4F87C
S1133A20A800FCF76CFE002070BD38B504460025E4
S1133A30002229462046FFF7FBFD012229462046A5
S1133A40FFF7F6FD6D1C062DF2DB2046FFF780FB29
S1133A502046FFF7D7FA002032BD000070B5A0F170
S1133A601003DBB20829B8BFFB2B1CDA03F00304F4
S1133A7023F0030303F1604303F56143E400D3F847
S1133A800053FF264901A64001F0E001B543A140DF
S1133A902943C3F8001312B100F008F801E000F064
S1133AA010F8002070BD4FF0FF3070BD1038C0B268
S1133AB0FB2805DA012100F01F029140144A0DE0B1
S1133AC009E01038C0B2FB2805DA012100F01F021A
S1133AD09140104A02E04FF0FF307047400942F82D
S1133AE020100020704700000B480168002900D115
S1133AF072B60168491C01607047000006480168FD
S1133B0000291EBF491E0160002900D162B670471A
S1133B1000E100E080E100E084C4FF1F38B50D46F9
S1133B200446687B38B1102802BF002204F1080063
S1133B3000F06EFA04E0002204F1080000F0DAF963
S1133B4000200C2101FB004101F13C026B7B117A46
S1133B50994205D15168126828469047002032BD29
S1133B60401C0828EDD3832032BD0A68487310F046
S1133B707F0307D000F07F00102803DAC87B43EAF4
S1133B80C01048731046C9E74268126B13001CBF8B
S1133B9000681047FF20704770B500F01EF8606899
S1133BA0E90606D5436A18000AD000F0ECF89847F5
S1133BB018E0436C180003D000F0E5F89847F7E7E5
S1133BC014E070B500F009F86068036C180003D0C5
S1133BD000F0D9F8984705E008E004460D4616467B
S1133BE0FFF782BFFFF78AFF002070BDFFF786FF53
S1133BF0FF2070BDF8B52B4E06F19C0704463878BB
S1133C0001280D4629D0A4220021304600F04BFBA8
S1133C10012038707C70FCF76FFD234978606022C6
S1133C2012FB0411F161FF2200210C2313FB016339
S1133C30491C082983F84420F7DB002C18BF012C09
S1133C400DD11A4F77603A68100002D031463046E1
S1133C509047306838B98720F2BDC120F2BD0020FA
S1133C603870C020F2BDF0603661204600F026FBBB
S1133C7030B1796B08001CBF30688847C420F2BD9E
S1133C807A68100005D031682046904718B92E6034
S1133C90F2BDFF20F2BD796B08001CBF3068884775
S1133CA08D20F2BD90C6FF1FA0CBFF1F780500003A
S1133CB010B54B689B68024600201C0003D0BDE889
S1133CC010401046184710BD38B5040001D1FF203C
S1133CD032BD04F19C056868FCF713FD6068416B14
S1133CE008001CBF206888470020287032BD00B53A
S1133CF087B0C0B10B788DF800308B788DF8013027
S1133D004B68ADF8143049788DF802108DF8162000
S1133D1000210291039141688A69110003D000686F
S1133D2000A9904700E0FF2007B000BDF8B500F0FF
S1133D3097F81F4601D1FF20F2BDFFF7D5FE002002
S1133D400C2101FB004292F84420AA4203D1FFF760
S1133D50D5FE8420F2BD401C0828F2D3002001FBCC
S1133D6000423C32137AFF2B06D11572166057605D
S1133D70FFF7C4FE0020F2BD401C0828EFD3FFF774
S1133D80BDFE8120F2BD2068324629467047F8B551
S1133D9004000F4615461E4619D06068826C100058
S1133DA015D0206800A9904788B9FFF79DFE0098B8
S1133DB00770002000F033F80269100007D0009962
S1133DC02068904700F050F81CB90020F2BDFF2095
S1133DD0F2BD9420F2BDF8B504000F4615461E4608
S1133DE019D06068826C100015D0206800A9904733
S1133DF088B9FFF779FE00980770012000F00FF8EA
S1133E00C268100007D000992068904700F02CF891
S1133E101CB90020F2BDFF20F2BD9320F2BD009931
S1133E204870009886600098456000200099C8603A
S1133E3006200099C8706068704770B500F010F8EB
S1133E400CD0FFF751FE6068036A180006D0FFF734
S1133E509AFF984700F008F8204670BDFF2070BD17
S1133E6004000D46164670470446FFF747BE10B5DA
S1133E7038B14368DB6B1C0003D0BDE81040006818
S1133E801847FF2010BD08B9FF2070470162426245
S1133E900020704708B9FF2070478162C262002089
S1133EA0704708B9FF2070470163426300207047E0
S1133EB028B14168C96C0A001CBF00680847FF208C
S1133EC0704710B50446FDF725FB204610BD0000E1
S1133ED008B90248704700207047000000200740DE
S1133EE008B945207047FF20704700F011BAFFF76A
S1133EF0B5BD00007FB504460020ADF8080003906E
S1133F000E46A06802AA0121FFF746FEB07BCE252B
S1133F10002850D07168082204F10C00FFF7D1FF8B
S1133F20208A217B20826022E089E0811142608A1C
S1133F30608217D1607B354901EB8002966A3200BA
S1133F405AD0BDF80820032A56DA00EB4000401886
S1133F50105C012850D101AB03AA04F10C012046E6
S1133F60B04726E00190D8B1207B000618D4019810
S1133F700830552805D3A06800220021FFF777FFF9
S1133F807FBD6069082204F10C01FFF79AFF6069A4
S1133F90019B00F1080230680021FFF7F8FE7FBDA5
S1133FA0266A300028D0636A01AA03A904F10C0030
S1133FB0B047054620E0BDF80800042805D1618813
S1133FC0A068C9B2FFF7E0FD7FBD207B00061CD4CA
S1133FD0F07BD0B9608AC0B1206A48B1B0680830BB
S1133FE00190636A6069256A01AA03A9A847054686
S1133FF0B06810F1010F08D001A8009003AB04F1E0
S11340000C02E9B2204600F029F87FBD30C2FF1F40
S113401030B5044683B0A0680D46FFF749FF002081
S11340208DF802008DF8000001224020019000A9C3
S113403000208DF801002868FFF759FE01208DF853
S113404002000122286800A9FFF751FEE269A06975
S113405018B1A36900210020984737BD38B504463C
S1134060CE291546184606D1A068BDE8384001227D
S11340700021FFF7FCBE0499EA880B689A4238BF16
S11340800A6002680B68A0680021FFF7A4FE287884
S1134090000608D5A06801B0BDE830400022002326
S11340A01146FFF774BE31BD70B5154604461E4671
S11340B00A78FF201F231A4209D1A068224606214C
S11340C0FFF76AFD217801F00301218013E002F07B
S11340D01F03012B03D10021218001210CE002F0F8
S11340E01F02022A09D1888840F01001A0682246E4
S11340F0C9B2FFF751FD022131602C60C0B270BD1E
S113410070B5044682B000201860CE250A7848783D
S11341101F231A42C0F3400012D1897811F0030121
S113412038D0012936D1002814BF11261226A369DC
S1134130002518002ED0626A00213046984729E0F5
S113414002F01F02022A02BF8A7803231A4221D1F5
S113415089888DF800109DF800209DF8001001F06A
S11341600F01D20920B1A068FFF781FE132608E0F1
S11341709DF8000014260F23184203D1A068FFF70E
S11341805CFE0546A369180004D0626A00A93046A3
S113419098470025E8B276BD38B50446002018607B
S11341A00D46A06804220121FFF70BFD688860809A
S11341B0002032BD012119603030106000207047AA
S11341C038B5002204461A604888ADF8000000B9EA
S11341D00122A0680121FFF7F4FC0546BDF80000A8
S11341E0A369208618000BD0E26900A90120984732
S11341F0BDF8000020B1E269A369002103209847BB
S1134200E8B232BD38B50446012018601546A06AEC
S11342104368180001D1CA2032BD8988E06A224669
S1134220C9B298472C6032BD38B5044600200D460B
S11342301860287800F00300012801D0042032BD62
S1134240A06A8368180001D1CA2032BD6A88A9888F
S1134250E06AD2B2C9B29847A369180003D0E269F0
S1134260A91C02209847002032BD38B5044602201C
S113427018601546A06822460521FFF78DFC2C60C6
S1134280C0B232BD30B5846A83B02468250001D140
S1134290CA203EBD4D8801930092EAB28B88C06A61
S11342A0290AA0473EBD10B5044610460A460146F9
S11342B02046FDF76FF9204610BD000010B500241C
S11342C04FF0FF3100B10C46DCB9C8B90E48416863
S11342D041F080714160016841F0004101600021BA
S11342E00A48017010210170017941F04001017107
S11342F00020FFF7F5FD01220421FFF7F8FD00E09F
S11343000C46204610BD00BF007004400821074041
S1134310F8B504460D4616460E4F452C04BF3D60C5
S11343207E60002000F018F8844208BFFD60012080
S113433000F012F8844208BF3D61312C04BF7D6156
S1134340BE600120F2BD034801680A001CBF40683A
S11343500847704764C6FF1F042804D2034951F874
S1134360200010307047002070470000BCC0FF1FC1
S113437070B50D0082B00446164601D1002076BD0A
S113438000AA00F071F830B9009B9B685B68324664
S113439029462046984776BD70B50D0082B0044684
S11343A0164601D1002076BD00F07FF800B14CE044
S11343B000F047F868B9009B9B689B683246294621
S11343C0204698474E49002806BF009A926800226A
S11343D00A6076BD38B504460D4600AA00F044F8DC
S11343E0A0B900988068406908B9662032BD2946A2
S11343F0204600F05AF810B142F2D87032BD009A4B
S11344009268526929462046904732BD002DFCD15E
S1134410002032BD70B50D0082B00446164601D1AD
S1134420002076BD00F041F800B10EE000F009F87C
S113443030B9009B9B68DB68324629462046984782
S113444076BD00AA294620460EE042F2D87076BD19
S113445010B52B4C2168002029B109690A0002D04B
S113446088470021216010BD70B5264C646800297E
S113447018BF002A42F2D87314D000E00C348CB177
S11344802568002D04BF6668002E01D1A6684EB1D0
S1134490A84224BF65688542F0D30818401E8542AF
S11344A028BF00231460184670BD30B5154A9268C1
S11344B01269536BA3B10918491E002302EBC3040C
S11344C0603465682468002C08BF002D05D085423F
S11344D028BFA14201D3012030BD5B1C022BEDDBC0
S11344E0002030BD10B50748446804E000680100AE
S11344F018BF80470C34A0680028F7D110BD000015
S113450078C4FF1F00C0FF1F10B59648806800697B
S113451000F1700430224AF2C0312046FDF70AF857
S113452020689149884204D0FF2230212046FDF7BB
S113453093FFFCF76DFC002010BD38B5894DA868C9
S113454004694B20E07004F110020120A0700421E2
S113455005206070012020705020E0710120A071BE
S113456002206071002020715420E0720120A072AA
S11345700020607220720120206360634EF6FF7099
S1134580A06300F05EF804F11402012100F059F870
S113459004F11802002100F054F804F11C02022175
S11345A000F04FF804F12002032100F04AF804F16E
S11345B04C02052100F045F804F15002062100F0F8
S11345C040F804F15402072100F03BF8A069674A5F
S11345D0404252424FF0FF310240891A644A6166F8
S11345E01040206600216348A0666348E06668695D
S11345F0E16007E094F88030134202D0E3681A4384
S1134600E260491C182202FB01021268002AF1D15F
S11346105A480168A1644168616481682164C06882
S1134620E063686850F80C1F616241680068081A0A
S1134630401CA0622046FCF769F80120A065002018
S113464032BD05F12000FDF725BF0000F8B5144682
S1134650444A4B4F91680426401E096917281D4699
S11346604ED8DFE800F00C121416181A20224D243C
S1134670282F261C1E323540434547494D4B05B172
S11346802E6004B121600020F2BD0C31F7E7103137
S1134690F5E71431F3E71831F1E72031EFE724317E
S11346A0EDE72831EBE73831E9E72C31E7E7303142
S11346B0E5E73431E3E7D0694169496988473860FF
S11346C03946DCE710266031D9E72E480068F6E762
S11346D000A902F12000FDF7A9FA9DF800000028C6
S11346E0EDD00120EBE710263C31C8E74C31C6E79A
S11346F05031C4E75431C2E75831C0E70831BEE74E
S113470042F63C00F2BD174A92681369401E07281E
S113471042F63E0220D909380CD0401E01281BD98C
S1134720801E0DD0401E032816D908380ED0801ED6
S113473012D014E0002918BF012909D11963704768
S1134740002918BF012903D159637047032901D3F4
S1134750104670479965704742F63D00704742F62F
S11347603C00704700C0FF1F6B6366675059000030
S11347700000000000C0FF1FFFCFFF1F5480044053
S113478040C5FF1F24800440012100F01F02914016
S11347906D4A04E0012100F01F0291406B4A400978
S11347A042F8201070470021C1708170017004210B
S11347B041700021817241747047F8B5644E3360D2
S11347C0130191FBF3F633010025B1FBF3F3044627
S11347D093424FF0FF3038BF761E00D310D001272C
S11347E04B0007EB461CB3FBFCF39A4234BF9B1A05
S11347F0D31A984224BF18463D467F1C212FEFDB75
S1134800642192FBF1F101EB410188423FD251490D
S1134810514F8C4206D051498C420AD050498C42A7
S11348200ED014E01F20FFF7AFFF386840F480601B
S11348300CE02120FFF7A8FF386840F4006005E091
S11348402320FFF7A1FF386840F480503860E078F7
S113485000F0F300E070310A0020A07001F01F01A5
S1134860207800F0E000084320706670A07A00F021
S1134870E0002843A072C0206074E07840F020007B
S1134880E070E07840F00C00E0700020F2BD012000
S1134890F2BD02791206FCD5C17170473148017826
S11348A0890600D50AE070472F4801788A0701D5A8
S11348B0C0787047890600D500E07047C078244965
S11348C00968084729480178890600D5F6E7704742
S11348D058B52049204E8842044606D01F498842D4
S11348E00AD01F4988420ED014E01F20FFF752FF60
S11348F0306840F480600CE02120FFF74BFF306803
S113490040F4006005E02320FFF744FF306840F4E2
S1134910805030602046FFF746FF0E48844206D0A0
S11349200E48844207D00E48844208D051BD3068F6
S113493020F4806006E0306820F4006002E0306813
S113494020F48050306051BD00E100E080E100E0DF
S1134950C8C5FF1F00A006403480044000B00640D4
S113496000C0064004A0064004B0064004C006404F
S113497038B5044600A96068FCF769F808BB6068AC
S1134980FCF7C1F901466068012804D002280CBF75
S11349902A482B4800E02B482B4D009A2B68FFF740
S11349A00CFF58B96068A2680221904729685A2010
S11349B088472968A6208847012032BD6068FCF733
S11349C02DF8002032BD10B504461F480160606810
S11349D0A268012190476068FCF720F8002010BD10
S11349E010B504466068012804D002280CBF13489F
S11349F0134800E01348FFF76BFF6068FCF725F8E5
S1134A006068A268BDE810400021104770B50446F4
S1134A100D46164602E00978FFF73BFF3046461E76
S1134A2058B1294660684D1C012804D002280CBFE7
S1134A3002480348EFE70348EDE770BD00C00640B5
S1134A4000A0064000B00640CCC5FF1FA649D1F81F
S1134A508820531C5218C1F8883082F82000D1F8FD
S1134A60880000F03F00C1F88800704700207047BC
S1134A70B8E02DE9FC410C00154614BF002D0420BC
S1134A80984628D0984F002007F19006286070704F
S1134A9000F0A8F818B11EE0A22000F075F820215B
S1134AA03846FDF7DDF84246394600A800F0E7F83D
S1134AB010B1002129600EE0394600A800F030F959
S1134AC0BDF804108142E7D1012030702760BDF8A1
S1134AD0020028600020BDE8F6812DE9F0410C00B9
S1134AE082B015461E4635D0212D33D200F07AF817
S1134AF000283FD1DFF8F08198F8910010B1002030
S1134B0088F8910008F160075A203870A420787062
S1134B100EB1A52078707D802DB12A46214608F17A
S1134B206600FCF7F7FC08F16601384600F0F8F877
S1134B30B880A91D384600F064F8D8B900A800F080
S1134B40DDF8B8B99DF80100A12812D0A22806D03A
S1134B50A32801D004200DE042F212700AE0788804
S1134B60811D384600F04DF820B99DF80100A228B7
S1134B70E4D00020BDE8F6815C4801218170002169
S1134B80017070472020704780B55A218DF80010BD
S1134B908DF801000120544981F89100022100A8F8
S1134BA000F02FF802BD10B5044650480178427851
S1134BB080781140014282B011D10FF29410008824
S1134BC0ADF80000022223695B6800A920469847DB
S1134BD023690FF280115B6808222046984742F24D
S1134BE0137016BD4148017819B100210170A1204C
S1134BF004E0817819B100218170A320C4E700206A
S1134C0070473B4AD3690A46014618461B695B68EC
S1134C1018472DE9F14F8B461446FBF79CFF0646D7
S1134C204FF47A7089466043FBF7A5FF0025DFF84F
S1134C30B8A00446A8460AF188070EE078683968E7
S1134C4088420CD05044009990F8200068546D1CA0
S1134C507868401C00F03F0078605D450CD0002C63
S1134C60ECD0FBF778FF801B61EB0901414501D8CB
S1134C70A042E3D3052000E00020BDE8F28F70B528
S1134C8082B005460C46164600F038F858BB6878E2
S1134C90A62804D11648C069FFF785FF76BDA42174
S1134CA006B1A521884201D0012076BD00F022F88A
S1134CB0BDF800106980B0B908462128A8BF20209B
S1134CC0688000F017F8BDF80010A98058B9698809
S1134CD049B12046FCF75AFC69880A2000FB01F21E
S1134CE02046FFF796FF76BDD0C5FF1F60C6FF1FA5
S1134CF000C0FF1F1422022100A88AE710B5044651
S1134D00002201212046FFF784FF40B920785A2869
S1134D10F6D1601CBDE810400A22012179E710BDDC
S1134D2030B583B004460D4600A800F017F80422FD
S1134D30214600A800F015F86288294600A800F072
S1134D4010F801A900A800F02FF8BDF804003EBD3A
S1134D505AA70000000201500000AAEA00210180C5
S1134D6070477FB5044600208DF800000D4620886A
S1134D700190164641F2210002900020ADF80C008B
S1134D808DF80E006EB1FBF77DFD00A90020FBF746
S1134D9099FD324629460020FBF7ADFD0190FBF753
S1134DA077FD019820807FBD008808800020FBF7F4
S1134DB093BD00000748016841F4700101604CF2A2
S1134DC020510548C1814DF62811C1814FF4E97184
S1134DD00180704788ED00E000200540F8B50446E6
S1134DE015461E460020174A02EB00177A6822B1C6
S1134DF0401C0128F7DBC120F2BDF9607C60BE6075
S1134E0032462046FFF73FF8324629462046FFF750
S1134E1041F8069932462046FFF743F83846F2BD7A
S1134E200020084A02EB00128A4204D0401C0128E8
S1134E30F7DB9E2070470020506010609060D060C7
S1134E40704700007CC6FF1F00281CBF4068FEF7A7
S1134E50C2BFFF20704770477CB50E4614461D46FE
S1134E6000F0AFF8069A0799364B032E11D0212E85
S1134E7009D0222E2AD120B903F1300010604C2031
S1134E800860002076BD10B903F1160010600920F7
S1134E90F6E725B903F17C0010600420F0E7002058
S1134EA0012340F20946B54203D1032C02DA23461A
S1134EB000E001200FF2E4040C2515FB0040C46857
S1134EC054F8234014600069185CD9E7082E18DAF6
S1134ED020B90FF2A40454F826401460012E02D124
S1134EE01C68641C1C601C68022CA4BF00241C6089
S1134EF0126832B10028C4D10FF2580050F82600CD
S1134F00BEE7CE2076BD21B90F480078107000208E
S1134F107047CE20704719B90B48027000207047C3
S1134F20CE2070470020704730B549B908480121A8
S1134F3001700649D1E90045C0E901450C30106013
S1134F40002030BD14C1FF1FF1C7FF1FE0C0FF1FC9
S1134F50E8C0FF1F0000000012000000290000004C
S1134F60000000000000000000000000000000003D
S1134F70000000004C0000000000000000C1FF1F02
S1134F8018C1FF1F00000000000000000000000026
S1134F90000000000000000044C1FF1F90C1FF1F7B
S1134FA00400000009040000BC060000B80600006C
S1134FB0012100F01F029140C84A400942F8201024
S1134FC0704700207047406840083C214843C4496A
S1134FD0425C12B14018407870470020704710B509
S1134FE0002818BF0128BE4C02D10020208010BD2B
S1134FF00328FCD10120207004F11402A06BBDE849
S113500010402423022100F0DABAF8B515461E68D0
S1135010B34C042800F001020BD1A86810F1010F71
S113502018BF002849D0E068012846DB04F10C00D1
S113503039E0052807D1A86810F1010F18BF00282E
S11350403BD020612BE01219002701281F600BD0F0
S1135050022818BF03282CD009280ED00A2825D0EE
S11350600B2808BF117128E0242104F11400FCF777
S1135070F7FD04F1140028601FE029688A78002AEB
S113508004BFCA78002A04D10878012808BFA07098
S113509013D0324604F11400FCF73CFA26610120D7
S11350A0607004F10800FBF7E1FB06E0080A1071E8
S11350B003E0101D2860012018600020F2BD70B5C7
S11350C004468749606840083C2202FB001588B00A
S11350D03C212846FCF75AFAFBF7EEFD814E78B9DD
S11350E0B068006990F8801001F0EF0180F880103A
S11350F0B0680069C16821F01001C160012038E086
S1135100606830B93520FFF753FF77494FF400103A
S113511008604FF6FF72B068006930F8841F438856
S1135120934208BF914209D0704A11720188090A5A
S11351305172418891724188090AD17205F138028D
S113514040686B4910F1010F08BF6A48086000A964
S11351506948009005F1380001906848049005F111
S113516038000590664806906068C0B200F0B5F952
S1135170002008B070BD38B540684408A8B9614D36
S11351802868400311D560494FF4001008603520A9
S1135190FFF70EFF52483C2101FB0400806B00F036
S11351A0DDF9286820F48020286031BD10B54068FE
S11351B04B4940083C2202FB0014002104F1080082
S11351C0FBF748FB002104F10C00FBF743FB04F15F
S11351D00800FBF74BFB002010BDF8B540680C46F7
S11351E040081546002C18BF002D01D10420F2BD43
S11351F00021296013B1012B1ED027E00126384974
S11352003C2202FB0017F87830B1B86B242307F175
S11352101402022100F0D3F90120F8704FF0FF319D
S113522007F10800FBF718FB387DB04206D0012EC9
S113523008BF02280AD169E00226E0E7B87DF97DBB
S113524040EA01203969091F814201D20120F2BDDF
S113525007F11801216028600020F2BDF8B540680C
S113526015464608212D0C4601D30420F2BD13B186
S1135270012B0ED00FE00327FBF704FB18483C2159
S113528001FB0606B07840B10020B070FBF700FBCC
S11352903CE00427F0E70120F2BDFBF7F9FA002017
S11352A070753775280A002C18BF002DB575F07578
S11352B005D02A46214606F11800FCF72BF9B06BFD
S11352C0242306F11402012100F072F94FF0FF319A
S11352D006F10C00FBF7C0FA0020F2BD80E200E00A
S11352E0B4C7FF1F00C0FF1F04E100E000C1FF1F9F
S11352F08CC6FF1F9C4F0000DF4F00000B500000C6
S11353001CC2FF1F3480044084E100E042F21270AA
S1135310F2BD10B54469A468002200231146A047D9
S113532010BD0020704720207047FFF794BD000097
S113533010B50C6A220082B009D0826812F1010F04
S11353400CBF0021496A00F013F80420A04713BDE4
S113535010B50C6A220082B009D0826812F1010FE4
S11353600CBF0021496A00F003F80520A04713BDD3
S11353700091024600234FF6FF7170472DE9F84F64
S1135380012880468B46164646D13068B36B00AA86
S11353900021984700988068011DF160002700797A
S11353A0032866DA00240FE0896811F8341006EB4C
S11353B0440000F83C1F00998968896801EBC40126
S11353C0641C49784170E4B2009881680879844289
S11353D0EADBF468DFF8C491DFF8C4A107E028B978
S11353E0297833464A463068FEF7A0FC7F1C2078B3
S11353F0FFB2874236D2606800EBC70530680122ED
S11354002946FEF774FCA8780128E8D129783346A8
S1135410524641EAC011E6E7032818BFB8F1000F6D
S113542020D009280ED19BF8007016F13C0019D049
S1135430002400F020F801D100F025F8641C022CAF
S1135440F7DB0FE014280DD19BF8007016F13C0037
S113545008D0002400F00FF801D100F014F8641C07
S1135460022CF7DB3369180003D0726959464046B1
S11354709847BDE8F18F06EB440107F00F0091F85F
S11354803C1088427047F80900F00102306807F0C8
S11354900F01FEF7D2BC70B582B01D460446CE2083
S11354A0237803F06006202E0CD12B6AA3B1E08888
S11354B010601346686A00900A46618860782C6A16
S11354C0A04776BD03F06003402B05D1AE693300DD
S11354D002D0EB692046B04776BDF8B50D0004460E
S11354E0164601D1FF20F2BD00202E4901EB8017A2
S11354F0396821B1401C0228F7D3C120F2BD3946D6
S11355002046FEF777FB40BBA869274A274900904D
S11355103B463868FFF762FCB8600822294607F169
S11355201000FEF7CEFC082205F1080107F118006F
S1135530FEF7C7FC082205F1100107F12000FEF771
S1135540C0FCA969142207F12800FEF7BAFC3760F1
S113555020463968FEF7ACFB0020F2BD38B50400E4
S113556001D1FF2032BDA1682068FFF759FC050076
S113557003D12068FEF7A8FB05460020094901EB8A
S11355808012A24203D0401C0228F8DB04E040222F
S113559000212046FEF787FE284632BD5153000005
S11355A03153000034C7FF1F975400007D5300009F
S11355B000281CBF8068FFF747BCFF207047002805
S11355C01CBF0068FEF7E3BBFF2070474EF688510E
S11355D0CEF20001086840F470000860BFF34F8FFA
S11355E0BFF36F8F4FF00070E1EE100A70470000B8
S11355F000F00BF8002801D000F00AF80020C046A3
S1135600C046FBF70EFDFBF74DFD0120704700007F
S113561010B5074979441831064C7C44163404E02B
S11356200A68081D511888470146A142F8D110BDE7
S1135630100300001C030000C805000074C0FF1F15
S11356407006000040C0FF1F00000000F8050000C5
S11356500000000000000000000000000000000046
S11356600000000000000000000000000000000036
S113567000000000000000002516000033160000A2
S113568068040000C4C2FF1F0000000034C3FF1FF1
S113569054C3FF1F9F2E0000C32E0000E72E0000FE
S11356A010000000000000000000000000000000E6
S11356B0FFFF03004405000000C0FF1FFF7F002020
S11356C0E005000000000040FFFF0740F004000078
S11356D000F00F40FFFF0F40F0040000000000E066
S11356E0FFFF0FE0F00400000000000000000000D5
S11356F00000000030000000310000003200000013
S113570033000000000040010103010040000000DC
S1135710020300004000000002000000D0C0FF1F90
S11357200000000000000000000000000000000075
S113573001000000E8C0FF1F120100020000004049
S1135740A215730002000102000100000000000025
S113575009022900010100C032090400000203000B
S11357600000092100010001224C000705810340CB
S1135770000A0705020340000A0000000600FF09B2
S113578001A101850119012901150026FF007508F1
S113579095239102850219012901150026FF007540
S11357A00895239102850319012901150026FF009C
S11357B0750895238102850419012901150026FF26
S11357C000750895238102C0040309043A034600C6
S11357D07200650065007300630061006C00650081
S11357E02000530065006D00690063006F006E00C7
S11357F064007500630074006F00720020004900AB
S11358006E0063002E00000026034B0069006E004A
S11358106500740069007300200042006F006F008F
S113582074006C006F006100640065007200000089
S1135830220342004100440020005300540052005F
S113584049004E004700200049004E004400450036
S113585058000000594E0000074F0000174F000089
S1135860254F0000294F0000010100010100000044
S1135870000101000000000001010101010000001D
S1135880010100010100010000010000010000000D
S1135890A940000001410000000000000141000097
S11358A00000000099410000854200000000000053
S11358B0B5410000C141000005420000294200003A
S11358C06B42000030B504E012F8014B00F8014BC4
S11358D0491ED1B1C507F7D40129F5D0850701D4F4
S11358E0042904D232F8024B20F8024B891E8B089B
S11358F0EFD000EB830403E052F8045B40F8045B50
S1135900A042F9D3A1EB8301E3E730BD80B5134690
S11359100246184600E080B5FFF7D4FF002002BD20
S113592010B514460A462146BDE810400123FCF791
S113593081BFC046C046FFF749FEFFF759FE00008D
S113594037B5FFFF6405000090C2FF1F0000000090
S9030411E7
