S0180000746F7765725F626F6F746C6F616465722E7372656351
S113000000EEFF1F11040000530800002917000030
S11300102B1700002D1700002F1700000000000010
S11300200000000000000000000000005308000071
S1130030530800000000000053080000870B000074
S11300401F0F00001F0F00001F0F00001F0F0000F4
S11300501F0F00001F0F00001F0F00001F0F0000E4
S11300601F0F00001F0F00001F0F00001F0F0000D4
S11300701F0F00001F0F00001F0F00001F0F0000C4
S11300801F0F00001F0F00001F0F00001F0F0000B4
S11300901F0F00001F0F00001F0F00001F0F0000A4
S11300A0152E0000192E00000D2E0000112E000048
S11300B01F0F00001F0F00001F0F000091490000D8
S11300C01F0F00009D4900001F0F0000B9490000E8
S11300D01F0F00001F0F00001F0F00001F0F000064
S11300E01F0F00001F0F00001F0F00001F0F000054
S11300F01F0F00001F0F00001F0F00001F0F000044
S11301001F0F00001F0F00001F0F00001F0F000033
S11301101F0F00003B4400001F0F00001F0F0000D2
S11301201F0F00001F0F00001F0F00001F0F000013
S11301301F0F0000E10D00001F0F0000050E00005E
S11301401F0F00001F0F00001F0F00001F0F0000F3
S11301501F0F00001F0F00001F0F00001F0F0000E3
S11301601F0F00001F0F00001F0F00001F0F0000D3
S11301701F0F00001F0F00001F0F00001F0F0000C3
S11301801F0F00001F0F00001F0F00001F0F0000B3
S11301901F0F00001F0F00001F0F00001F0F0000A3
S11301A01F0F00001F0F00001F0F00001F0F000093
S11301B01F0F00001F0F00001F0F00001F0F000083
S11301C01F0F00001F0F00001F0F00001F0F000073
S11301D01F0F00001F0F00001F0F00001F0F000063
S11301E01F0F00001F0F00001F0F00001F0F000053
S11301F01F0F00001F0F00001F0F00001F0F000043
S11302001F0F00001F0F00001F0F00001F0F000032
S11302101F0F00001F0F00001F0F00001F0F000022
S11302201F0F00001F0F00001F0F00001F0F000012
S11302301F0F00001F0F00001F0F00001F0F000002
S11302401F0F00001F0F00001F0F00001F0F0000F2
S11302501F0F00001F0F00001F0F00001F0F0000E2
S11302601F0F00001F0F00001F0F00001F0F0000D2
S11302701F0F00001F0F00001F0F00001F0F0000C2
S11302801F0F00001F0F00001F0F00001F0F0000B2
S11302901F0F00001F0F00001F0F00001F0F0000A2
S11302A01F0F00001F0F00001F0F00001F0F000092
S11302B01F0F00001F0F00001F0F00001F0F000082
S11302C01F0F00001F0F00001F0F00001F0F000072
S11302D01F0F00001F0F00001F0F00001F0F000062
S11302E01F0F00001F0F00001F0F00001F0F000052
S11302F01F0F00001F0F00001F0F00001F0F000042
S11303001F0F00001F0F00001F0F00001F0F000031
S11303101F0F00001F0F00001F0F00001F0F000021
S11303201F0F00001F0F00001F0F00001F0F000011
S11303301F0F00001F0F00001F0F00001F0F000001
S11303401F0F00001F0F00001F0F00001F0F0000F1
S11303501F0F00001F0F00001F0F00001F0F0000E1
S11303601F0F00001F0F00001F0F00001F0F0000D1
S11303701F0F00001F0F00001F0F00001F0F0000C1
S11303801F0F00001F0F00001F0F00001F0F0000B1
S11303901F0F00001F0F00001F0F00001F0F0000A1
S11303A01F0F00001F0F00001F0F00001F0F000091
S11303B01F0F00001F0F00001F0F00001F0F000081
S11303C01F0F00001F0F00001F0F00001F0F000071
S11303D01F0F00001F0F00001F0F00001F0F000061
S11303E01F0F00001F0F00001F0F00001F0F000051
S11303F01F0F00001F0F00001F0F00001F0F000041
S1130400FFFFFFFFFFFFFFFFFFFFFFFFFEFFFFFFF9
S113041072B60E480E49886000220023002400258D
S113042000260027B846B946BA46BB46BC4609482A
S1130430854609488047094880470948804762B68D
S113044000200021074A9047FEE70000000000005A
S113045000ED00E000EEFF1FA94E00002115000092
S11304605B1500002F1100006B1800000000000055
S11304707D18000000000000131900005B1A000042
S1130480011900008B190000231B0000000000006C
S1130490C51B000000000000B718000000000000A9
S11304A0911800008B190000371B000000000000A9
S11304B0A11B000000000000231800000000000041
S11304C0EB18000000000000000000000000000025
S11304D0D31B000000000000E71B00000000000028
S11304E0091C00005B1A000000000000000000006E
S11304F000000000015A00000B5A0000155A0000C9
S11305000000000000000000BD2900000B2A0000CC
S11305103F2A000000000000000000005F2A0000E5
S1130520000000000000080000001000000020008F
S113053000004000000080000000000100000002F4
S113054004000240751D0000A11D0000DD1D000017
S1130550C71E000000000000631F000000200340CD
S1130560A12F00000F30000039300000000000000F
S1130570000000004F300000C1350000EB350000E2
S11305805336000093370000DD3700008739000040
S11305907B3600003D370000DB380000713A000074
S11305A0853A000000000000E1390000F93900003C
S11305B00000000073380000B93A0000ED3A000072
S11305C0DD300000373B0000D945000065440000E1
S11305D08D4400000945000045450000C944000061
S11305E065260000692600007B260000B92600006D
S11305F000000000000000000100000001000000F5
S1130600E10B000084060000940600009C06000034
S113061002000000010000006F0C000060050000F3
S1130620700500009C0600000400000001000000AA
S1130630B70C000008050000180500009C06000027
S1130640100000000000000000000000CC060000C4
S113065000000000DC0600000000000000000000B4
S11306600000000000000000000000000000000086
S1130670FD4500002F46000041470000FB470000F5
S113068088E4FF1F654A0000BB4A0000D54A000009
S11306900000000000000000014B0000614B00005E
S11306A0674B0000CF4B00006D4C0000654B000011
S11306B0794C0000414B0000043A262290E1FF1FD0
S11306C094E1FF1FD0E1FF1FF8E1FF1FBB500000C2
S11306D0B35100006B5200001F540000A1520000EF
S11306E0CF5200005153000007540000175400007B
S11306F01B5400000000000005E0002070470020AB
S11307007047002070474FF6FF707047416F11F13A
S1130710010F01BF816F11F1010FC16F11F1010FC1
S113072002D042F6A20101E042F6A301C162704781
S1130730FEB5254881680C69E16A012542F6A302E9
S113074091423FD004F1700100258A68002A36D016
S11307500E1D534231688B4222BF406803689942A0
S113076021BF40685118491E884228D300A800F0D0
S11307702DF80C2000F52340C03031687268071D45
S1130780B9423CBF5318984208D2421A00A800F05C
S113079023F8306871680818C21B394600A800F0B5
S11307A01BF802A900A800F03FF80298E16F884204
S11307B006BF012542F6A00042F6A10001E042F680
S11307C0A400E0622846FEBD00E0FF1F4FF0FF31A9
S11307D001600021416070477FB5044601208DF817
S11307E000000E462068019015460E480290002035
S11307F0ADF80C008DF80E006DB100F043F800A9BF
S1130800002000F05FF82A463146002000F073F81B
S1130810019000F03DF8019820606068281860603D
S11308207FBD0000B71DC10438B504460D462079CC
S113083010F0030007D000A900220A60C0F10402EE
S11308402046FFF7C9FF20682860002000F044F824
S113085031BDFEE70160704772B60168491C016052
S113086062B601680029FCD10120704772B60168A4
S1130870491E016062B6704772B60B4900200860D9
S113088062B6704772B608480168491C0160704737
S113089005480168022901D20021EAE70168491EDE
S11308A00160704700000000A4E3FF1F083040010E
S11308B0484A1150704782689200920842EA817156
S11308C08160704709B90120704720B9424A136812
S11308D043F48023136051E0404951F8201041F261
S11308E021024A6000228A6020B93B48016821F451
S11308F0802101607047F8B50E46384951F8204010
S1130900A068870F154605D0022F07D004D3032F04
S113091006D00EE0032104E0022102E0012100E000
S113092000212046FFF7C7FF03E016F8010B2070F3
S11309306D1E16F0030006D0002DF6D103E056F824
S1130940040B20602D1F042DF9D2012D0AD00BD3E6
S1130950032D03D03CBF3088208005E03088208000
S1130960B07800E030782070204600F03DF805466D
S113097039462046FFF79FFF2846F2BD70B50C00AC
S113098001D1012070BD154951F82050144905F1D9
S113099008004601207888512846217BFFF78BFF09
S11309A0607BA968000721F0405100F040500843E3
S11309B0A8600C49A07B88510121A0686860284682
S11309C0FFF774FF6068286000212846FFF76EFF78
S11309D0002070BD640000423C8004405C050000BF
S11309E0600000426800004200F1080252010A4B14
S11309F09A580021D2B21AB1012A08BF016808E04E
S1130A008168090F01F0030102291ABF0329018833
S1130A1041880846704700006000004238B504462B
S1130A203D4D0020C5E90000C5E90200C5E9040008
S1130A30A8612862394800F09EF8E8612046BDE8C4
S1130A4034400FF2590100F0EFB900F013BA70B559
S1130A50314D0C46A969072904BF296A88421AD175
S1130A6000F08EF8C0EB0016D5E90001D5E90223A9
S1130A701018B6FBF0F00A2148434FF49661B0FB1E
S1130A80F1F0401D0A21B0FBF1F04FF496614843A8
S1130A902060002070BD012070BD00002DE9F843E6
S1130AA0064600F058F81C4F0446D7E90459884616
S1130AB0B8690021421C651B68EB0909F8694945BE
S1130AC002D82CBFA8420122012ABA6106D0042A06
S1130AD008D0052A0ED0072A0FD018E0C7E900482D
S1130AE03E6214E0D7E90001201A68EB0101C7E96E
S1130AF000010CE0C7E9024809E0D7E90201201A25
S1130B0068EB0101C7E90201304600F0B3F9C7E917
S1130B100448BDE8F183000090E2FF1F8038010023
S1130B201C48002101606FF07F421B494A6000228B
S1130B308A6007220A601949194A0968C900B1FB89
S1130B40F2F101B90121416070471348016821F0B5
S1130B500601016070470F490A68124800680B6873
S1130B60C0430002000A9A42F6D1002110EB026051
S1130B7051EB12217047074949684843C008704740
S1130B8006480068704703480168491C01607047C3
S1130B90000000007CE4FF1F10E000E0CCE0FF1F39
S1130BA040420F0018E000E0012100F01F029140D4
S1130BB0BE4A04E0012100F01F029140BC4A4009F2
S1130BC042F8201070470901002806D5B94A00F000
S1130BD00F00801800F8041C7047B74A815470470E
S1130BE0B64A10B1012821D07047B54819B102297D
S1130BF011D006D37047016811400160416811406B
S1130C0012E00168114041F480710160AD4801684F
S1130C1021F0080129E00168114041F4E06101601C
S1130C204168114041F4E06141607047A64819B140
S1130C30022911D006D37047416811404160016810
S1130C40114012E04168114041F4807141609F48B5
S1130C50016821F0020108E04168114041F440714B
S1130C6041600168114041F44071016070470128FE
S1130C7000D0704710B59648964B904C964A11B1E7
S1130C80022909D010BD116821401160516821402A
S1130C905160002119600CE01168214041F4007199
S1130CA01160012119605168214041F400715160C3
S1130CB00121016010BD012825D1804A874811B166
S1130CC002290CD07047016811400160416811404D
S1130CD04160816811408160C168114012E001687F
S1130CE0114041F4E06101604168114041F4E06168
S1130CF041608168114041F4E0618160C168114044
S1130D0041F4E061C160704780B500F009F97448AE
S1130D10416B41F478514163016821F0406141F035
S1130D2080610160016841F44031016001BD6C489B
S1130D306C4A416B21F478514163016811400160B0
S1130D4070476748016B41F480210163016B4903DB
S1130D5001D40020704764490A7842F080020A7086
S1130D6007230A781A42FCD1016841F4E0210160AA
S1130D7001205E4908705E49087070475D485E490D
S1130D8000680968C0F30360401CB1FBF0F07047D1
S1130D9010B1012802D004E0584870475648006852
S1130DA07047002070475748444A0168114041F495
S1130DB08071016052494A6822F080024A600268E8
S1130DC042F01302026000204FF4FA720B68C3F37E
S1130DD0C0131818521EF9D1FA288041C00F704769
S1130DE037480068C0F3006000B9704780B54648D2
S1130DF00168080005D00020884744494FF0FF30BF
S1130E00086001BD42480068C0F3006000B9704743
S1130E1080B53D484168080005D0012088473D4918
S1130E204FF0FF30086001BD70B50C46364D3A4EA8
S1130E3010B101280CD070BD01213D20FFF7C3FE85
S1130E403D20FFF7B1FE1E4800F00EF82C6070BD87
S1130E5001213F20FFF7B7FE3F20FFF7A5FE2C48F6
S1130E6000F002F86C6070BD0168314041F420214B
S1130E700160704738B5244C274D10B101280AD0C1
S1130E8031BD3D20FFF796FE0D4801682940016001
S1130E900020206031BD3F20FFF78CFE1C48016814
S1130EA0294001600020606031BD000000E100E0E5
S1130EB080E100E018ED00E000E400E0FFF8FFFE50
S1130EC00CB0044094F00F4000D0044014F10F40E3
S1130ED0940596421405964228B0044010C004407C
S1130EE004800440FFFFF8F30C2107401C28E4426F
S1130EF08428E44244800440CCE0FF1F006CDC0200
S1130F0090F00F401CB00440A8E3FF1FA0B00440C1
S1130F1004D00440A0D00440FFFFF0FE7047FEE779
S1130F200848817804290BD1017801F09F010170F0
S1130F30FF218278012A04BF034A1278491EF8D19E
S1130F407047000001E0074002D00740012811D893
S1130F500FF22C028056012904D100F01F029140A7
S1130F60054A04E0012100F01F029140034A4009B0
S1130F7042F820107047000000E100E080E100E04A
S1130F801A1B50F8041B61B150F8042BD30744BF5B
S1130F90A9F101039A180023091F42F8043BFAD16E
S1130FA0EFE77047012811D80FF22C02805601296F
S1130FB004D100F01F029140054A04E0012100F031
S1130FC01F029140034A400942F820107047000074
S1130FD000E100E080E100E01819000038B50446A3
S1130FE00D46002000F0E6F86C486D4A0560446048
S1130FF04FF420411160016881F3088881F3098866
S113100040688047BDE83240002000F0D3B865490D
S11310108968096900281EBF10F1010F624A9042D5
S113102006D00A69904203D34B699A18904208D3B8
S11310304A6A904207D3896A891888428041C00F5E
S1131040704701207047002070472DE9F84F554D37
S1131050564EA868006900F1700A37460AE09AF80B
S11310601010014205D07869FA68816952683846DF
S11310709047183738680028F1D14FF47A70FFF799
S11310807AFD07464FF42040002441680091D0F8CF
S113109000B0FFF788FE70BB0098FFF7B8FF50B3AD
S11310A0FFF746FB38B3A868006990F88E00C007C4
S11310B003D400985946FFF791FFBAF812004FF68F
S11310C0FF71884208BF41F2883007FB00F4FFF744
S11310D042FD8046894674B1FFF73DFDB0EB080040
S11310E061EB09010025A94201D8A04203D300986D
S11310F05946FFF773FF374600E018373868002871
S1131100E9D0F9680968384688470028F5D0002FE7
S1131110E1D006E0B74203D0F168896830468847D9
S1131120183630680028F5D13846BDE8F28F38B556
S1131130FFF7A2FBFFF7E8FD1A4CA06800688047A0
S1131140002000F069F8FFF7EBFC04F1200000F048
S11311504CF9206800688047A06840688047FFF722
S113116074FFE061016919B109680A0018BF884772
S1131170E069416919B109680A0018BF8847E06845
S113118000688047E569E06840688047E868C168AE
S11311900800F8D028468847F5E70000B4E2FF1FAE
S11311A008ED00E000E0FF1F11040000F805000056
S11311B07047000070B50446022C04D0002000F0F3
S11311C09AF9012C0ED00026114D06E04019C16891
S11311D089680A0018BF8847761C18207043415953
S11311E00029F3D174B9FFF74DFBFFF7AEFC00F013
S11311F0B4F9084900200860012000F00DF8FFF759
S113120096FD62B6BFF36F8FBFF34F8F70BD00BF03
S1131210F805000008ED00E0F8B55A4C5A4D0100FD
S1131220207861D12968616058498968096901F1A8
S11312307002117C167F090906F0010601F0010312
S113124083F001073E42524908D02A68120F4FF03A
S1131250A070521CB0FBF2F00860F1BD527FD24383
S113126002F00F02521C0BB906E0521E494B4A4EC3
S1131270B3FBF2F3B342F8D3464B484EB3FBF2F35D
S1131280B34228BF521CF7D21646174600E0761C1C
S1131290DFF800C1DFF808E1BCFBF6FCF445F6D248
S11312A0DFF8F0C0DFF8FCE0BCFBF7FCF44528BF36
S11312B07F1CF5D2012A03D1092E38BF092F1AD277
S11312C0761E3606521E06F0706646EA02727E1ECE
S11312D0360406F4702632432A600B60012100F0C4
S11312E00BF801202070F1BD012904D1002100F088
S11312F003F860682860F1BD884242D001292A4879
S11313002A4B2B4A25D1517801F0CF0141F020011D
S11313105170117801F0C70141F030011170D1789A
S113132041F08001D17000211970117B01F0FC01A2
S113133041F00201117301780029FCD1D07800F04A
S11313407F00D070D07800F09F0040F02000D07073
S11313507047B1B9D17841F08001D1700121197081
S113136001780029FCD0D07800F07F00D0700420F0
S1131370107080205070D07800F09F00D070002052
S113138010737047BCE2FF1F4480044000E0FF1F5D
S1131390CCE0FF1F006CDC02002D310101A24A04E5
S11313A081F0FA0241787D01D000C8420800C842A9
S11313B00040064008B904207047C06920B10068A5
S11313C0022801D1002070476D20704710B508B97C
S11313D0042010BDC469606800F0F3F8A06800F050
S11313E07DF802202060002010BD10B5040001D15A
S11313F0042010BD224923480968C1F3036130F871
S11314001100000301D1642010BD0021216060603F
S11314104FF480710120A0604FF40060E0601A482E
S113142090F9002091406161C078A06100202061A2
S11314302046FFF7BFFF20B11448E0612046FFF7C4
S1131440C5FF002010BD08B9042070475B1E194277
S113145008BF1A4201D0652070470368994221BF32
S11314604068C0185118884201D266207047002095
S113147070470749884201D06B20704700207047AD
S11314804C800440200500002800024050E0FF1F6B
S11314906B66656B68B1042A02D0082A0BD008E099
S11314A079B110290DD320290BD0A1F121001328E3
S11314B007D304207047102903D0A1F11100032899
S11314C0F7D2002070470000016841F47001016008
S11314D0BFF36F8FBFF34F8F7047704710B504464B
S11314E00B480C490A1A411E204600F099F80A4993
S11314F0601C086010BD38B504002000FFF75AFFD7
S11315000500002D03D1054803490968884731BD0A
S1131510C9140000DB1400002CE3FF1F04F0014099
S113152080B518491848086018491948421A1948DA
S113153088421CBF002A00F073F817481749091A9B
S113154018BF00F0A9F816491648421A04D0BDE89D
S11315500840154800F064B801BD14484FF0FF314D
S1131560016041608160C160016141618161C1616B
S11315700F48016041608160C16001614161816126
S1131580C161704708ED00E0000000002C57000026
S1131590B859000000E0FF1F90E2FF1FF4E7FF1FAF
S11315A0445A0000445A000000ECFF1F80E100E0B0
S11315B080E200E08021017001780906FCD57047C3
S11315C0704710B50446124812490A1A411E2046B3
S11315D000F026F81049601C086010BD10B50F4CCF
S11315E070212170FFF7E6FE88B90B49096820468F
S11315F088472078810601D5672010BDC10601D532
S1131600682010BDC00701D5692010BD002010BDA1
S1131610B5150000C115000030E3FF1F00000240B3
S113162062B38B0708D0521E11F8013B00F8013B4E
S113163000F024808B07F6D1830740F0208000BFA0
S1131640103A07D330B4B1E83810103AA0E8381093
S1131650F9D230BC530724BFB1E80810A0E8081041
S113166044BF51F8043B40F8043BD20724BF31F88F
S1131670022B20F8022B44BF0B7803707047083A02
S113168007D3B1E80810083A40F8043B40F804CB0B
S1131690F7D25307E4E70000002200F005B8000089
S11316A062F30F2262F31F42401810F0030308D0C4
S11316B0C91A1FD3DB0748BF00F8012D28BF20F843
S11316C0022D130030B414461546103928BF20E902
S11316D03C00FAD8490728BF20E90C0048BF40F86D
S11316E0042D890028BF20F8022D48BF00F8012DE1
S11316F030BC7047C91818BF00F8012DCB0728BFAC
S113170000F8012D70470000BFF34F8F0448054ACD
S1131710016801F4E06111430160BFF34F8FFEE7FC
S11317200CED00E00400FA05EEE7EDE7ECE7EBE78B
S1131730DFF8F015C968C9680020086070472DE912
S1131740F041DFF8E055E86982B000248DF80140EB
S11317504669002E62D0E968C9680A68012A4CD03B
S113176001F1080274680023091DA04704001FBF8B
S113177042F21270844242F2137084424ED1E868FD
S1131780C168D1F80880B8F1000F47D04E683778A7
S113179037B1122F04DA806800EBC700083800E084
S11317A00020086200281CBF006800281CD000A983
S11317B005F1200000F0C0FA040017D19DF80000E4
S11317C048B14FF4E750791E20FA01F2D00758BF10
S11317D042F211740AD5EA68D268126A1268414664
S11317E030469047002406E042F210743946204601
S11317F000F01FFA94B901200DE0086A48B141686D
S1131800080003D00DF10100884704460CB1002004
S113181001E09DF80100E968C96808602046BDE858
S1131820F68180B50178002000F003FADFF8F404B3
S1131830C0694169096988470220FFF7BBFCBFF30F
S11318404F8FDFF8E404DFF8E424016801F4E06179
S113185011430160BFF34F8FFEE7DFF8C804C0688F
S1131860C06814210C3000F081BA10B5044600F0B1
S11318709EFBFFE72178BDE81040DAE110B5DFF800
S1131880A424126852690446A16860689047F1E78D
S113189010B500F04AF8DFF88C04C068C0686168CD
S11318A00161082101770020217800F0C2F9BDE828
S11318B0104000F02CBD30B583B0DFF86844A56853
S11318C000210191009100AB81684068AD6801AAD4
S11318D0C9B2C0B2A847E268D26800211161009978
S11318E08A08019900F0B9F937BD10B5DFF834243E
S11318F09268D26804466068A168C0B29047B9E7AC
S113190010B500F012F800F012F80421017700205D
S1131910B0E710B500F009F800F009F803210177E9
S11319200020A168BDE81040AEE1044695E7DFF869
S1131930F403C068C068A1680161616841617047CF
S113194038B5DFF8E0530446E868C0680021416117
S11319500161007F042804D128680069804704B924
S11319600446E868C068017F204600F062F942F24C
S11319701270844208D1E868C068007F082804BF58
S1131980BDE8314000F005BD31BD2DE9FC4100F05A
S1131990C2F821B900202070FFF7D2FF5AE00121DC
S11319A0217006694769002000900123E869D0F896
S11319B014C0DCF804C000AA01A9E0475FEA0008EB
S11319C005D0E8694169C9688847404603E0009842
S11319D030B942F21270FFF7B3FF002020703AE0F2
S11319E0B04288BF30460090E868C068017F08298B
S11319F013D10199C160009981610198009900F0A7
S1131A0090FC804642F27D7080451CBF42F27470A7
S1131A1080450BD14FF0000808E02B68019A00992B
S1131A209B683846984780460098C7190098361A2C
S1131A3006D0B8F1000F09D0E8694169C968884740
S1131A404046FFF77DFF0020207003E0E868C0688F
S1131A50066147610020BDE8F6812DE9F04700F0FA
S1131A605AF88AB021B900202070FFF769FF4EE0D0
S1131A700121217006694769C168027F212E2CBFAC
S1131A804FF02008B046A9B1424601A8FFF7C8FDAF
S1131A90E869D0F814C0DCF808C00123424601A963
S1131AA0E047A6EB080606B168B3FFF749FF00203C
S1131AB020702CE0032A08EB070906D12B685B6829
S1131AC001AA4146384698470CE0102A18BF4F46F1
S1131AD0DED1407F0090434601AA394605F120003B
S1131AE000F07CFC5FEA000A4F46D1D0E869456902
S1131AF0AD680123002201A9A8475046FFF720FF43
S1131B000020207004E0E868C06806614761002096
S1131B100AB0BDE8F087834D0446E868C0680169EF
S1131B20704710B57F4B1B68DB680446E268A16808
S1131B30606898479EE62DE9F04105467C4C6E6846
S1131B40D5F80880E86877492060002749680C3197
S1131B5030B10A68904223BF4968491C8142042776
S1131B603046FFF754FA00B904272978384600F0C4
S1131B7060F89FB966600020FFF71CFB2068C4F87A
S1131B80088018B180F3088880F3098861684046AA
S1131B908847BDE8F0410020FFF70CBBBDE8F081A9
S1131BA038B504466068FFF732FA08B9042005E046
S1131BB065680120FFF7FEFAA068A8472178BDE810
S1131BC0344036E010B50446211D5A4800F04EFC5E
S1131BD050E610B50446A3686168564804F10C0247
S1131BE000F06CFC46E61CB5044600A80021002267
S1131BF006C0A36861684F4800AA00F08BFCA26885
S1131C0000A900F045F813BD10B5FFF78EFE454856
S1131C10C168C968A2680A6162684A6110220A77C9
S1131C20C068C068E16841770020A168BDE8104041
S1131C305BE010B584B0A02201908DF80020002252
S1131C4000F06AF88DF80220029102228DF8032038
S1131C5000234469A4680C225BE010B588B0A72374
S1131C6000F03AF80020531C8DF8033006E000AC75
S1131C7051F8203004EB8004401CA3609042F6DB52
S1131C8000F021F800231AE010B584B0A3222FE05D
S1131C9010B588B0AF2300F01FF802238DF803308D
S1131CA040B99008801C8DF80300029203A8FFF746
S1131CB0C7FC01E000200290002300F004F800A912
S1131CC0A04708B010BD1748C0699DF803104469C7
S1131CD0A46889000A1D70478DF800300190002324
S1131CE08DF801308DF80230704710B584B0B02201
S1131CF08DF800200190012200F00EF802910022DC
S1131D008DF80220002302228DF803200C2244695E
S1131D10A46800A9A0471FBD0248C0698DF801202E
S1131D207047000000E0FF1F0CED00E00400FA051E
S1131D30E8E2FF1F20E0FF1F002818BF002901D19F
S1131D40042070470848007800F00302022A08BF04
S1131D50002005D000F0C00080280CBF0120022024
S1131D6008700020704700BF02000240002200F00B
S1131D70FDBB000038B5C64C65682A46042104F151
S1131D80200000F00DFC00AA012104F1200000F065
S1131D9007FC286800990818401E6860002032BDBE
S1131DA0F8B50446BA480D46416B16464A4202EA63
S1131DB00401671AEF197F423A4000AB52422030C7
S1131DC000F00EFC48B99DF8000008B16C20F2BD8B
S1131DD032462946204600F047FCF2BD2DE9F04F7B
S1131DE0DFF8AC828146D8F8080000690D4687B058
S1131DF0AE08B600046B9246AF1B04B101244FF049
S1131E00FF3004902FB13A4606EB0A0104A8FFF70D
S1131E1007FCFEF737FD684280088000414203AAB0
S1131E20484600F010F9050002D0FEF731FD3DE010
S1131E309DF80C0000B1002406EB090B46B13346B3
S1131E405246494608F1200000F040FC050008D144
S1131E503FB1042304AA594608F1200000F036FCDF
S1131E600546FEF715FD0DBBE4B20CB3FEF70AFD03
S1131E7076B105A80290534606A80190324600F0B8
S1131E801BF8494608F1200000F052FC05000AD175
S1131E904FB100F05FF800F00FF8594608F1200048
S1131EA000F046FC0546FEF7F3FC0DB1284600E0C1
S1131EB0002007B0BDE8F08FD8F808000069806DF5
S1131EC0C0B2009070472DE9F041714D8046A8687A
S1131ED00069066B88B006B1012648428008049266
S1131EE08000474203AA3946404600F0ACF804009B
S1131EF02AD19DF80C0020B1002602E008F1040864
S1131F003F1F1FB3FEF7BEFC042304AA414605F19C
S1131F10200000F0DBFB0446FEF7BAFCA4B9002E57
S1131F20ECD0FEF7AFFC00F015F8A8680069806DEE
S1131F30C0B20090414605F1200000F0F9FB0446D0
S1131F40FEF7A6FC002CD9D0204600E0002008B003
S1131F50BDE8F08105A8029004AB06A80190042214
S1131F607047F8B504460D46FEF78CFC484E494BC5
S1131F702A46214606F1200000F00AFC0746FEF737
S1131F8087FC97B9B0680069006B70B1FEF77AFC02
S1131F90B0680069836DDBB22A46214606F1200051
S1131FA000F032FC0746FEF773FC3846F2BDF8B584
S1131FB0374EB068006900F160040025216821B93A
S1131FC06268521E9241D20F00E000228369406B86
S1131FD0B8B1B2B95F4231B1394004D00020FFF743
S1131FE0C0FF05002DD171686068496840423840DF
S1131FF04042884225D2491C091AFFF7B2FF054620
S11320001FE0FEF73FFC234906F1200000F03AFCF4
S11320100546FEF73DFCA5B9B0680069006B68B1E0
S1132020FEF730FCB0680069816DC9B206F120008A
S113203000F040FC0546FEF72BFC15B916490120BB
S113204008702846F2BD38B5154600222A700A46A3
S11320500F4C014600AB04F1200000F0C1FAA8B90E
S11320609DF8001029709DF8001079B10A4D297867
S113207061B9A0680069816DC9B204F1200000F063
S113208019FC08B16C2032BD0121297032BD000059
S113209000E0FF1F6B66656BF0E7FF1F4168826815
S11320A08A4209D2891A416082660FF2ED110160F9
S11320B0012181600020704742F2787070470FF26E
S11320C0050113E0416ADFF8F4324A898282CA6862
S11320D0921E42604A689A4202D1097A022902DBBE
S11320E042F2757070470FF20D0100BF01600020CD
S11320F07047000010B5044682B0606A41686268A7
S1132100A1610168C91E9142A16002D342F27670B6
S113211016BD008910B142F2777016BD8DF800002B
S113212000A9A748FFF708FE9DF8000010B142F28D
S1132130817016BD2046FFF7B1FF16BD38B5A14D1D
S11321402B689B680446626A216EE06D984780B9EB
S113215028680069804760B900F03AF800F033F865
S11321600098616E884200D038E00FF22D10206094
S1132170002032BD38B50446924D00F029F82B6892
S1132180626AE06D9B6810219847D8B9E06D103001
S1132190E065206E10382066112828BF8A480FD2C7
S11321A008B18A480CE028680069804750B900F0FB
S11321B00AF80098616E884200D00FE00FF2D9004F
S11321C02060002032BD00A904F11C00FEF72CBBE6
S11321D0616A102204F11C00FEF7FEBA42F27A7022
S11321E032BD10B5044604F11C00FEF7EFFA206E70
S11321F011282CBF7448754890E0724B1B68426EDE
S1132200016EC06DDB68184710B5044642F27F705A
S1132210E26D11000ED0606E04F1180190470128A0
S113222003D12046BDE8104038E7022802D100F06F
S11322306EF8002010BD10B500F15C01031D1C6890
S11322404A685A60944202D242F2767010BD0A7A09
S1132250D20707D50A685C69A24203D1486898602E
S1132260002010BD90F85A10C9075CBFBDE81040AB
S1132270FFF714BF42F27C7010BD90F85A10C907E2
S113228048BFFFF794BE4F4A126852695C304168F8
S11322900068104700000000B0B5044604F158057A
S11322A0606A0FC885E80F005A270120415D7F1836
S11322B0401C1028FAD32878F9B2884202D042F29E
S11322C07970B0BD687807281ED8DFE800F01B04D9
S11322D0080C10131B172046BDE8B040ABE720469E
S11322E0BDE8B0407DE72046BDE8B04085E742F256
S11322F01270B0BD2046BDE8B04085E72046BDE879
S1132300B040BAE70020B0BD42F27B70B0BD10B55A
S11323102F4C70212046FFF729FD2E482060002015
S113232010BDF8B504460D46002000262A4FAE42E3
S113233017D03869C0F11000A91B09E079B13B69D5
S1132340325DDA55761C3A69521C3A61401E491EC8
S11323500028F3D1386100F005F810B9E7E742F23C
S11323607D70F2BD1A491C4A4A620020CA6842B113
S11323700869904202D2401C086104E042F2747081
S113238070478A6E12B9084609680847521E8A6661
S1132390704738B50E4890F8591004290CD100F153
S11323A05C042568280004D00020FEF703FFA06821
S11323B0A84742F27E7032BD002032BD53544D50C6
S11323C020E0FF1F00E0FF1F752100003D210000F9
S11323D044E5FF1FBF200000B4E5FF1F2DE9F843CB
S11323E05FEA0008914614BFB9F1000F04200F46BC
S11323F01D4619D0089C22462946384600F01AF892
S113240090B904E0716849F8041B3F1D2D1F5DB1AC
S11324100648066806483760032101700472404686
S1132420FFF7DCF80028EDD0BDE8F283400500009A
S11324300700024010B510F0030F08BF11F0030F9E
S113244001D0652010BD022A0EDA0C18641E012A80
S113245006D1002804BF481E072805D1002010BD5E
S1132460002AFBD1FF2CF9D9042010BD10B50A466F
S1132470002818BF002A01D1042010BD0E4B1C787F
S1132480002104F00304022C14D045215971117861
S11324905972517819729178D971D17899711179E9
S11324A05973517919739179D972D1799972FFF766
S11324B095F80146084610BD02000240F8B5160022
S11324C004460D461F4601D10420F2BD3A46FEF7EC
S11324D0E1FFC8B90D48432141700570102D0C4827
S11324E000683168416003D0A5F11101032903D2CA
S11324F0082F04BF716881602046FFF76FF8054616
S11325002046FEF7F8FF2846F2BD00BF0600024051
S113251040050000F8B5150007460C461E4601D1DB
S11325200420F2BD3246FEF7B5FFA8B90B4841219D
S1132530417004703846FFF751F868B908490968D2
S11325404A682A60102C03D0A4F11102032A03D292
S1132550082E04BF89686960F2BD00BF060002400E
S11325604005000062F30F2262F31F4200B500BF72
S1132570130096469446103928BFA0E80C50FAD8A8
S11325805FEA417C28BF0CC048BF40F8042BC90750
S113259028BF20F8022B48BF00F8012B00BD000023
S11325A0002818BF002A01D104207047072915D834
S11325B0DFE801F00408080A0C0E1012C06810606D
S11325C0002070474068FAE78068F8E70068F6E79B
S11325D00120F4E74069F2E78069F0E76A20704778
S11325E02DE9F04180461E000D46174608BF042021
S11325F034D00423FEF727FF80BBD8F814307A19AF
S11326005F42C2F1000C07EA0C0CCCF1000C2F4025
S1132610ACEB07070021B7FBF3F7DFF844C00AE08F
S1132620DCF800E0203C6FEA0E0E2EFA04F4E40716
S113263048BF491C5D1995420AD2B5FBF3F4202C1E
S113264038BFDCF804E0EED3D8F818E07445E7D3DB
S113265019B1B94234BF022101213170BDE8F081C2
S11326601800024000F032B9134680B50A4601460C
S11326701846FEF7D5FF002002BD70B510F0030F19
S11326800C46154612D0B0F1005F0FD22118491E36
S1132690B1F1005F0AD3C0F1005632462946FEF775
S11326A0BFFFA21B71194FF0005001E022462946DA
S11326B0FEF7B6FF002070BD10B514460A46214649
S11326C0BDE81040012300F03BB900002DE9F041C2
S11326D0044615000E461F4608BF042022D00423DA
S11326E03A46FEF7B0FE5FEA000802D01AE0361D53
S11326F03F1F9FB10C480068066055F8041B4160F9
S113270006200A4908702046FEF768FF80462069C3
S1132710010018BF8047B8F1000FE8D02046FEF74B
S1132720EAFE4046BDE8F081400500000700024093
S11327302DE9F04106465FEA03080D46174608BF37
S113274004201ED00423FEF77EFED0B9069C01E0CF
S11327503F1F2D1DAFB10C480C49006805600222D3
S11327600A700C7158F8041B81603046FEF736FF7E
S11327700028EDD0079901B10D60089909B1002234
S11327800A60BDE8F08100BF400500000700024078
S11327902DE9F041984604460D4616460823FEF7F7
S11327A052FE07001AD17019461EE068B6FBF0F11C
S11327B000FB11622AB1491C4843461E01E0E0684F
S11327C04519AE4217D30E480E490068056009202A
S11327D008704046FEF74DFE070002D03846BDE8BB
S11327E0F0812046FEF7FAFE07462069010018BF73
S11327F08047002FE3D02046FEF77DFEEEE700BFC2
S113280040050000070002402DE9F84F98460446B1
S11328100D4692460823FEF716FE60BB6068A16869
S1132820164FB0FBF1F96842C9F100010840464275
S1132830AE4208BF4E4403E0AAEB0B0A5D444E448B
S1132840BAF1000F16D00E4909680D60701BD3460B
S1132850824588BF8346012139704FEADB00010AB3
S11328603971F87087F802802046FEF7B7FE002819
S1132870E2D000E00020BDE8F28F00BF0700024074
S11328804005000038B50400084601D1042032BDDB
S1132890074A44211170FEF7ECFD050007D12046DC
S11328A0FEF79CFE05462046FEF725FE284632BD6F
S11328B00700024008B904207047034A40235370BC
S11328C01170FEF78BBE00BF060002401A48006874
S11328D0000B00F00F00C01E08282BD8DFE800F022
S11328E005080B0E1114172A1A004FF4804013E048
S11328F04FF4C04010E04FF400400DE04FF440406E
S11329000AE04FF4803007E04FF4C03004E04FF4A5
S1132910003001E04FF48020084949680322B0FBED
S1132920F2F0C0F1005241F80C2F6FF0604202EB5C
S113293040004860002070470070044000E0FF1F22
S1132940002A01D101207047F0B41F460346032436
S11329502340002B09D00424E31A01700130082419
S1132960E141521E26D05B1EF7D1042A1ADB13D094
S1132970002F11D00C460D460E46102A02DB72C001
S1132980103AFAE70C2A02DB32C00C3AFAE7082ABA
S113299002DB12C0083AFAE7042A03DB01600430C0
S11329A0121FF9E7002A05D0017001300824E14123
S11329B0521EF7D1F0BC00207047000040682C493B
S11329C0405C70472B494A6842B10A681378037027
S11329D0501C08604868401E486070470021017020
S11329E0704710B55A280CD1214A01238B54142462
S11329F004FB01210FF20D03CB60BDE81040D16A46
S1132A00084710BD1A49C96A084730B5184DE9622C
S1132A1085B0044600A80FF260011422FEF710FEF0
S1132A206068A268022190476068142101FB00518C
S1132A300A1D00A900F091F8002005B030BD10B5C2
S1132A4004460B486168142202FB0100001D00F0DB
S1132A50EAF86068A268BDE8104000211047054804
S1132A600160426041680029FCD1002070470000E9
S1132A70FCE2FF1FF4E2FF1FC5290000E329000068
S1132A800000000008000000010100002DE9F041F1
S1132A90044682B0D4F800800FF2E41050F8287095
S1132AA0F86A261D00012BD5B268100028D04146D3
S1132AB04FF49670904723E000F04BF820699DF89E
S1132AC00050092805D300F044F89DF8000045EAB9
S1132AD000252069112805D300F03BF89DF800007B
S1132AE045EA00452069192805D300F032F89DF81D
S1132AF0000045EA00657D63F86A40F00070F86202
S1132B00F86A8001D8D4F86A800320D5BD6BF86ACE
S1132B1040F40030F86241467268E8B29047206998
S1132B20092804D3280472684146000E904720699E
S1132B30112804D3280272684146000E9047206988
S1132B401928E0D372684146280E9047DBE7BDE8B8
S1132B50F3813268414600A81047F0B504460FF2ED
S1132B60201050F824700D46164685B014213046C6
S1132B70FFF7FCF80ECD301D0C3D0EC03460E86844
S1132B8030613D4814B1012C04D007E0016841F4E0
S1132B90805102E0016841F400510160384600F0C0
S1132BA09AF800208DF80000ADF80C0000A9E86840
S1132BB00190287C8DF80800687C8DF8090038465F
S1132BC000F066F868BB386820F480403860012261
S1132BD00121384600F0ABF82848002100F83410F1
S1132BE000EBC400012246601921384600F0EAF8DF
S1132BF001221121384600F0E5F801221B21384654
S1132C0000F0E0F8002078630121F86A40F00070D9
S1132C10F8622046FEF79AF93868400840003860A8
S1132C20002005B0F0BD70B505680FF25400124CD9
S1132C3050F8256015B1012D06D00CE02068C004C1
S1132C4018D50021002004E02068800412D500215A
S1132C500120FEF77BF9304600F03DF815B1012D57
S1132C6004D070BD206820F4805002E0206820F475
S1132C700050206070BD00003C80044074E3FF1FDE
S1132C8000C0024000D002404001474A1150704742
S1132C9038B50D4604462878444A6101C043505073
S1132CA000212046FFF7F0FF2A1D0021204600F0F6
S1132CB044F810B140F2311032BD6A7B297B2046C2
S1132CC000F021F800F001F832BD206820F04050F7
S1132CD020600020704710B504460122206820F4CB
S1132CE080402060012020600146204600F01FF84B
S1132CF02F48E0620020A060E0602061206344F27D
S1132D000100206010BD30B50368C3F380331BB1EC
S1132D10046824F4804404604401264D2951264962
S1132D200A511BB1016841F48041016030BD40018A
S1132D30224B195022490A50704730B51568042DAA
S1132D4009D3112D02D30368DB0F04D1212D05D340
S1132D500368DB0F02D140F2311030BD00EB81017A
S1132D606D1E537914790068ED065B06A406C00F46
S1132D70C86803F0007304F080640CD020F0FE40B7
S1132D8005F0F0459279284320431206184302F0D7
S1132D908072104304E020F0FC4028432043184391
S1132DA0C860002030BD00007C00004238000042B2
S1132DB000000A9A34000042300000422C00004215
S1132DC02800004210B5036B01248C40A34302FA8F
S1132DD001F11943016310BD80B5094901EBC0023B
S1132DE011F8300028B1074840B15068C046C046C9
S1132DF001BD054810B15068FFF748FE01BD000051
S1132E0074E3FF1F000000008D2A00000020E3E7A8
S1132E100120E1E7002000E0012038B50FF278112D
S1132E2051F82040594901EB0013E178E27801F0B0
S1132E3012052A43E27001F05002102A10D04A060B
S1132E4014D54807A0780CD540F01000A0700020DD
S1132E508DF8000000A8196888479DF800002071CB
S1132E6031BD00F0EF00A070207931BDA278C2F32B
S1132E7000121AB1C807EAD5A078F2E72279014610
S1132E8010465A68904731BD0FF20C1151F82000DA
S1132E9000218170017081717047F8B504000FF250
S1132EA0F8003A4F50F824600D4695E80F0007EB00
S1132EB0041787E80F00364801680CBF40228022BF
S1132EC0114301600020B07001214020B071022044
S1132ED0F0702046FEF766F83078297B40084941B7
S1132EE0317000207071B0717070B07840F0800063
S1132EF0B070B07840F04000B070F1BD38B5050056
S1132F00234C03D12068400605D431BD012D10D1D6
S1132F10206800060DD500212846FEF743F8284610
S1132F20FFF7B2FF2068002D0CBF402180218843A9
S1132F30206031BD30B50FF2600353F820004FF428
S1132F407A73B1FBF3F1134BB3FBF1F1002300E00F
S1132F5023465C1C01FB04F59542F9D32BB90A24E2
S1132F6062438A4204D3012302E0202B28BF1F239B
S1132F70817901F0A00103F00F021143817130BD8A
S1132F80024A02EB001041607047000084E3FF1F17
S1132F903480044040420F00006006400070064048
S1132FA040682F494018007C70472E494A6842B156
S1132FB00A6813780370501C08604868401E486013
S1132FC0704700210170704725494969084738B5A1
S1132FD004465A2C08460BD1214D42190121117483
S1132FE02149FFF7CDFF6969BDE834405A200847FD
S1132FF031BD10B504461A49FFF74FFFFDF7BEFE79
S113300001462046BDE810403222FFF793BF10B5B9
S113301004461348416115498968096991F881108A
S1133020FF2918BF01736068A26802219047606895
S1133030FFF7DFFF002010BD10B504466068FFF7FE
S11330405DFF6068A268BDE8104000211047054894
S11330500160426041680029FCD1002070470000F3
S11330605CE0FF1FB4E3FF1FC92F000000E0FF1F57
S1133070C9B2012ADFF8B82912F821300CBF0120A7
S1133080002008E0C9B2012ADFF8A42912F821308F
S11330900CBF04200820184302F821007047DFF811
S11330A09009C9B210F8212002F0FD0200F8212095
S11330B0704738B504460D4600F09CFD2069002891
S11330C00EBF256160690561656100202861A06902
S11330D0401CA061BDE8314000F096BD38B50446FF
S11330E00D4600F087FDA06918B900F08DFDC120E0
S11330F032BD20692860206918B10069206100B9D7
S11331006061A069401EA06100F07EFD002032BD18
S1133110DFF8201901F5007201F51471C160016135
S1133120C2620C2181610B22C16801F11C030B6195
S1133130521E1946F9D10A6141610020704710B549
S113314082B0044600A9FFF7C9FFDFF8EC08406825
S113315004F12C01400A0A68CB7D40020BB942609D
S113316005E040F0080402F1080363600832009BA4
S11331705A600022009B1A70009B5A70009B9A6050
S1133180009B9A700122009BDA75009A8A600022E3
S11331904A75C97D01F0010140EAC100DFF89C18BD
S11331A0016013BDF8B506460F4614461D4600F0EF
S11331B021FD00F0E9FA07F00F0140EA4110142163
S11331C011FB076141318A7802F0010240EAC20230
S11331D054608A78097802F0010240EAC200AA0524
S11331E001F00101920D890141EA024141F0880197
S11331F0016000F009FD00F069FBF2BD10B5142474
S113320014FB010001F00F0130F8384F9C4288BFD5
S11332101C46029B1C60DFF820385B685B0A5B027B
S113322043EA4111837A03F0010341EAC30343F003
S113323010035A60827A007A02F0010200F0010061
S113324041EAC201A205920D800141F0100140EA59
S1133250024040F0880000F038FB10BDF0B5DFF804
S1133260E017DFF8D447FF220A720B7D43F0020314
S11332700B750B7E03F080030B76002365686D0AE3
S11332806D0203F00F0645EA4615002645F00807CF
S11332902E603E6045F0100745F018053E602E6034
S11332A0142505FB030542356E702E700025DFF8EA
S11332B08067DFB25B1C06F82750062BDED325702F
S11332C001230B701C300B7D03F0FD030B75C573DC
S11332D002230380012343800A73087940F08D00A0
S11332E00871087D00F0DF0008750020F0BD2DE9AD
S11332F0F047DFF84C5788B08146287CDFF8386700
S11333008DF81C00287C00090090012814BF0228B5
S1133310287C0821287C2A7C2970C0F3C0007168AD
S1133320009B490A490241EA431141EA0013C2F3EE
S1133330800243EAC2021268C2F3094AC2F383025A
S113334002920D2A0CBF4FF001084FF00008009ABA
S1133350142303FB029202F13004009A4AEA0202A7
S1133360019270B32768002F25D0F8685044F860A4
S1133370B968091AA07C80F00100A074207C80F058
S11333800100207402D02089824515D200F08CF807
S113339020604846FFF78DFE2089824504BF0098CF
S11333A000285ED1012030700022D9F804000023E7
S11333B0114600F096FD74E03946484600F0E9F9FC
S11333C06FE00198002854D0307808B100203070A4
S11333D06768002F65D0F87D68B9E07CFA6800F072
S11333E0010041EAC00041687868101881421CBF9E
S11333F0524600F0ECFDF8685044F860B9680E1AC3
S11334000098002804BF02980D280ED10122002143
S1133410484600F0B8FA09F14000012101704170FA
S1133420C17881F00101C17007E0607C80F0010087
S11334306074E07C80F00100E074B868002818BF74
S1133440002E02D02089824506D200F02DF860605B
S11334504846FFF72EFE0CE03946484600F0BEF918
S11334601FE00198002801BF307800284846FFF784
S113347066FED9F8040003908DF81A8003A9009819
S11334808DF818009DF81C00C00800F001008DF8AC
S11334901B000098C0B200F0EEFB287D00F0DF00B6
S11334A0287508B0BDE8F087F86805903946786853
S11334B0049000207047DFF8881504220A70DFF8B2
S11334C084251379127842EA0322028420200870AA
S11334D0704770B504460025142000FB054000F138
S11334E03806B078012822D1D4F8AC002946FFF779
S11334F0D6FDDFF8440532884068400A400205F0F2
S11335000F0140EA4110B17A01F0010140EAC10122
S1133510920541F01001920942F008020A60F17A22
S113352001F0010140EAC100318800F01EFA6D1C6F
S1133530062DD1DBDFF808158020087094F83A00D6
S1133540012806D1002084F83A002046BDE87040E6
S1133550F5E570BD30B5DFF8E844DFF8EC5485B02C
S1133560207821790840000744BF2846FFF7BFFEB2
S1133570207821790840C00710D501202070207CD4
S11335806968009100098DF80C0000A90020ADF8CD
S11335900E0001900290102000F06DFB207821793C
S11335A00840400744BF2846FFF785FF207821796B
S11335B00840000644BF2846FFF78BFF05B030BD26
S11335C070B50446DFF880640D463046FFF7A0FD71
S11335D0DFF87814DFF878040860FDF78DF8C6F892
S11335E0A8002E607460002070BD70B506460C46BD
S11335F004F1280500F0FAFC2870304600F0EEFCD7
S1133600C4F8AC001020A870FF20DFF834643070D8
S11336102246DFF84004017801F07F010170287828
S1133620DFF8341400F0E7FC08B98A2070BDDFF835
S11336300814DFF800044860010A3177020CDFF84F
S11336401C140A70000E08712046FFF707FE0020C4
S113365070BDDFF80004017841F080010170DFF8EB
S11336600004017841F001010170DFF8F8030178EA
S113367001F07F0101700020704738B50D46044603
S113368029786A78142010FB01415118012281F82D
S11336903C20AB78A98A012B05D1B1F5806F05DBFD
S11336A040F2FF3102E04129A8BF40212A7810FBF3
S11336B0024282F83E302A786B7810FB024282F88C
S11336C03F302A7810FB024211870022297810FB30
S11336D0014181F83A20297810FB014181F83B200F
S11336E029786A7810FB0141403132B94A7029784F
S11336F010FB01400021416305E000220A70297893
S113370010FB01400263A87829780128D4F8AC00A2
S113371018BF0122FFF7ACFC6A7802B101222978B4
S1133720D4F8AC00FFF7AEFC6878002801BF287815
S113373000282046FFF703FD002032BD70B5054682
S11337400E46144600F01FF9B949002001F826007E
S113375006F00F0100F018F840EA411004F00101EE
S113376040EA01104FF0FF31416040F00800416031
S1133770142010FB06504FF6FF710187201800211A
S113378080F83C10002070BDAB484068400A4002FD
S11337907047F0B50D460446A868E96883B0401A3E
S11337A001901426E86818B9297816FB01410D63C5
S11337B001A900916968019B421829782046FFF706
S11337C01DFD070008D0287816FB00400021016386
S11337D020462946FFF76DFC3846FEBD2DE9F04131
S11337E00D460446E868A9680E1A142718B9297802
S11337F017FB01414D63297817FB0141098FB14241
S113380038BF0E46696842189048006858B116F0EF
S1133810030F08BF12F0030105D00021E9754142EE
S113382001F003010A18297833462046FFF7BAFC51
S11338305FEA000808D0287817FB004000214163A4
S113384020462946FFF735FC002E04BF28780028BF
S11338500CD129462046FFF72CFC94F8430080F055
S1133860010084F843002046FFF769FC4046BDE8A8
S1133870F08170B50D46142111FB050101F13806E4
S11338800121F170B1701446294600F07CF86A49B0
S1133890308849688005490A8009490205F00F0209
S11338A040F08C0041EA42113CB1B27A02F00102CC
S11338B041EAC20141F0100104E0F27A02F001028F
S11338C041EAC20100F001F870BD08606448017863
S11338D001F0DF010170002070472DE9F8438146B3
S11338E00D46142010FB059000F138070020F870F5
S11338F0B8701646D9F8AC004F4CFFF7D0FB05F072
S11339000F004FEA4018D9F8AC0096B101222946BD
S1133910FFF7AEFBD9F8AC0001222946FFF7B2FB52
S1133920002038726068B97A00F025F840F0100081
S113393014E001222946FFF79BFBD9F8AC000022D2
S11339402946FFF79FFB002078721DB94846FFF710
S1133950F6FB06E06068F97A00F00DF8398800F0AB
S113396004F8FFF7B3FFBDE8F2838905890941F044
S1133970080101607047400A48EA402001F0010153
S113398040EAC1007047F0B506460C46142085B0E5
S1133990154610FB04601DB9476B0021416302E02A
S11339A0076B00210163C7B139463046FFF781FB3D
S11339B04FF0FF30029000A9786801907068009081
S11339C08DF80C4000208DF80E00280018BF01204F
S11339D08DF80F00204600F04EF9002005B0F0BD30
S11339E0214A137803F080030B431C301370C17316
S11339F0012101800020704780B51C490A7800220B
S1133A000A700A7D02F080020A7500220A741549C0
S1133A100A7842F040020A700A7842F080020A7082
S1133A20FF218183D0F8A800FCF76BFE002002BDC3
S1133A30C020074000E8FF1FBCE3FF1F8800080008
S1133A4080200740A0200740C4E3FF1F74E4FF1F49
S1133A5010EAFF1F1C20074055350000B020074026
S1133A609420074000210740982007408420074005
S1133A7001F00F01142313FB010090F83A001080A9
S1133A800020704738B501F00F041425FF2315FBFF
S1133A900405012A05F83A2F04D1CA092146FFF783
S1133AA0E8FE06E032B9697821B16A792146FFF768
S1133AB014FF0346184632BD70B504460D46D4F8CB
S1133AC0A8001646FCF719FE012D04F11C0007D0CE
S1133AD0042D07D0052D07D0062D08BF468004E02D
S1133AE0068002E0468100E086801EE070B5044650
S1133AF00E46D4F8A8001546FCF7FFFD012E04F18C
S1133B001C0008D0032E0AD0042E0AD0052E0AD099
S1133B10062E02D009E0008806E0408804E0C07B5D
S1133B2002E0408900E080882880D4F8A800FCF7EF
S1133B30E6FD002070BD38B5044600250022294664
S1133B402046FFF7FBFD012229462046FFF7F6FD3C
S1133B506D1C062DF2DB2046FFF780FB2046FFF7A5
S1133B60D7FA002032BD000070B5A0F11003DBB21B
S1133B700829B8BFFB2B1CDA03F0030423F003036A
S1133B8003F1604303F56143E400D3F80053FF26D7
S1133B904901A64001F0E001B543A1402943C3F81F
S1133BA0001312B100F008F801E000F010F8002052
S1133BB070BD4FF0FF3070BD1038C0B2FB2805DA7D
S1133BC0012100F01F029140144A0DE009E0103871
S1133BD0C0B2FB2805DA012100F01F029140104A0F
S1133BE002E04FF0FF307047400942F820100020F7
S1133BF0704700000B480168002900D172B60168C3
S1133C00491C0160704700000648016800291EBF76
S1133C10491E0160002900D162B6704700E100E04E
S1133C2080E100E084E4FF1F38B50D460446687B5C
S1133C3038B1102802BF002204F1080000F06EFA27
S1133C4004E0002204F1080000F0DAF900200C215D
S1133C5001FB004101F13C026B7B117A994205D1D1
S1133C605168126828469047002032BD401C08283D
S1133C70EDD3832032BD0A68487310F07F0307D068
S1133C8000F07F00102803DAC87B43EAC0104873B1
S1133C901046C9E74268126B13001CBF0068104746
S1133CA0FF20704770B500F01EF86068E90606D57D
S1133CB0436A18000AD000F0ECF8984718E0436C07
S1133CC0180003D000F0E5F89847F7E714E070B562
S1133CD000F009F86068036C180003D000F0D9F80C
S1133CE0984705E008E004460D461646FFF782BFF4
S1133CF0FFF78AFF002070BDFFF786FFFF2070BD2D
S1133D00F8B52B4E06F19C070446387801280D4679
S1133D1029D0A4220021304600F04BFB012038704A
S1133D207C70FCF7E9FC23497860602212FB0411E3
S1133D30F161FF2200210C2313FB0163491C0829B4
S1133D4083F84420F7DB002C18BF012C0DD11A4F47
S1133D5077603A68100002D03146304690473068A8
S1133D6038B98720F2BDC120F2BD00203870C020D0
S1133D70F2BDF0603661204600F026FB30B1796B6D
S1133D8008001CBF30688847C420F2BD7A68100060
S1133D9005D031682046904718B92E60F2BDFF2047
S1133DA0F2BD796B08001CBF306888478D20F2BDD6
S1133DB090E6FF1FA0EBFF1F7805000010B54B68CD
S1133DC09B68024600201C0003D0BDE8104010464A
S1133DD0184710BD38B5040001D1FF2032BD04F1ED
S1133DE09C056868FCF78DFC6068416B08001CBF8B
S1133DF0206888470020287032BD00B587B0C0B164
S1133E000B788DF800308B788DF801304B68ADF865
S1133E10143049788DF802108DF816200021029193
S1133E20039141688A69110003D0006800A9904792
S1133E3000E0FF2007B000BDF8B500F097F81F467A
S1133E4001D1FF20F2BDFFF7D5FE00200C2101FBBC
S1133E50004292F84420AA4203D1FFF7D5FE842001
S1133E60F2BD401C0828F2D3002001FB00423C3282
S1133E70137AFF2B06D1157216605760FFF7C4FE44
S1133E800020F2BD401C0828EFD3FFF7BDFE8120BF
S1133E90F2BD2068324629467047F8B504000F4643
S1133EA015461E4619D06068826C100015D0206833
S1133EB000A9904788B9FFF79DFE0098077000207D
S1133EC000F033F80269100007D000992068904789
S1133ED000F050F81CB90020F2BDFF20F2BD942080
S1133EE0F2BDF8B504000F4615461E4619D06068A9
S1133EF0826C100015D0206800A9904788B9FFF79C
S1133F0079FE00980770012000F00FF8C2681000D5
S1133F1007D000992068904700F02CF81CB90020C5
S1133F20F2BDFF20F2BD9320F2BD009948700098C5
S1133F3086600098456000200099C86006200099BA
S1133F40C8706068704770B500F010F80CD0FFF7C7
S1133F5051FE6068036A180006D0FFF79AFF98477D
S1133F6000F008F8204670BDFF2070BD04000D4627
S1133F70164670470446FFF747BE10B538B143688C
S1133F80DB6B1C0003D0BDE8104000681847FF201D
S1133F9010BD08B9FF2070470162426200207047DB
S1133FA008B9FF2070478162C2620020704708B9D7
S1133FB0FF207047016342630020704728B14168C5
S1133FC0C96C0A001CBF00680847FF20704710B581
S1133FD00446FDF725FB204610BD000008B9024841
S1133FE070470020704700000020074008B94520B2
S1133FF07047FF20704700F005BAFFF7B5BD000019
S11340007FB504460020ADF8080003900E46A06872
S113401002AA0121FFF746FEB07BCE25002850D02E
S11340207168082204F10C00FFF7D1FF208A217B7C
S113403020826022E089E0811142608A608217D187
S1134040607B354901EB8002966A32005AD0BDF894
S11340500820032A56DA00EB40004018105C0128BF
S113406050D101AB03AA04F10C012046B04726E06D
S11340700190D8B1207B000618D401980830552847
S113408005D3A06800220021FFF777FF7FBD606998
S1134090082204F10C01FFF79AFF6069019B00F10B
S11340A0080230680021FFF7F8FE7FBD266A300061
S11340B028D0636A01AA03A904F10C00B04705469D
S11340C020E0BDF80800042805D16188A068C9B2C1
S11340D0FFF7E0FD7FBD207B00061CD4F07BD0B948
S11340E0608AC0B1206A48B1B06808300190636A40
S11340F06069256A01AA03A9A8470546B06810F1BA
S1134100010F08D001A8009003AB04F10C02E9B23E
S1134110204600F029F87FBD30E2FF1F30B5044689
S113412083B0A0680D46FFF749FF00208DF8020018
S11341308DF8000001224020019000A900208DF894
S113414001002868FFF759FE01208DF802000122C2
S1134150286800A9FFF751FEE269A06918B1A369B4
S113416000210020984737BD38B50446CE291546AE
S1134170184606D1A068BDE8384001220021FFF7A7
S1134180FCBE0499EA880B689A4238BF0A60026848
S11341900B68A0680021FFF7A4FE2878000608D564
S11341A0A06801B0BDE83040002200231146FFF7AB
S11341B074BE31BD70B5154604461E460A78FF200C
S11341C01F231A4209D1A06822460621FFF76AFD7F
S11341D0217801F00301218013E002F01F03012B79
S11341E003D10021218001210CE002F01F02022AE8
S11341F009D1888840F01001A0682246C9B2FFF7AF
S113420051FD022131602C60C0B270BD70B504460E
S113421082B000201860CE250A7848781F231A42FD
S1134220C0F3400012D1897811F0030138D001297C
S113423036D1002814BF11261226A36900251800C0
S11342402ED0626A00213046984729E002F01F020E
S1134250022A02BF8A7803231A4221D189888DF861
S113426000109DF800209DF8001001F00F01D20904
S113427020B1A068FFF781FE132608E09DF8000036
S113428014260F23184203D1A068FFF75CFE0546ED
S1134290A369180004D0626A00A930469847002533
S11342A0E8B276BD38B50446002018600D46A06813
S11342B004220121FFF70BFD68886080002032BDD5
S11342C001211960303010600020704738B5002299
S11342D004461A604888ADF8000000B90122A068BD
S11342E00121FFF7F4FC0546BDF80000A369208610
S11342F018000BD0E26900A901209847BDF800001E
S113430020B1E269A369002103209847E8B232BDD5
S113431038B50446012018601546A06A43681800A1
S113432001D1CA2032BD8988E06A2246C9B29847C1
S11343302C6032BD38B5044600200D46186028783C
S113434000F00300012801D0042032BDA06A836874
S1134350180001D1CA2032BD6A88A988E06AD2B2A5
S1134360C9B29847A369180003D0E269A91C0220C6
S11343709847002032BD38B504460220186015461F
S1134380A06822460521FFF78DFC2C60C0B232BD27
S113439030B5846A83B02468250001D1CA203EBDAB
S11343A04D8801930092EAB28B88C06A290AA0471B
S11343B03EBD10B5044610460A4601462046FDF7A8
S11343C06FF9204610BD000010B500244FF0FF31F6
S11343D000B10C4694B980B909480021017010213C
S11343E00170017941F0400101710020FFF7FEFDE9
S11343F001220421FFF701FE00E00C46204610BD17
S113440008210740F8B504460D4616460E4F452CC4
S113441004BF3D607E60002000F018F8844208BFAD
S1134420FD60012000F012F8844208BF3D61312C88
S113443004BF7D61BE600120F2BD034801680A002B
S11344401CBF40680847704764E6FF1F042804D275
S1134450034951F8200010307047002070470000D5
S1134460BCE0FF1F70B50D0082B00446164601D1B2
S1134470002076BD00AA00F071F830B9009B9B685B
S11344805B68324629462046984776BD70B50D00D4
S113449082B00446164601D1002076BD00F07FF8B4
S11344A000B14CE000F047F868B9009B9B689B683A
S11344B032462946204698474E49002806BF009AAE
S11344C0926800220A6076BD38B504460D4600AAFB
S11344D000F044F8A0B900988068406908B96620E3
S11344E032BD2946204600F05AF810B142F2D87085
S11344F032BD009A9268526929462046904732BDDF
S1134500002DFCD1002032BD70B50D0082B00446F0
S1134510164601D1002076BD00F041F800B10EE04E
S113452000F009F830B9009B9B68DB6832462946E5
S11345302046984776BD00AA294620460EE042F25E
S1134540D87076BD10B52B4C2168002029B10969BB
S11345500A0002D088470021216010BD70B5264CA6
S11345606468002918BF002A42F2D87314D000E00E
S11345700C348CB12568002D04BF6668002E01D16F
S1134580A6684EB1A84224BF65688542F0D30818D6
S1134590401E854228BF00231460184670BD30B504
S11345A0154A92681269536BA3B10918491E002376
S11345B002EBC304603465682468002C08BF002D36
S11345C005D0854228BFA14201D3012030BD5B1C28
S11345D0022BEDDB002030BD10B50748446804E031
S11345E00068010018BF80470C34A0680028F7D188
S11345F010BD000078E4FF1F00E0FF1F10B59648CF
S11346008068006900F1700430224AF2C03120460B
S1134610FDF716F820689149884204D0FF22302122
S11346202046FDF79FFFFCF779FC002010BD38B54C
S1134630894DA86804694B20E07004F11002012040
S1134640A070042105206070012020705020E071CA
S11346500120A07102206071002020715420E072BA
S11346600120A07200206072207201202063606328
S11346704EF6FF70A06300F05EF804F1140201210D
S113468000F059F804F11802002100F054F804F184
S11346901C02022100F04FF804F12002032100F073
S11346A04AF804F14C02052100F045F804F15002E7
S11346B0062100F040F804F15402072100F03BF811
S11346C0A069674A404252424FF0FF310240891AC2
S11346D0644A61661040206600216348A06663480E
S11346E0E0666869E16007E094F88030134202D024
S11346F0E3681A43E260491C182202FB01021268B3
S1134700002AF1D15A480168A16441686164816852
S11347102164C068E063686850F80C1F61624168F6
S11347200068081A401CA0622046FBF7EFFF012036
S1134730A065002032BD05F12000FDF731BF000067
S1134740F8B51446444A4B4F91680426401E096943
S113475017281D464ED8DFE800F00C121416181A5C
S113476020224D24282F261C1E323540434547491C
S11347704D4B05B12E6004B121600020F2BD0C3117
S1134780F7E71031F5E71431F3E71831F1E7203199
S1134790EFE72431EDE72831EBE73831E9E72C3155
S11347A0E7E73031E5E73431E3E7D0694169496946
S11347B0884738603946DCE710266031D9E72E484F
S11347C00068F6E700A902F12000FDF7B5FA9DF8AC
S11347D000000028EDD00120EBE710263C31C8E7AB
S11347E04C31C6E75031C4E75431C2E75831C0E711
S11347F00831BEE742F63C00F2BD174A92681369DD
S1134800401E072842F63E0220D909380CD0401E2B
S113481001281BD9801E0DD0401E032816D9083844
S11348200ED0801E12D014E0002918BF012909D12E
S113483019637047002918BF012903D159637047D0
S1134840032901D3104670479965704742F63D002D
S1134850704742F63C00704700E0FF1F6B636667D9
S1134860445A00000000000000E0FF1FFFEDFF1F9E
S11348705480044040E5FF1F24800440012100F0DF
S11348801F0291406D4A04E0012100F01F02914093
S11348906B4A400942F8201070470021C1708170B2
S11348A00170042141700021817241747047F8B590
S11348B0644E3360130191FBF3F633010025B1FB21
S11348C0F3F3044693424FF0FF3038BF761E00D313
S11348D010D001274B0007EB461CB3FBFCF39A42B4
S11348E034BF9B1AD31A984224BF18463D467F1CF6
S11348F0212FEFDB642192FBF1F101EB41018842AE
S11349003FD25149514F8C4206D051498C420AD072
S113491050498C420ED014E01F20FFF7AFFF3868D7
S113492040F480600CE02120FFF7A8FF386840F4D1
S1134930006005E02320FFF7A1FF386840F48050B1
S11349403860E07800F0F300E070310A0020A070D5
S113495001F01F01207800F0E00008432070667029
S1134960A07A00F0E0002843A072C0206074E078D0
S113497040F02000E070E07840F00C00E07000208F
S1134980F2BD0120F2BD02791206FCD5C171704757
S113499031480178890600D50AE070472F4801782C
S11349A08A0701D5C0787047890600D500E07047B2
S11349B0C07824490968084729480178890600D540
S11349C0F6E7704758B52049204E8842044606D081
S11349D01F4988420AD01F4988420ED014E01F2084
S11349E0FFF752FF306840F480600CE02120FFF7AD
S11349F04BFF306840F4006005E02320FFF744FFDC
S1134A00306840F4805030602046FFF746FF0E487F
S1134A10844206D00E48844207D00E48844208D00F
S1134A2051BD306820F4806006E0306820F40060F6
S1134A3002E0306820F48050306051BD00E100E0B5
S1134A4080E100E0C8E5FF1F00A006403480044078
S1134A5000B0064000C0064004A0064004B0064072
S1134A6004C0064038B5044600A96068FBF7EFFFB0
S1134A7008BB6068FCF78CF901466068012804D023
S1134A8002280CBF2A482B4800E02B482B4D009AE3
S1134A902B68FFF70CFF58B96068A26802219047A1
S1134AA029685A2088472968A6208847012032BDF2
S1134AB06068FBF7B3FF002032BD10B504461F4801
S1134AC001606068A268012190476068FBF7A6FF57
S1134AD0002010BD10B504466068012804D00228E7
S1134AE00CBF1348134800E01348FFF76BFF6068DE
S1134AF0FBF7ABFF6068A268BDE8104000211047D7
S1134B0070B504460D46164602E00978FFF73BFFF0
S1134B103046461E58B1294660684D1C012804D011
S1134B2002280CBF02480348EFE70348EDE770BDD5
S1134B3000C0064000A0064000B00640CCE5FF1FC0
S1134B40A649D1F88820531C5218C1F8883082F83D
S1134B502000D1F8880000F03F00C1F888007047B9
S1134B6000207047B8E02DE9FC410C00154614BF45
S1134B70002D0420984628D0984F002007F1900675
S1134B802860707000F0A8F818B11EE0A22000F0B0
S1134B9075F820213846FDF7E9F84246394600A861
S1134BA000F0E7F810B1002129600EE0394600A8B2
S1134BB000F030F9BDF804108142E7D101203070D3
S1134BC02760BDF8020028600020BDE8F6812DE9C9
S1134BD0F0410C0082B015461E4635D0212D33D24B
S1134BE000F07AF800283FD1DFF8F08198F89100BE
S1134BF010B1002088F8910008F160075A2038703D
S1134C00A42078700EB1A52078707D802DB12A463D
S1134C10214608F16600FCF703FD08F166013846F9
S1134C2000F0F8F8B880A91D384600F064F8D8B947
S1134C3000A800F0DDF8B8B99DF80100A12812D051
S1134C40A22806D0A32801D004200DE042F212705D
S1134C500AE07888811D384600F04DF820B99DF8A7
S1134C600100A228E4D00020BDE8F6815C480121BF
S1134C7081700021017070472020704780B55A214F
S1134C808DF800108DF801000120544981F891003D
S1134C90022100A800F02FF802BD10B504465048C8
S1134CA00178427880781140014282B011D10FF22C
S1134CB094100088ADF80000022223695B6800A903
S1134CC02046984723690FF280115B68082220462A
S1134CD0984742F2137016BD4148017819B100217A
S1134CE00170A12004E0817819B100218170A32012
S1134CF0C4E7002070473B4AD3690A460146184678
S1134D001B695B6818472DE9F14F8B461446FBF786
S1134D1022FF06464FF47A7089466043FBF72BFF67
S1134D200025DFF8B8A00446A8460AF188070EE07B
S1134D307868396888420CD05044009990F8200073
S1134D4068546D1C7868401C00F03F0078605D4535
S1134D500CD0002CECD0FBF7FEFE801B61EB0901AC
S1134D60414501D8A042E3D3052000E00020BDE87E
S1134D70F28F70B582B005460C46164600F038F83E
S1134D8058BB6878A62804D11648C069FFF785FF88
S1134D9076BDA42106B1A521884201D0012076BDAB
S1134DA000F022F8BDF800106980B0B90846212847
S1134DB0A8BF2020688000F017F8BDF80010A98073
S1134DC058B9698849B12046FCF766FC69880A200D
S1134DD000FB01F22046FFF796FF76BDD0E5FF1FEA
S1134DE060E6FF1F00E0FF1F1422022100A88AE7EB
S1134DF010B50446002201212046FFF784FF40B984
S1134E0020785A28F6D1601CBDE810400A220121FE
S1134E1079E710BD30B583B004460D4600A800F014
S1134E2017F80422214600A800F015F862882946E4
S1134E3000A800F010F801A900A800F02FF8BDF8B0
S1134E4004003EBD5AA70000000201500000AAEA77
S1134E500021018070477FB5044600208DF80000D2
S1134E600D4620880190164641F221000290002050
S1134E70ADF80C008DF80E006EB1FBF703FD00A930
S1134E800020FBF71FFD324629460020FBF733FDC7
S1134E900190FBF7FDFC019820807FBD008808800D
S1134EA00020FBF719BD00000748016841F47001B8
S1134EB001604CF220510548C1814DF62811C18191
S1134EC04FF4E9710180704788ED00E0002005404F
S1134ED0F8B5044615461E460020174A02EB001793
S1134EE07A6822B1401C0128F7DBC120F2BDF960C9
S1134EF07C60BE6032462046FFF74BF832462946B6
S1134F002046FFF74DF8069932462046FFF74FF842
S1134F103846F2BD0020084A02EB00128A4204D04F
S1134F20401C0128F7DB9E20704700205060106071
S1134F309060D060704700007CE6FF1F00281CBF13
S1134F404068FEF7CEBFFF20704770477CB50E4621
S1134F5014461D4600F0AFF8069A0799364B032E07
S1134F6011D0212E09D0222E2AD120B903F13000EC
S1134F7010604C200860002076BD10B903F11600C3
S1134F8010600920F6E725B903F17C0010600420C5
S1134F90F0E70020012340F20946B54203D1032C77
S1134FA002DA234600E001200FF2E4040C2515FB8D
S1134FB00040C46854F8234014600069185CD9E7C1
S1134FC0082E18DA20B90FF2A40454F8264014600D
S1134FD0012E02D11C68641C1C601C68022CA4BF36
S1134FE000241C60126832B10028C4D10FF25800AA
S1134FF050F82600BEE7CE2076BD21B90F480078D0
S1135000107000207047CE20704719B90B48027009
S113501000207047CE2070470020704730B549B952
S11350200848012101700649D1E90045C0E901455C
S11350300C301060002030BD14E1FF1FF1E7FF1FAA
S1135040E0E0FF1FE8E0FF1F000000001200000086
S11350502900000000000000000000000000000023
S113506000000000000000004C00000000000000F0
S113507000E1FF1F18E1FF1F000000000000000016
S113508000000000000000000000000044E1FF1FD9
S113509090E1FF1F0400000009040000BC060000AA
S11350A0B8060000012100F01F029140C84A4009DF
S11350B042F82010704700207047406840083C21A7
S11350C04843C449425C12B14018407870470020FC
S11350D0704710B5002818BF0128BE4C02D100202B
S11350E0208010BD0328FCD10120207004F114029B
S11350F0A06BBDE810402423022100F0DABAF8B511
S113510015461E68B34C042800F001020BD1A868B0
S113511010F1010F18BF002849D0E068012846DBD0
S113512004F10C0039E0052807D1A86810F1010F3B
S113513018BF00283BD020612BE01219002701285A
S11351401F600BD0022818BF03282CD009280ED0CA
S11351500A2825D00B2808BF117128E0242104F166
S11351601400FCF703FE04F1140028601FE0296812
S11351708A78002A04BFCA78002A04D10878012852
S113518008BFA07013D0324604F11400FCF748FAAB
S113519026610120607004F10800FBF767FB06E05C
S11351A0080A107103E0101D286001201860002017
S11351B0F2BD70B504468749606840083C2202FB92
S11351C0001588B03C212846FCF766FAFBF7B9FDC8
S11351D0814E78B9B068006990F8801001F0EF0151
S11351E080F88010B0680069C16821F01001C160C6
S11351F0012038E0606830B93520FFF753FF774964
S11352004FF4001008604FF6FF72B068006930F880
S1135210841F4388934208BF914209D0704A117297
S11352200188090A5172418891724188090AD17230
S113523005F1380240686B4910F1010F08BF6A4854
S1135240086000A96948009005F138000190684899
S1135250049005F138000590664806906068C0B275
S113526000F0B5F9002008B070BD38B540684408B6
S1135270A8B9614D2868400311D560494FF4001066
S113528008603520FFF70EFF52483C2101FB040063
S1135290806B00F0DDF9286820F48020286031BD9F
S11352A010B540684B4940083C2202FB0014002121
S11352B004F10800FBF7CEFA002104F10C00FBF71F
S11352C0C9FA04F10800FBF7D1FA002010BDF8B5C3
S11352D040680C4640081546002C18BF002D01D12B
S11352E00420F2BD0021296013B1012B1ED027E058
S11352F0012638493C2202FB0017F87830B1B86B1C
S1135300242307F11402022100F0D3F90120F870DC
S11353104FF0FF3107F10800FBF79EFA387DB042E9
S113532006D0012E08BF02280AD169E00226E0E770
S1135330B87DF97D40EA01203969091F814201D213
S11353400120F2BD07F11801216028600020F2BDA0
S1135350F8B5406815464608212D0C4601D30420B3
S1135360F2BD13B1012B0ED00FE00327FBF78AFA2D
S113537018483C2101FB0606B07840B10020B0700B
S1135380FBF786FA3CE00427F0E70120F2BDFBF7C7
S11353907FFA002070753775280A002C18BF002D7D
S11353A0B575F07505D02A46214606F11800FCF7BC
S11353B037F9B06B242306F11402012100F072F9CD
S11353C04FF0FF3106F10C00FBF746FA0020F2BD66
S11353D080E200E0B4E7FF1F00E0FF1F04E100E00B
S11353E000E1FF1F8CE6FF1F90500000D350000027
S11353F0FF5000001CE2FF1F3480044084E100E001
S113540042F21270F2BD10B54469A4680022002370
S11354101146A04710BD0020704720207047FFF7B9
S113542094BD000010B50C6A220082B009D08268D5
S113543012F1010F0CBF0021496A00F013F8042097
S1135440A04713BD10B50C6A220082B009D082684F
S113545012F1010F0CBF0021496A00F003F8052086
S1135460A04713BD0091024600234FF6FF71704719
S11354702DE9F84F012880468B46164646D1306800
S1135480B36B00AA0021984700988068011DF16061
S113549000270079032866DA00240FE0896811F8F0
S11354A0341006EB440000F83C1F009989688968B1
S11354B001EBC401641C49784170E4B2009881682E
S11354C008798442EADBF468DFF8C491DFF8C4A108
S11354D007E028B9297833464A463068FEF7ACFC21
S11354E07F1C2078FFB2874236D2606800EBC70584
S11354F0306801222946FEF780FCA8780128E8D10B
S113550029783346524641EAC011E6E7032818BF1A
S1135510B8F1000F20D009280ED19BF8007016F1C5
S11355203C0019D0002400F020F801D100F025F847
S1135530641C022CF7DB0FE014280DD19BF80070DB
S113554016F13C0008D0002400F00FF801D100F05F
S113555014F8641C022CF7DB3369180003D0726959
S1135560594640469847BDE8F18F06EB440107F0E1
S11355700F0091F83C1088427047F80900F00102CE
S1135580306807F00F01FEF7DEBC70B582B01D462F
S11355900446CE20237803F06006202E0CD12B6A1B
S11355A0A3B1E08810601346686A00900A466188D7
S11355B060782C6AA04776BD03F06003402B05D1C8
S11355C0AE69330002D0EB692046B04776BDF8B52A
S11355D00D000446164601D1FF20F2BD00202E49DD
S11355E001EB8017396821B1401C0228F7D3C12090
S11355F0F2BD39462046FEF783FB40BBA869274A23
S1135600274900903B463868FFF762FCB8600822DF
S1135610294607F11000FEF7DAFC082205F108011B
S113562007F11800FEF7D3FC082205F1100107F179
S11356302000FEF7CCFCA969142207F12800FEF72C
S1135640C6FC376020463968FEF7B8FB0020F2BD7F
S113565038B5040001D1FF2032BDA1682068FFF7EE
S113566059FC050003D12068FEF7B4FB0546002071
S1135670094901EB8012A24203D0401C0228F8DB46
S113568004E0402200212046FEF793FE284632BD66
S1135690455400002554000034E7FF1F8B550000DB
S11356A07154000000281CBF8068FFF747BCFF202E
S11356B0704700281CBF0068FEF7EFBBFF2070474F
S11356C04EF68851CEF20001086840F4700008607C
S11356D0BFF34F8FBFF36F8F4FF00070E1EE100AEE
S11356E07047000000F00BF8002801D000F00AF821
S11356F00020C046C046FBF71AFDFBF759FD012008
S11357007047000010B5074979441831064C7C44B1
S1135710163404E00A68081D511888470146A1425E
S1135720F8D110BD100300001C030000C8050000E0
S113573074E0FF1F7006000040E0FF1F000000003F
S1135740F805000000000000000000000000000058
S11357500000000000000000000000000000000045
S113576000000000000000000000000031170000ED
S11357703F17000068040000C4E2FF1F000000009F
S113578034E3FF1F54E3FF1FAB2F0000CF2F0000B3
S1135790F32F0000100000000000000000000000D3
S11357A000000000FFFF01004405000000E0FF1FAF
S11357B0FF3F0020E005000000000040FFFF07401D
S11357C0F004000000F00F40FFFF0F40F004000061
S11357D0000000E0FFFF0FE0F00400000000000004
S11357E00000000000000000300000003100000054
S11357F032000000330000000000400101030100FA
S1135800400000000203000040000000020000000D
S1135810D0E0FF1F000000000000000000000000B6
S11358200000000001000000E8E0FF1F1201000278
S113583000000040A21573000200010200010000F4
S11358400000000009022900010100C0320904001F
S1135850000203000000092100010001224C00079E
S113586005810340000A0705020340000A00000006
S11358700600FF0901A1018501190129011500266E
S1135880FF0075089523910285021901290115006D
S113589026FF007508952391028503190129011536
S11358A00026FF007508952381028504190129014A
S11358B0150026FF00750895238102C0040309041E
S11358C03A034600720065006500730063006100DE
S11358D06C0065002000530065006D0069006300E2
S11358E06F006E0064007500630074006F00720046
S11358F0200049006E0063002E00000026034B00C8
S113590069006E00650074006900730020004200A5
S11359106F006F0074006C006F006100640065002C
S113592072000000220342004100440020005300A2
S11359305400520049004E004700200049004E0028
S113594044004500580000004D4F0000FB4F00008C
S11359500B500000195000001D500000010100010F
S1135960010000000001010000000000010101012C
S1135970010000000101000101000100000100001C
S113598001000000B54100000D42000000000000CD
S11359900D42000000000000A542000091430000F9
S11359A000000000C1420000CD420000114300008D
S11359B0354300007743000030B504E012F8014B92
S11359C000F8014B491ED1B1C507F7D40129F5D020
S11359D0850701D4042904D232F8024B20F8024B83
S11359E0891E8B08EFD000EB830403E052F8045BBC
S11359F040F8045BA042F9D3A1EB8301E3E730BD97
S1135A0080B513460246184600E080B5FFF7D4FF80
S1135A10002002BD10B514460A462146BDE81040D8
S1135A200123FCF78DBFC046C046FFF749FEFFF7D0
S1135A3059FE00004FB5FFFF6405000090E2FF1F10
S1075A40000000005E
S9030411E7
