S0180000746F7765725F626F6F746C6F616465722E7372656351
S11300000012FF1F11040000070900007916000008
S11300107B1600007D1600007F160000040500001A
S113002000000000000000000000000007090000BC
S11300300709000000000000070900003B0C000055
S1130040535A0000535A0000535A0000535A0000F8
S1130050535A0000535A0000535A0000535A0000E8
S1130060535A0000535A0000535A0000535A0000D8
S1130070535A0000535A0000535A0000535A0000C8
S1130080535A0000535A0000535A0000535A0000B8
S1130090535A0000535A0000535A0000535A0000A8
S11300A01D2D0000212D0000112D0000152D000034
S11300B0535A0000535A0000535A0000F3480000FA
S11300C0535A0000FF480000535A00001B49000027
S11300D0535A000027490000535A0000535A0000A5
S11300E0535A0000535A0000535A0000535A000058
S11300F0535A0000535A0000535A0000535A000048
S1130100535A0000535A0000535A0000535A000037
S1130110535A00005D430000535A0000535A000034
S1130120535A0000535A0000535A0000535A000017
S1130130535A0000FB0D0000535A0000535A0000AC
S1130140535A0000192D000033490000535A00008F
S11301503F490000535A0000535A0000535A00000C
S1130160535A0000535A0000535A0000535A0000D7
S1130170535A0000535A0000535A0000535A0000C7
S1130180535A0000535A0000535A0000535A0000B7
S1130190535A0000535A0000535A0000535A0000A7
S11301A0535A0000535A0000535A0000535A000097
S11301B0535A0000535A0000535A0000535A000087
S11301C0535A0000535A0000535A0000535A000077
S11301D0535A0000535A0000535A0000535A000067
S11301E0535A0000535A0000535A0000535A000057
S11301F0535A0000535A0000535A0000535A000047
S1130200535A0000535A0000535A0000535A000036
S1130210535A0000535A0000535A0000535A000026
S1130220535A0000535A0000535A0000535A000016
S1130230535A0000535A0000535A0000535A000006
S1130240535A0000535A0000535A0000535A0000F6
S1130250535A0000535A0000535A0000535A0000E6
S1130260535A0000535A0000535A0000535A0000D6
S1130270535A0000535A0000535A0000535A0000C6
S1130280535A0000535A0000535A0000535A0000B6
S1130290535A0000535A0000535A0000535A0000A6
S11302A0535A0000535A0000535A0000535A000096
S11302B0535A0000535A0000535A0000535A000086
S11302C0535A0000535A0000535A0000535A000076
S11302D0535A0000535A0000535A0000535A000066
S11302E0535A0000535A0000535A0000535A000056
S11302F0535A0000535A0000535A0000535A000046
S1130300535A0000535A0000535A0000535A000035
S1130310535A0000535A0000535A0000535A000025
S1130320535A0000535A0000535A0000535A000015
S1130330535A0000535A0000535A0000535A000005
S1130340535A0000535A0000535A0000535A0000F5
S1130350535A0000535A0000535A0000535A0000E5
S1130360535A0000535A0000535A0000535A0000D5
S1130370535A0000535A0000535A0000535A0000C5
S1130380535A0000535A0000535A0000535A0000B5
S1130390535A0000535A0000535A0000535A0000A5
S11303A0535A0000535A0000535A0000535A000095
S11303B0535A0000535A0000535A0000535A000085
S11303C0535A0000535A0000535A0000535A000075
S11303D0535A0000535A0000535A0000535A000065
S11303E0535A0000535A0000535A0000535A000055
S11303F0535A0000535A0000535A0000FFFFFFFFF6
S1130400FFFFFFFFFFFFFFFFFFFFFFFFFEFFFFFFF9
S113041072B60E480E49886000220023002400258D
S113042000260027B846B946BA46BB46BC4609482A
S1130430854609488047094880470948804762B68D
S113044000200021074A9047FEE70000000000005A
S113045000ED00E00012FF1FC94E000071140000FF
S1130460AB140000D3100000030201465B1300002C
S113047025270000AD2C0000312600006525000072
S1130480891C00009523000055270000A9260000C0
S1130490D1250000B9240000A7130000E5230000C3
S11304A035240000DD2200003D13000000000000A0
S11304B00000000000000000436F707972696768F3
S11304C0742028632920323031332D3230313420E6
S11304D0467265657363616C652053656D69636F0E
S11304E06E647563746F722C20496E632E20416CA8
S11304F06C207269676874732072657365727665BF
S1130500642E0000E15900000105014BB80400000D
S11305100000FF1F68040000AC040000BB170000CB
S113052000000000CD170000000000006318000068
S1130530AB19000051180000DB180000731A00000A
S113054000000000151B0000000000000718000058
S113055000000000E1170000DB180000871A00000B
S113056000000000F11A00000000000073170000F2
S1130570000000003B180000000000000000000024
S113058000000000231B000000000000371B0000D7
S113059000000000591B0000AB190000000000001F
S11305A000000000000000002D5A0000375A00002F
S11305B0415A00000000000000000000692800000B
S11305C0B7280000EB280000000000000000000035
S11305D00B290000000000000000080000001000CB
S11305E00000200000004000000080000000000126
S11305F00000000204000240C51C0000F11C0000C1
S1130600F51C0000CF1D000000000000B51E000016
S113061000200340AD2E00001B2F0000452F0000DA
S113062000000000000000005B2F0000CD3400003B
S1130630F73400005F3500009F360000E936000003
S1130640933800008735000049360000E737000082
S11306507D3900009139000000000000ED380000F1
S113066005390000000000007F370000C539000094
S1130670F9390000E92F0000433A0000FD4400006E
S113068089430000B14300002D4400006944000088
S1130690ED430000FF2400000325000015250000A1
S11306A053250000000000000000000001000000CD
S11306B0010000005D0C000038070000480700003E
S11306C0500700000200000001000000A70C000019
S11306D01406000024060000500700000400000077
S11306E000000000EF0C0000BC050000CC05000079
S11306F0500700001000000000000000000000008F
S113070080070000000000009007000000000000C7
S113071000000000000000000000000000000000D5
S1130720000000002145000053450000654600001C
S11307301F470000B004FF1F974A0000E54A00006D
S11307401D4B000000000000000000003D4B0000B5
S1130750814B0000874B0000EF4B00008D4C0000E4
S1130760854B0000994C0000614B0000043A26229E
S11307709801FF1F9C01FF1FD801FF1F0002FF1FEC
S1130780DB500000D35100008B5200003F540000A6
S1130790C1520000EF5200007153000027540000C2
S11307A0375400003B5400000000000005E0002026
S11307B0704700207047002070474FF6FF70704765
S11307C0416F11F1010F01BF816F11F1010FC16F71
S11307D011F1010F02D042F6A20101E042F6A30199
S11307E0C1627047FEB5254881680C69E16A01253C
S11307F042F6A30291423FD004F1700100258A68B9
S1130800002A36D00E1D534231688B4222BF406805
S11308100368994221BF40685118491E884228D371
S113082000A800F02DF80C2000F52340C0303168FA
S11308307268071DB9423CBF5318984208D2421A45
S113084000A800F023F8306871680818C21B394604
S113085000A800F01BF802A900A800F03FF80298D5
S1130860E16F884206BF012542F6A00042F6A100CE
S113087001E042F6A400E0622846FEBD0000FF1F2E
S11308804FF0FF3101600021416070477FB504469D
S113089001208DF800000E462068019015460E4890
S11308A002900020ADF80C008DF80E006DB100F040
S11308B043F800A9002000F05FF82A4631460020E2
S11308C000F073F8019000F03DF801982060606832
S11308D0281860607FBD0000B71DC10438B5044608
S11308E00D46207910F0030007D000A900220A6009
S11308F0C0F104022046FFF7C9FF206828600020E9
S113090000F044F831BDFEE70160704772B601683B
S1130910491C016062B601680029FCD101207047BE
S113092072B60168491E016062B6704772B60B491F
S11309300020086062B6704772B608480168491C16
S11309400160704705480168022901D20021EAE7E5
S11309500168491E0160704700000000C003FF1FCA
S113096008304001484A115070478268920092084A
S113097042EA81718160704709B90120704720B94A
S1130980424A136843F48023136051E0404951F80C
S1130990201041F221024A6000228A6020B93B48BB
S11309A0016821F4802101607047F8B50E4638498A
S11309B051F82040A068870F154605D0022F07D0B4
S11309C004D3032F06D00EE0032104E0022102E049
S11309D0012100E000212046FFF7C7FF03E016F8DD
S11309E0010B20706D1E16F0030006D0002DF6D109
S11309F003E056F8040B20602D1F042DF9D2012DBD
S1130A000AD00BD3032D03D03CBF3088208005E0EF
S1130A1030882080B07800E030782070204600F0E4
S1130A203DF8054639462046FFF79FFF2846F2BDAC
S1130A3070B50C0001D1012070BD154951F820504A
S1130A40144905F108004601207888512846217B85
S1130A50FFF78BFF607BA968000721F0405100F08D
S1130A6040500843A8600C49A07B88510121A0682C
S1130A7068602846FFF774FF6068286000212846F4
S1130A80FFF76EFF002070BD640000423C8004400C
S1130A9010060000600000426800004200F10802F5
S1130AA052010A4B9A580021D2B21AB1012A08BF46
S1130AB0016808E08168090F01F0030102291ABFE7
S1130AC003290188418808467047000060000042FD
S1130AD038B504463D4D0020C5E90000C5E90200D3
S1130AE0C5E90400A8612862394800F09EF8E8616D
S1130AF02046BDE834400FF2590100F090B900F0EF
S1130B00A1B970B5314D0C46A969072904BF296AFA
S1130B1088421AD100F08EF8C0EB0016D5E9000126
S1130B20D5E902231018B6FBF0F00A2148434FF42C
S1130B309661B0FBF1F0401D0A21B0FBF1F04FF4D7
S1130B40966148432060002070BD012070BD000004
S1130B502DE9F843064600F058F81C4F0446D7E93F
S1130B6004598846B8690021421C651B68EB0909D1
S1130B70F869494502D82CBFA8420122012ABA616A
S1130B8006D0042A08D0052A0ED0072A0FD018E070
S1130B90C7E900483E6214E0D7E90001201A68EB77
S1130BA00101C7E900010CE0C7E9024809E0D7E9FF
S1130BB00201201A68EB0101C7E90201304600F086
S1130BC041F9C7E90448BDE8F18300009802FF1F1A
S1130BD0803801001C48002101606FF07F421B49EE
S1130BE04A6000228A6007220A601949194A096882
S1130BF0C900B1FBF2F101B901214160704713480A
S1130C00016821F00601016070470F490A68124823
S1130C1000680B68C0430002000A9A42F6D1002122
S1130C2010EB026051EB12217047074949684843B1
S1130C30C008704706480068704703480168491CAB
S1130C400160704700000000A404FF1F10E000E0F2
S1130C50D400FF1F40420F0018E000E0012821D11A
S1130C60804A814819B1022912D006D3704701681D
S1130C70114001604168114013E00168114041F4E2
S1130C80807101607948016821F0080101607047B2
S1130C900168114041F4407101604168114041F420
S1130CA0407141607047012800D0704710B570480A
S1130CB0704B6C4C704A11B1022909D010BD1168F7
S1130CC021401160516821405160002119600CE0FD
S1130CD01168214041F400711160012119605168CB
S1130CE0214041F4007151600121016010BD28BB15
S1130CF05C4A624811B102290CD070470168114066
S1130D000160416811404160816811408160C1689F
S1130D10114012E00168114041F400710160416822
S1130D20114041F4007141608168114041F4007147
S1130D308160C168114041F40071C160704780B5A1
S1130D4000F0CCF84E49002008604E48016841F498
S1130D507851016001BD4C48416B21F478514163E5
S1130D604A490A68520052080A60016821F4E021E5
S1130D70016070474448016841F480210160016BBF
S1130D8041F4802101634148016841F00041016060
S1130D90012070473E483F4900680968C0F303607A
S1130DA0401CB1FBF0F07047012803D9801E0328D2
S1130DB003D903E0374800687047EBE70020704729
S1130DC03648284A0168114041F480710160324973
S1130DD04A6822F040024A60026842F0130202604C
S1130DE000204FF4FA720B68C3F380131818521ED4
S1130DF0F9D1FA288041C00F70471B480068C0F33E
S1130E00006000B9704780B525484168080005D0E6
S1130E100120884723494FF0FF30086001BD0128B5
S1130E200FD1214A214B102010704FF00050204A5E
S1130E3010600D4802681A4042F4202202601848EB
S1130E404160704701280BD11A49184A4FF00050ED
S1130E50086005480168114001600020104948609D
S1130E6070470000FFF8FFFE0CB0044094F00F4000
S1130E70940596421405964228B0044000C00440EC
S1130E8000D00040388004400480044000700440D6
S1130E9044800440D400FF1F90F00F4018B0044079
S1130EA0C403FF1FA0B004403DE400E0FFFFF0FED8
S1130EB004E100E084E100E0704750F8041B61B1F4
S1130EC050F8042BD30744BFA9F101039A18002357
S1130ED0091F42F8043BFAD1EFE770470A488178CA
S1130EE001F07F0104290DD1017801F09F01017007
S1130EF0FF21827802F07F02012A04BF034A12789C
S1130F00491EF6D17047000001E0074002D00740B7
S1130F10022811D80FF22C028056012904D100F0C6
S1130F201F029140054A04E0012100F01F02914094
S1130F30034A400942F820107047000000E100E035
S1130F4080E100E01A1B4100022811D80FF22C02A4
S1130F508056012904D100F01F029140054A04E0A3
S1130F60012100F01F029140034A400942F8201079
S1130F707047000000E100E080E100E018194A0039
S1130F8038B504460D46002000F0E6F86C486D4A7A
S1130F90056044604FF420411160016881F30888C2
S1130FA081F3098840688047BDE83240002000F0A2
S1130FB0D3B865498968096900281EBF10F1010F7B
S1130FC0624A904206D00A69904203D34B699A1848
S1130FD0904208D34A6A904207D3896A89188842A2
S1130FE08041C00F704701207047002070472DE9F1
S1130FF0F84F554D564EA868006900F1700A3746FF
S11310000AE09AF81010014205D07869FA688169FB
S1131010526838469047183738680028F1D14FF4A1
S11310207A70FFF702FE07464FF42040002441681F
S11310300091D0F800B0FFF7C3FE70BB0098FFF733
S1131040B8FF50B3FFF7CEFB38B3A868006990F837
S11310508E00C00703D400985946FFF791FFBAF8F1
S113106012004FF6FF71884208BF41F2883007FB37
S113107000F4FFF7CAFD8046894674B1FFF7C5FD49
S1131080B0EB080061EB09010025A94201D8A04298
S113109003D300985946FFF773FF374600E018372B
S11310A038680028E9D0F968096838468847002874
S11310B0F5D0002FE1D006E0B74203D0F16889688B
S11310C030468847183630680028F5D13846BDE8E0
S11310D0F28F38B5FFF72AFCFFF731FE1A4CA068EF
S11310E000688047002000F069F8FFF773FD04F101
S11310F0200000F032F9206800688047A06840684A
S11311008047FFF774FFE061016919B109680A00BB
S113111018BF8847E069416919B109680A0018BF16
S11311208847E06800688047E569E0684068804770
S1131130E868C1680800F8D028468847F5E7000049
S1131140BC02FF1F08ED00E00000FF1F11040000B7
S1131150AC0600007047000070B50446022C04D0B1
S1131160002000F070F9012C0ED00026114D06E08D
S11311704019C16889680A0018BF8847761C18207E
S1131180704341590029F3D174B9FFF7D5FBFFF738
S113119036FD00F08AF9084900200860012000F0BB
S11311A00DF8FFF7D8FD62B6BFF36F8FBFF34F8F13
S11311B070BD00BFAC06000008ED00E02DE9F04171
S11311C04B4C4C4D010020786FD1296861604A492D
S11311D08968096901F17002117C167F090906F01A
S11311E0010601F0010383F001073E42434908D0A0
S11311F02A68120F4FF0A070521CB0FBF2F0086086
S113120059E0527FD24302F00F02521C0BB906E0A0
S1131210521E3B4B3B4EB3FBF2F3B342F8D3384B75
S1131220394EB3FBF2F3B34228BF521CF7D29446B3
S113123016461746DFF8D48001E00CF1010CDFF804
S1131240C0E0BEFBFCFEC645F7D2DFF8B4E0DFF831
S1131250C080BEFBF6FEC64528BF761CF5D200E072
S11312607F1CDFF89CE0DFF8AC80BEFBF7FEC645D0
S1131270F6D2012A05D1BCF1090F3CBF092E092F72
S113128019D2761E3606521E06F0706646EA0272BF
S11312907E1E360406F4702632432A600B60002159
S11312A000F00BF80020207005E0012903D100F0C4
S11312B004F860682860BDE8F081884217D01648B9
S11312C0164A61B901211170017801F09F0141F0C2
S11312D020010170124800780028FBD070470129D2
S11312E005D1017801F09F01017000201070704752
S11312F04000FF1F448004400000FF1FD400FF1F74
S1131300006CDC02002D3101010E270701879303D5
S113131081F0FA0201366E01034006407C00C842A7
S1131320D000C84208B904207047C06920B10068E1
S1131330022801D1002070476D20704710B508B90C
S1131340042010BDC469606800F0E3F8A06800F0F0
S11313506DF802202060002010BD10B5040001D1FA
S1131360042010BD214922480968C1F3036130F803
S11313701100000301D1642010BD002121606060D0
S113138061610220A060A1614FF48050E06021619E
S11313902046FFF7C7FF20B11648E0612046FFF75B
S11313A0CDFF002010BD08B9042070470161002062
S11313B0704708B9042070475B1E194208BF1A42DF
S11313C001D0652070470368994221BF4068C01866
S11313D05118884201D266207047002070470649A0
S11313E0884201D06B207047002070474C80044035
S11313F0D40500005800FF1F6B66656B20B112B165
S1131400082A03D000E021B10420704709B10C2957
S1131410FAD2002070470000016841F470010160B5
S1131420BFF36F8FBFF34F8F7047704710B50446FB
S11314300B480C490A1A411E204600F099F80A4943
S1131440601C086010BD38B504002000FFF76AFF77
S11314500500002D03D1054803490968884731BDBB
S1131460191400002B1400004003FF1F04F0014076
S113147080B518491848086018491948421A19488B
S113148088421CBF002A00F073F817481749091A4C
S113149018BF00F0A9F816491648421A04D0BDE84E
S11314A00840154800F064B801BD14484FF0FF31FE
S11314B0016041608160C160016141618161C1611C
S11314C00F48016041608160C160016141618161D7
S11314D0C161704708ED00E0000000004C570000B7
S11314E0E05900000000FF1F9802FF1F2408FF1F9F
S11314F0745A0000745A0000000EFF1F80E100E0DF
S113150080E200E08021017001780906FCD5704773
S1131510704710B50446124812490A1A411E204663
S113152000F026F81049601C086010BD10B50F4C7F
S113153070212170FFF7F6FE88B90B49096820462F
S113154088472078810601D5672010BDC10601D5E2
S1131550682010BDC00701D5692010BD002010BD52
S113156005150000111500004403FF1F0000024090
S113157062B38B0708D0521E11F8013B00F8013BFF
S113158000F024808B07F6D1830740F0208000BF51
S1131590103A07D330B4B1E83810103AA0E8381044
S11315A0F9D230BC530724BFB1E80810A0E80810F2
S11315B044BF51F8043B40F8043BD20724BF31F840
S11315C0022B20F8022B44BF0B7803707047083AB3
S11315D007D3B1E80810083A40F8043B40F804CBBC
S11315E0F7D25307E4E70000002200F005B800003A
S11315F062F30F2262F31F42401810F0030308D075
S1131600C91A1FD3DB0748BF00F8012D28BF20F8F3
S1131610022D130030B414461546103928BF20E9B2
S11316203C00FAD8490728BF20E90C0048BF40F81D
S1131630042D890028BF20F8022D48BF00F8012D91
S113164030BC7047C91818BF00F8012DCB0728BF5C
S113165000F8012D70470000BFF34F8F0448054A7E
S1131660016801F4E06111430160BFF34F8FFEE7AD
S11316700CED00E00400FA05EEE7EDE7ECE7EBE73C
S1131680DFF8F015C968C9680020086070472DE9C3
S1131690F041DFF8E055E86982B000248DF801409C
S11316A04669002E62D0E968C9680A68012A4CD0EC
S11316B001F1080274680023091DA04704001FBF3C
S11316C042F21270844242F2137084424ED1E868AE
S11316D0C168D1F80880B8F1000F47D04E68377858
S11316E037B1122F04DA806800EBC700083800E035
S11316F00020086200281CBF006800281CD000A934
S113170005F1200000F0C0FA040017D19DF8000094
S113171048B14FF4E750791E20FA01F2D00758BFC0
S113172042F211740AD5EA68D268126A1268414614
S113173030469047002406E042F2107439462046B1
S113174000F01FFA94B901200DE0086A48B141681D
S1131750080003D00DF10100884704460CB10020B5
S113176001E09DF80100E968C96808602046BDE809
S1131770F68180B50178002000F003FADFF8F40464
S1131780C0694169096988470220FFF7E5FCBFF396
S11317904F8FDFF8E404DFF8E424016801F4E0612A
S11317A011430160BFF34F8FFEE7DFF8C804C06840
S11317B0C06814210C3000F081BA10B5044600F062
S11317C0A0FBFFE72178BDE81040DAE110B5DFF8AF
S11317D0A424126852690446A16860689047F1E73E
S11317E010B500F04AF8DFF88C04C068C06861687E
S11317F00161082101770020217800F0C2F9BDE8D9
S1131800104000F004BD30B583B0DFF86844A5682B
S113181000210191009100AB81684068AD6801AA84
S1131820C9B2C0B2A847E268D26800211161009928
S11318308A08019900F0B9F937BD10B5DFF83424EE
S11318409268D26804466068A168C0B29047B9E75C
S113185010B500F012F800F012F80421017700200E
S1131860B0E710B500F009F800F009F8032101779A
S11318700020A168BDE81040AEE1044695E7DFF81A
S1131880F403C068C068A168016161684161704780
S113189038B5DFF8E0530446E868C06800214161C8
S11318A00161007F042804D128680069804704B9D5
S11318B00446E868C068017F204600F062F942F2FD
S11318C01270844208D1E868C068007F082804BF09
S11318D0BDE8314000F0DDBC31BD2DE9FC4100F034
S11318E0C2F821B900202070FFF7D2FF5AE001218D
S11318F0217006694769002000900123E869D0F847
S113190014C0DCF804C000AA01A9E0475FEA00089B
S113191005D0E8694169C9688847404603E00098F2
S113192030B942F21270FFF7B3FF002020703AE0A2
S1131930B04288BF30460090E868C068017F08293B
S113194013D10199C160009981610198009900F057
S113195068FC804642F27D7080451CBF42F2747080
S113196080450BD14FF0000808E02B68019A0099DC
S11319709B683846984780460098C7190098361ADD
S113198006D0B8F1000F09D0E8694169C9688847F1
S11319904046FFF77DFF0020207003E0E868C06840
S11319A0066147610020BDE8F6812DE9F04700F0AB
S11319B05AF88AB021B900202070FFF769FF4EE081
S11319C00121217006694769C168027F212E2CBF5D
S11319D04FF02008B046A9B1424601A8FFF7C8FD60
S11319E0E869D0F814C0DCF808C00123424601A914
S11319F0E047A6EB080606B168B3FFF749FF0020ED
S1131A0020702CE0032A08EB070906D12B685B68D9
S1131A1001AA4146384698470CE0102A18BF4F46A1
S1131A20DED1407F0090434601AA394605F12000EB
S1131A3000F054FC5FEA000A4F46D1D0E8694569DA
S1131A40AD680123002201A9A8475046FFF720FFF3
S1131A500020207004E0E868C06806614761002047
S1131A600AB0BDE8F087834D0446E868C0680169A0
S1131A70704710B57F4B1B68DB680446E268A168B9
S1131A80606898479EE62DE9F04105467C4C6E68F7
S1131A90D5F80880E86877492060002749680C3148
S1131AA030B10A68904223BF4968491C8142042727
S1131AB03046FFF77EFA00B904272978384600F04B
S1131AC060F89FB966600020FFF746FB2068C4F801
S1131AD0088018B180F3088880F30988616840465B
S1131AE08847BDE8F0410020FFF736BBBDE8F08130
S1131AF038B504466068FFF75CFA08B9042005E0CD
S1131B0065680120FFF728FBA068A8472178BDE895
S1131B10344036E010B50446211D5A4800F03AFC22
S1131B2050E610B50446A3686168564804F10C02F7
S1131B3000F058FC46E61CB5044600A8002100222B
S1131B4006C0A36861684F4800AA00F073FCA2684D
S1131B5000A900F045F813BD10B5FFF78EFE454807
S1131B60C168C968A2680A6162684A6110220A777A
S1131B70C068C068E16841770020A168BDE81040F2
S1131B805BE010B584B0A02201908DF80020002203
S1131B9000F06AF88DF80220029102228DF80320E9
S1131BA000234469A4680C225BE010B588B0A72325
S1131BB000F03AF80020531C8DF8033006E000AC26
S1131BC051F8203004EB8004401CA3609042F6DB03
S1131BD000F021F800231AE010B584B0A3222FE00E
S1131BE010B588B0AF2300F01FF802238DF803303E
S1131BF040B99008801C8DF80300029203A8FFF7F7
S1131C00C7FC01E000200290002300F004F800A9C2
S1131C10A04708B010BD1748C0699DF80310446977
S1131C20A46889000A1D70478DF8003001900023D4
S1131C308DF801308DF80230704710B584B0B022B1
S1131C408DF800200190012200F00EF8029100228C
S1131C508DF80220002302228DF803200C2244690F
S1131C60A46800A9A0471FBD0248C0698DF80120DF
S1131C70704700000000FF1F0CED00E00400FA05AF
S1131C80E802FF1F2000FF1F002818BF002901D110
S1131C90042070470848007800F00302022A08BFB5
S1131CA0002005D000F0C00080280CBF01200220D5
S1131CB008700020704700BF02000240002200F0BC
S1131CC0E1BB000038B5B34C65682A46042104F131
S1131CD0200000F0F1FB00AA012104F1200000F033
S1131CE0EBFB286800990818401E6860002032BD8C
S1131CF000F007BC2DE9F04FA64C89B08046A068DF
S1131D000069056BCE08F60091468F1B05B10125CD
S1131D104FF0FF30CDE906002FB13A4606EB09013A
S1131D2006A8FFF725FCFEF707FE4FF0000B06EBB5
S1131D30080A4EB133464A46414604F1200000F0F9
S1131D4011FC5FEA000B08D13FB1082306AA5146F3
S1131D5004F1200000F006FC8346FEF7F3FDBBF11E
S1131D60000F28D1EDB245B3FEF7E6FD7EB103A81E
S1131D7002904B4604A80190324600F022F84146F6
S1131D8004F1200000F024FC5FEA000B0ED16FB1D7
S1131D9003A8029006AB04A80190082200F011F8F1
S1131DA0514604F1200000F013FC8346FEF7CAFDFF
S1131DB0BBF1000F01D0584600E0002009B0BDE897
S1131DC0F08FA0680069806DC0B2009070472DE963
S1131DD0F047DFF8C0A18146DAF808000069066B15
S1131DE08AB0904606B1012601200024A0FB0823F6
S1131DF010FB043300FB0833CDE9082301F007008E
S1131E00052804D34842C008C00045421BE0CD0861
S1131E10ED004C1B17E0FEF78FFD082308AA00F025
S1131E2036F800F06BF8002F2BD14EB1FEF784FD8D
S1131E3003A8029008AB00F02FF800F05FF807BB8E
S1131E4009F10809083D002DE5D1E4B10024B8F1F9
S1131E50000064F10101CDE90601FEF76DFD0823E0
S1131E6006AA00F014F800F049F857B95EB1FEF77D
S1131E7063FD03A8029006AB00F00EF800F03EF8F4
S1131E800FB1384600E000200AB0BDE8F0874946AB
S1131E900AF1200000F066BB04A801900822DAF8D9
S1131EA008000069806DC0B2009049460AF1200024
S1131EB000F08EBBF8B504460D46FEF73DFD354EE9
S1131EC0354B2A46214606F1200000F0B1FB00F014
S1131ED015F88FB9B0680069006B68B1FEF72CFD86
S1131EE0B0680069836DDBB22A46214606F1200002
S1131EF000F0DAFB00F002F83846F2BD0746FEF7C0
S1131F0021BDF8B5234EB068006900F160040025D6
S1131F10216821B96268521E9241D20F00E000226A
S1131F208369406BB8B1B2B95F4231B1394004D072
S1131F300020FFF7BFFF050029D171686068496878
S1131F40404238404042884221D2491C091AFFF7D6
S1131F50B1FF05461BE0FEF7EFFC0F4906F1200038
S1131F6000F0E0FB0546FEF7EDFC85B9B0680069BA
S1131F70006B60B1FEF7E0FCB0680069816DC9B226
S1131F8006F1200000F0E6FB0546FEF7DBFC2846E0
S1131F90F2BD00000000FF1F6B66656B416882683C
S1131FA08A4209D2891A416082660FF2ED110160FA
S1131FB0012181600020704742F2787070470FF26F
S1131FC0050113E0416ADFF8F4324A898282CA6863
S1131FD0921E42604A689A4202D1097A022902DBBF
S1131FE042F2757070470FF20D0100BF01600020CE
S1131FF07047000010B5044682B0606A41686268A8
S1132000A1610168C91E9142A16002D342F27670B7
S113201016BD008910B142F2777016BD8DF800002C
S113202000A9A748FFF730FE9DF8000010B142F266
S1132030817016BD2046FFF7B1FF16BD38B5A14D1E
S11320402B689B680446626A216EE06D984780B9EC
S113205028680069804760B900F03AF800F033F866
S11320600098616E884200D038E00FF22D10206095
S1132070002032BD38B50446924D00F029F82B6893
S1132080626AE06D9B6810219847D8B9E06D103002
S1132090E065206E10382066112828BF8A480FD2C8
S11320A008B18A480CE028680069804750B900F0FC
S11320B00AF80098616E884200D00FE00FF2D90050
S11320C02060002032BD00A904F11C00FEF706BC0C
S11320D0616A102204F11C00FEF7D8BB42F27A7048
S11320E032BD10B5044604F11C00FEF7C9FB206E96
S11320F011282CBF7448754890E0724B1B68426EDF
S1132100016EC06DDB68184710B5044642F27F705B
S1132110E26D11000ED0606E04F1180190470128A1
S113212003D12046BDE8104038E7022802D100F070
S11321306EF8002010BD10B500F15C01031D1C6891
S11321404A685A60944202D242F2767010BD0A7A0A
S1132150D20707D50A685C69A24203D1486898602F
S1132160002010BD90F85A10C9075CBFBDE81040AC
S1132170FFF714BF42F27C7010BD90F85A10C907E3
S113218048BFFFF7BEBE4F4A126852695C304168CF
S11321900068104700000000B0B5044604F158057B
S11321A0606A0FC885E80F005A270120415D7F1837
S11321B0401C1028FAD32878F9B2884202D042F29F
S11321C07970B0BD687807281ED8DFE800F01B04DA
S11321D0080C10131B172046BDE8B040ABE720469F
S11321E0BDE8B0407DE72046BDE8B04085E742F257
S11321F01270B0BD2046BDE8B04085E72046BDE87A
S1132200B040BAE70020B0BD42F27B70B0BD10B55B
S11322102F4C70212046FFF751FD2E4820600020EE
S113222010BDF8B504460D46002000262A4FAE42E4
S113223017D03869C0F11000A91B09E079B13B69D6
S1132240325DDA55761C3A69521C3A61401E491EC9
S11322500028F3D1386100F005F810B9E7E742F23D
S11322607D70F2BD1A491C4A4A620020CA6842B114
S11322700869904202D2401C086104E042F2747082
S113228070478A6E12B9084609680847521E8A6662
S1132290704738B50E4890F8591004290CD100F154
S11322A05C042568280004D00020FEF755FFA068D0
S11322B0A84742F27E7032BD002032BD53544D50C7
S11322C02000FF1F0000FF1F752000003D200000BC
S11322D06C05FF1FBF1F0000DC05FF1F2DE9F8433D
S11322E05FEA0008914614BFB9F1000F04200E46BE
S11322F01D461CD0089C22462946304600F019F899
S1132300A8B907E0796849F8041B0836B96849F8A0
S1132310041B083D5DB11B4807681B483E60032150
S1132320017004714046FFF701F90028EAD0BDE8C6
S1132330F28310B510F0070F08BF11F0070F01D09A
S1132340652010BD022A1BDA0C18641E012A06D16E
S1132350082804BFC81D0F2812D1002010BD002A70
S1132360FBD1B4F5806FF8D3B0F5802F02D30749C1
S11323708C42F2D3B0F5002F02D305488442ECD34B
S1132380042010BDF405000007000240000404000E
S11323900004080010B50A46002818BF002A01D11D
S11323A0042010BD0E4B1C78002104F00304022C01
S11323B014D0452159711178597251781972917854
S11323C0D971D178997111795973517919739179B6
S11323D0D972D1799972FFF7A9F80146084610BD60
S11323E002000240F8B5160004460D461F4601D10E
S11323F00420F2BD3A46FFF701F8B0B90B48432177
S1132400417005700A480068316841600DB10C2DB7
S113241003D2082F04BF716881602046FFF786F855
S113242005462046FFF70FF82846F2BD0600024095
S1132430F4050000F8B5150007460C461E4601D108
S11324400420F2BD3246FEF7D9FF90B90948412174
S1132450417004703846FFF769F850B906490968B5
S11324604A682A600CB10C2C03D2082E04BF896878
S11324706960F2BD06000240F405000062F30F2219
S113248062F31F4200B500BF13009646944610390C
S113249028BFA0E80C50FAD85FEA417C28BF0CC0E2
S11324A048BF40F8042BC90728BF20F8022B48BFB7
S11324B000F8012B00BD0000002818BF002A01D13C
S11324C004207047072918D8DFE801F004080A0D32
S11324D00F111315C0681060002070474068FAE7B8
S11324E040684008F7E78068F5E70068F3E70020F4
S11324F0F1E74069EFE78069EDE76A20704700F093
S113250035B9134680B50A4601461846FFF730F838
S1132510002002BD70B510F0030F0C46154612D012
S1132520B0F1005F0FD22118491EB1F1005F0AD348
S1132530C0F1005632462946FFF71AF8A21B71195A
S11325404FF0005001E022462946FFF711F8002021
S113255070BD10B514460A462146BDE8104001235B
S113256000F044B92DE9F041044615000E461F461B
S113257008BF042025D008233A46FEF71AFF5FEA75
S1132580000802D01DE00836083FB7B10E480068C5
S1132590066055F8041B416055F8041B8160072050
S11325A00A4908702046FEF7C1FF804620690100F1
S11325B018BF8047B8F1000FE5D02046FEF743FF6F
S11325C04046BDE8F08100BFF4050000070002406A
S11325D02DE9F04106465FEA03080D46174608BF99
S11325E004201ED00423FEF7E4FED0B9069C01E0CB
S11325F03F1F2D1DAFB10C480C4900680560022235
S11326000A700C7158F8041B81603046FEF78EFF87
S11326100028EDD0079901B10D60089909B1002295
S11326200A60BDE8F08100BFF40500000700024025
S11326302DE9F041984604460D4616461023FEF750
S1132640B8FE07001AD17019461EE068B6FBF0F117
S113265000FB11622AB1491C4843461E01E0E068B0
S11326604519AE4217D30E480E490068056009208B
S113267008704046FEF7B3FE070002D03846BDE8B6
S1132680F0812046FEF752FF07462069010018BF7B
S11326908047002FE3D02046FEF7D5FEEEE700BFCB
S11326A0F4050000070002402DE9F84F984604465F
S11326B00D4692461023FEF77CFE60BB6068A1685D
S11326C0164FB0FBF1F96842C9F1000108404642D7
S11326D0AE4208BF4E4403E0AAEB0B0A5D444E44ED
S11326E0BAF1000F16D00E4909680D60701BD3466D
S11326F0824588BF8346012139704FEA1B10010AC5
S11327003971F87087F802802046FEF70FFF002821
S1132710E2D000E00020BDE8F28F00BF07000240D5
S1132720F405000038B50400084601D1042032BD88
S1132730074A44211170FEF752FE050007D12046D6
S1132740FEF7F4FE05462046FEF77DFE284632BD20
S11327500700024008B904207047034A402353701D
S11327601170FEF7E3BE00BF060002401D4800687A
S1132770000B00F00F00C01E082830D8DFE800F07E
S113278005080B0E1114172F1A004FF4804013E0A4
S11327904FF4C04010E04FF400400DE04FF44040CF
S11327A00AE04FF4803007E04FF4C03004E04FF407
S11327B0003001E04FF480200321421E10420A4AF7
S11327C0526818BF02214B1CB0FBF3F0C0F1005358
S11327D042F80C3F6FF0604301FB00305060002072
S11327E0704700BF007004400000FF1F002A01D1A1
S11327F001207047F0B41F46034603242340002BF6
S113280009D00424E31A017001300824E141521E66
S113281026D05B1EF7D1042A1ADB13D0002F11D067
S11328200C460D460E46102A02DB72C0103AFAE737
S11328300C2A02DB32C00C3AFAE7082A02DB12C087
S1132840083AFAE7042A03DB01600430121FF9E7AF
S1132850002A05D0017001300824E141521EF7D14D
S1132860F0BC00207047000040682C49405C704771
S11328702B494A6842B10A6813780370501C0860F7
S11328804868401E4860704700210170704710B5C9
S11328905A280CD1214A01238B54142404FB01210E
S11328A00FF20D03CB60BDE81040116C084710BD5A
S11328B01A49096C084730B5184D296485B0044697
S11328C000A80FF260011422FEF762FE6068A2689D
S11328D0022190476068142101FB00510A1D00A9E0
S11328E000F091F8002005B030BD10B504460B4847
S11328F06168142202FB0100001D00F0F0F860681A
S1132900A268BDE8104000211047054801604260FC
S113291041680029FCD1002070470000FC02FF1F21
S1132920F402FF1F712800008F280000000000003F
S113293008000000010100002DE9F041044682B0C6
S1132940D4F800800FF2082050F82870F86A261D89
S113295000012BD5B268100028D041464FF4967080
S1132960904723E000F04BF820699DF800500928B7
S113297005D300F044F89DF8000045EA00252069DD
S1132980112805D300F03BF89DF8000045EA004506
S11329902069192805D300F032F89DF8000045EAB3
S11329A000657D63F86A40F00070F862F86A80019F
S11329B0D8D4F86A800320D5BD6BF86A40F400309F
S11329C0F86241467268E8B290472069092804D346
S11329D0280472684146000E90472069112804D3E8
S11329E0280272684146000E904720691928E0D3F6
S11329F072684146280E9047DBE7BDE8F3813268F0
S1132A00414600A81047F0B504460FF2441050F8B0
S1132A1024700D46164685B014213046FFF74EF952
S1132A200ECD301D0C3D0EC03460E8683061464860
S1132A301CB1022C0AD004D30CE0C16841F48051CB
S1132A4002E0C16841F40051C16003E0016841F44F
S1132A5080510160384600F0A8F800208DF800008D
S1132A60ADF80C0000A9E8680190287C8DF80800F6
S1132A70687C8DF80900384600F074F868BB386843
S1132A8020F48040386001220121384600F0B9F872
S1132A902E48002100F8341000EBC40001224660E7
S1132AA01921384600F0F8F801221121384600F0C7
S1132AB0F3F801221B21384600F0EEF80020786379
S1132AC00121F86A40F00070F8622046FEF720FA0F
S1132AD03868400840003860002005B0F0BD70B58B
S1132AE004680FF26C00184E50F824501CB1022CEC
S1132AF00DD006D312E0F068C00424D500210020D4
S1132B000AE0F06880041ED50021012004E030684A
S1132B10C00418D500210220FEF7FAF9284600F077
S1132B2044F81CB1022C0AD004D370BDF06820F420
S1132B30805002E0F06820F40050F06070BD30680E
S1132B4020F48050306070BD308004408803FF1F43
S1132B5000C0024000D0024000C00A404001474A81
S1132B601150704738B50D4604462878444A61012F
S1132B70C043505000212046FFF7F0FF2A1D0021DA
S1132B80204600F044F810B140F2311032BD6A7BA7
S1132B90297B204600F021F800F001F832BD2068BE
S1132BA020F0405020600020704710B504460122F8
S1132BB0206820F4804020600120206001462046E7
S1132BC000F01FF82F48E0620020A060E060206160
S1132BD0206344F20100206010BD30B50368C3F3E4
S1132BE080331BB1046824F4804404604401264DFE
S1132BF0295126490A511BB1016841F48041016001
S1132C0030BD4001224B195022490A50704730B55B
S1132C101568042D09D3112D02D30368DB0F04D1E9
S1132C20212D05D30368DB0F02D140F2311030BDF2
S1132C3000EB81016D1E537914790068ED065B0683
S1132C40A406C00FC86803F0007304F080640CD0BD
S1132C5020F0FE4005F0F045927928432043120607
S1132C60184302F08072104304E020F0FC40284333
S1132C7020431843C860002030BD00007C0000429F
S1132C803800004200000A9A34000042300000423A
S1132C902C0000422800004210B5036B01248C4034
S1132CA0A34302FA01F11943016310BD38B50400CE
S1132CB0084601D1042032BD074A49211170FEF7AC
S1132CC08EFB050007D12046FEF730FC0546204662
S1132CD0FEF7B9FB284632BD0700024080B509491A
S1132CE001EBC00211F8300028B1074840B1506828
S1132CF0C046C04601BD054810B15068FFF71CFE30
S1132D0001BD00008803FF1F0000000039290000F6
S1132D100020E3E70120E1E70220DFE7002000E0F4
S1132D20012038B50FF2781151F82040594901EBD0
S1132D300013E178E27801F012052A43E27001F011
S1132D405002102A10D04A0614D54807A0780CD592
S1132D5040F01000A07000208DF8000000A8196851
S1132D6088479DF80000207131BD00F0EF00A0708D
S1132D70207931BDA278C2F300121AB1C807EAD58E
S1132D80A078F2E72279014610465A68904731BD8F
S1132D900FF20C1151F82000002181700170817133
S1132DA07047F8B504000FF2F8003A4F50F8246069
S1132DB00D4695E80F0007EB041787E80F00364827
S1132DC001680CBF40228022114301600020B070D2
S1132DD001214020B0710220F0702046FEF7B4F8C3
S1132DE03078297B40084941317000207071B071FE
S1132DF07070B07840F08000B070B07840F040005F
S1132E00B070F1BD38B50500234C03D120684006ED
S1132E1005D431BD012D10D1206800060DD5002147
S1132E202846FEF791F82846FFF7B2FF2068002DE8
S1132E300CBF402180218843206031BD30B50FF2A2
S1132E40600353F820004FF47A73B1FBF3F1134B92
S1132E50B3FBF1F1002300E023465C1C01FB04F505
S1132E609542F9D32BB90A2462438A4204D301233D
S1132E7002E0202B28BF1F23817901F0A00103F079
S1132E800F021143817130BD024A02EB0010416010
S1132E9070470000A003FF1F3480044040420F002D
S1132EA0006006400070064000600E4040682F49F4
S1132EB04018007C70472E494A6842B10A6813786A
S1132EC00370501C08604868401E48607047002129
S1132ED00170704725494969084738B504465A2C9A
S1132EE008460BD1214D4219012111742149FFF7E4
S1132EF0CBFF6969BDE834405A20084731BD10B59D
S1132F0004461A49FFF74DFFFDF744FF01462046EA
S1132F10BDE810403222FFF791BF10B504461348B4
S1132F20416115498968096991F88110FF2918BF21
S1132F3001736068A268022190476068FFF7DFFFB1
S1132F40002010BD10B504466068FFF75BFF6068A1
S1132F50A268BDE8104000211047054801604260A6
S1132F6041680029FCD10020704700006400FF1F65
S1132F70DC03FF1FD52E00000000FF1FC9B2012A89
S1132F80DFF8B82912F821300CBF0120002008E036
S1132F90C9B2012ADFF8A42912F821300CBF042099
S1132FA00820184302F821007047DFF89009C9B2DD
S1132FB010F8212002F0FD0200F82120704738B5F6
S1132FC004460D4600F09CFD206900280EBF2561D3
S1132FD060690561656100202861A069401CA061E9
S1132FE0BDE8314000F096BD38B504460D4600F00A
S1132FF087FDA06918B900F08DFDC12032BD20699C
S11330002860206918B10069206100B96061A06975
S1133010401EA06100F07EFD002032BDDFF82019C3
S113302001F5007201F51471C1600161C2620C21E5
S113303081610B22C16801F11C030B61521E194608
S1133040F9D10A6141610020704710B582B004468D
S113305000A9FFF7C9FFDFF8EC08406804F12C0170
S1133060400A0A68CB7D40020BB9426005E040F09B
S1133070080402F1080363600832009B5A600022CE
S1133080009B1A70009B5A70009B9A60009B9A7078
S11330900122009BDA75009A8A6000224A75C97D74
S11330A001F0010140EAC100DFF89C18016013BD82
S11330B0F8B506460F4614461D4600F021FD00F003
S11330C0E9FA07F00F0140EA4110142111FB0761EE
S11330D041318A7802F0010240EAC20254608A78DF
S11330E0097802F0010240EAC200AA0501F00101D8
S11330F0920D890141EA024141F08801016000F02A
S113310009FD00F069FBF2BD10B5142414FB0100A5
S113311001F00F0130F8384F9C4288BF1C46029BD7
S11331201C60DFF820385B685B0A5B0243EA4111EC
S1133130837A03F0010341EAC30343F010035A60A6
S1133140827A007A02F0010200F0010041EAC20131
S1133150A205920D800141F0100140EA024040F0C6
S1133160880000F038FB10BDF0B5DFF8E017DFF899
S1133170D447FF220A720B7D43F002030B750B7ECA
S113318003F080030B76002365686D0A6D0203F07B
S11331900F0645EA4615002645F008072E603E60F6
S11331A045F0100745F018053E602E60142505FB18
S11331B0030542356E702E700025DFF88067DFB29C
S11331C05B1C06F82750062BDED3257001230B70F9
S11331D01C300B7D03F0FD030B75C57302230380C4
S11331E0012343800A73087940F08D000871087D3B
S11331F000F0DF0008750020F0BD2DE9F047DFF88E
S11332004C5788B08146287CDFF838678DF81C005D
S1133210287C00090090012814BF0228287C08217A
S1133220287C2A7C2970C0F3C0007168009B490A7D
S1133230490241EA431141EA0013C2F3800243EA1E
S1133240C2021268C2F3094AC2F3830202920D2A2F
S11332500CBF4FF001084FF00008009A142303FB41
S1133260029202F13004009A4AEA0202019270B317
S11332702768002F25D0F8685044F860B968091A07
S1133280A07C80F00100A074207C80F001002074F8
S113329002D02089824515D200F08CF8206048467F
S11332A0FFF78DFE2089824504BF009800285ED177
S11332B0012030700022D9F804000023114600F0E8
S11332C096FD74E03946484600F0E9F96FE001984C
S11332D0002854D0307808B1002030706768002F7F
S11332E065D0F87D68B9E07CFA6800F0010041EA35
S11332F0C00041687868101881421CBF524600F033
S1133300ECFDF8685044F860B9680E1A009800287B
S113331004BF02980D280ED101220021484600F076
S1133320B8FA09F14000012101704170C17881F0BF
S11333300101C17007E0607C80F001006074E07CF2
S113334080F00100E074B868002818BF002E02D095
S11333502089824506D200F02DF860604846FFF7C8
S11333602EFE0CE03946484600F0BEF91FE00198F5
S1133370002801BF307800284846FFF766FED9F8D8
S1133380040003908DF81A8003A900988DF81800A2
S11333909DF81C00C00800F001008DF81B00009887
S11333A0C0B200F0EEFB287D00F0DF00287508B005
S11333B0BDE8F087F86805903946786804900020E5
S11333C07047DFF8881504220A70DFF88425137922
S11333D0127842EA0322028420200870704770B5F4
S11333E004460025142000FB054000F13806B0789F
S11333F0012822D1D4F8AC002946FFF7D6FDDFF826
S1133400440532884068400A400205F00F0140EA52
S11334104110B17A01F0010140EAC101920541F085
S11334201001920942F008020A60F17A01F00101E8
S113343040EAC100318800F01EFA6D1C062DD1DB74
S1133440DFF808158020087094F83A00012806D1A6
S1133450002084F83A002046BDE87040F5E570BDD0
S113346030B5DFF8E844DFF8EC5485B020782179F2
S11334700840000744BF2846FFF7BFFE20782179A3
S11334800840C00710D501202070207C6968009195
S113349000098DF80C0000A90020ADF80E00019081
S11334A00290102000F06DFB20782179084040073D
S11334B044BF2846FFF785FF20782179084000069D
S11334C044BF2846FFF78BFF05B030BD70B50446F6
S11334D0DFF880640D463046FFF7A0FDDFF878146E
S11334E0DFF878040860FDF761F9C6F8A8002E60DB
S11334F07460002070BD70B506460C4604F12805C2
S113350000F0FAFC2870304600F0EEFCC4F8AC0081
S11335101020A870FF20DFF8346430702246DFF8F2
S11335204004017801F07F0101702878DFF8341439
S113353000F0E7FC08B98A2070BDDFF80814DFF852
S113354000044860010A3177020CDFF81C140A7089
S1133550000E08712046FFF707FE002070BDDFF85B
S11335600004017841F080010170DFF80004017863
S113357041F001010170DFF8F803017801F07F01E7
S113358001700020704738B50D46044629786A78E2
S1133590142010FB01415118012281F83C20AB7822
S11335A0A98A012B05D1B1F5806F05DB40F2FF310B
S11335B002E04129A8BF40212A7810FB024282F888
S11335C03E302A786B7810FB024282F83F302A782A
S11335D010FB024211870022297810FB014181F877
S11335E03A20297810FB014181F83B2029786A7838
S11335F010FB0141403132B94A70297810FB014077
S11336000021416305E000220A70297810FB014083
S11336100263A87829780128D4F8AC0018BF0122E5
S1133620FFF7ACFC6A7802B101222978D4F8AC0027
S1133630FFF7AEFC6878002801BF287800282046F0
S1133640FFF703FD002032BD70B505460E46144653
S113365000F01FF9B949002001F8260006F00F0117
S113366000F018F840EA411004F0010140EA0110AA
S11336704FF0FF31416040F008004160142010FB1E
S113368006504FF6FF7101872018002180F83C1086
S1133690002070BDAB484068400A40027047F0B556
S11336A00D460446A868E96883B0401A01901426C0
S11336B0E86818B9297816FB01410D6301A9009146
S11336C06968019B421829782046FFF71DFD070011
S11336D008D0287816FB00400021016320462946C3
S11336E0FFF76DFC3846FEBD2DE9F0410D4604465A
S11336F0E868A9680E1A142718B9297817FB01413C
S11337004D63297817FB0141098FB14238BF0E463A
S1133710696842189048006858B116F0030F08BF52
S113372012F0030105D00021E975414201F00301C3
S11337300A18297833462046FFF7BAFC5FEA0008E6
S113374008D0287817FB0040002141632046294611
S1133750FFF735FC002E04BF287800280CD1294639
S11337602046FFF72CFC94F8430080F0010084F815
S113377043002046FFF769FC4046BDE8F08170B580
S11337800D46142111FB050101F138060121F170E8
S1133790B1701446294600F07CF86A4930884968BB
S11337A08005490A8009490205F00F0240F08C00A7
S11337B041EA42113CB1B27A02F0010241EAC2018B
S11337C041F0100104E0F27A02F0010241EAC20180
S11337D000F001F870BD08606448017801F0DF0171
S11337E00170002070472DE9F84381460D461420EE
S11337F010FB059000F138070020F870B8701646E9
S1133800D9F8AC004F4CFFF7D0FB05F00F004FEA9E
S11338104018D9F8AC0096B101222946FFF7AEFB57
S1133820D9F8AC0001222946FFF7B2FB0020387218
S11338306068B97A00F025F840F0100014E0012225
S11338402946FFF79BFBD9F8AC0000222946FFF775
S11338509FFB002078721DB94846FFF7F6FB06E08F
S11338606068F97A00F00DF8398800F004F8FFF781
S1133870B3FFBDE8F2838905890941F008010160BD
S11338807047400A48EA402001F0010140EAC100C3
S11338907047F0B506460C46142085B0154610FB5B
S11338A004601DB9476B0021416302E0076B0021EE
S11338B00163C7B139463046FFF781FB4FF0FF3053
S11338C0029000A978680190706800908DF80C400F
S11338D000208DF80E00280018BF01208DF80F007D
S11338E0204600F04EF9002005B0F0BD214A1378BF
S11338F003F080030B431C301370C173012101805A
S11339000020704780B51C490A7800220A700A7D9D
S113391002F080020A7500220A7415490A7842F0FE
S113392040020A700A7842F080020A70FF21818303
S1133930D0F8A800FCF73FFF002002BDC0200740DC
S1133940000AFF1FE403FF1F8800080080200740CF
S1133950A0200740EC03FF1F9C04FF1F100CFF1F57
S11339601C20074061340000B02007409420074029
S113397000210740982007408420074001F00F01F0
S1133980142313FB010090F83A00108000207047C4
S113399038B501F00F041425FF2315FB0405012A93
S11339A005F83A2F04D1CA092146FFF7E8FE06E0DC
S11339B032B9697821B16A792146FFF714FF0346C9
S11339C0184632BD70B504460D46D4F8A800164614
S11339D0FCF7EDFE012D04F11C0007D0042D07D0E7
S11339E0052D07D0062D08BF468004E0068002E0BE
S11339F0468100E086801EE070B504460E46D4F889
S1133A00A8001546FCF7D3FE012E04F11C0008D0D3
S1133A10032E0AD0042E0AD0052E0AD0062E02D078
S1133A2009E0008806E0408804E0C07B02E04089A9
S1133A3000E080882880D4F8A800FCF7BAFE0020B3
S1133A4070BD38B504460025002229462046FFF7FC
S1133A50FBFD012229462046FFF7F6FD6D1C062DCD
S1133A60F2DB2046FFF780FB2046FFF7D7FA002061
S1133A7032BD000070B5A0F11003DBB20829B8BF55
S1133A80FB2B1CDA03F0030423F0030303F160436C
S1133A9003F56143E400D3F80053FF264901A6402F
S1133AA001F0E001B543A1402943C3F8001312B16A
S1133AB000F008F801E000F010F8002070BD4FF0AD
S1133AC0FF3070BD1038C0B2FB2805DA012100F0C8
S1133AD01F029140144A0DE009E01038C0B2FB28DF
S1133AE005DA012100F01F029140104A02E04FF074
S1133AF0FF307047400942F8201000207047000052
S1133B000B480168002900D172B60168491C0160A4
S1133B10704700000648016800291EBF491E016065
S1133B20002900D162B6704700E100E080E100E0C6
S1133B30AC04FF1F38B50D460446687B38B1102825
S1133B4002BF002204F1080000F06EFA04E0002233
S1133B5004F1080000F0DAF900200C2101FB004117
S1133B6001F13C026B7B117A994205D151681268CC
S1133B7028469047002032BD401C0828EDD38320FE
S1133B8032BD0A68487310F07F0307D000F07F004D
S1133B90102803DAC87B43EAC01048731046C9E70B
S1133BA04268126B13001CBF00681047FF20704767
S1133BB070B500F01EF86068E90606D5436A18007F
S1133BC00AD000F0ECF8984718E0436C180003D0D2
S1133BD000F0E5F89847F7E714E070B500F009F84D
S1133BE06068036C180003D000F0D9F8984705E02A
S1133BF008E004460D461646FFF782BFFFF78AFF2A
S1133C00002070BDFFF786FFFF2070BDF8B52B4E76
S1133C1006F19C070446387801280D4629D0A422D1
S1133C200021304600F04BFB012038707C70FCF71B
S1133C30BDFD23497860602212FB0411F161FF226B
S1133C4000210C2313FB0163491C082983F8442039
S1133C50F7DB002C18BF012C0DD11A4F77603A689E
S1133C60100002D0314630469047306838B987207A
S1133C70F2BDC120F2BD00203870C020F2BDF0605A
S1133C803661204600F026FB30B1796B08001CBF7A
S1133C9030688847C420F2BD7A68100005D03168C6
S1133CA02046904718B92E60F2BDFF20F2BD796B13
S1133CB008001CBF306888478D20F2BDC006FF1F76
S1133CC0A00DFF1F2C06000010B54B689B68024630
S1133CD000201C0003D0BDE810401046184710BD5A
S1133CE038B5040001D1FF2032BD04F19C05686899
S1133CF0FCF761FD6068416B08001CBF20688847C1
S1133D000020287032BD00B587B0C0B10B788DF8A3
S1133D1000308B788DF801304B68ADF81430497859
S1133D208DF802108DF8162000210291039141684C
S1133D308A69110003D0006800A9904700E0FF20C1
S1133D4007B000BDF8B500F097F81F4601D1FF2079
S1133D50F2BDFFF7D5FE00200C2101FB004292F8D2
S1133D604420AA4203D1FFF7D5FE8420F2BD401CB3
S1133D700828F2D3002001FB00423C32137AFF2BC7
S1133D8006D1157216605760FFF7C4FE0020F2BD1D
S1133D90401C0828EFD3FFF7BDFE8120F2BD206848
S1133DA0324629467047F8B504000F4615461E46AC
S1133DB019D06068826C100015D0206800A9904763
S1133DC088B9FFF79DFE00980770002000F033F8D3
S1133DD00269100007D000992068904700F050F85D
S1133DE01CB90020F2BDFF20F2BD9420F2BDF8B54D
S1133DF004000F4615461E4619D06068826C1000F8
S1133E0015D0206800A9904788B9FFF779FE00987B
S1133E100770012000F00FF8C268100007D0009965
S1133E202068904700F02CF81CB90020F2BDFF2058
S1133E30F2BD9320F2BD0099487000988660009806
S1133E40456000200099C86006200099C870606829
S1133E50704770B500F010F80CD0FFF751FE6068A1
S1133E60036A180006D0FFF79AFF984700F008F895
S1133E70204670BDFF2070BD04000D4616467047F5
S1133E800446FFF747BE10B538B14368DB6B1C002E
S1133E9003D0BDE8104000681847FF2010BD08B9E2
S1133EA0FF207047016242620020704708B9FF207A
S1133EB070478162C2620020704708B9FF207047D2
S1133EC0016342630020704728B14168C96C0A004D
S1133ED01CBF00680847FF20704710B50446FDF773
S1133EE047FB204610BD000008B902487047002077
S1133EF0704700000020074008B945207047FF20A4
S1133F00704700F011BAFFF7B5BD00007FB5044655
S1133F100020ADF8080003900E46A06802AA012113
S1133F20FFF746FEB07BCE25002850D071680822EA
S1133F3004F10C00FFF7D1FF208A217B208260224C
S1133F40E089E0811142608A608217D1607B354943
S1133F5001EB8002966A32005AD0BDF80820032A89
S1133F6056DA00EB40004018105C012850D101AB38
S1133F7003AA04F10C012046B04726E00190D8B111
S1133F80207B000618D401980830552805D3A06872
S1133F9000220021FFF777FF7FBD6069082204F14A
S1133FA00C01FFF79AFF6069019B00F10802306879
S1133FB00021FFF7F8FE7FBD266A300028D0636A2F
S1133FC001AA03A904F10C00B047054620E0BDF89E
S1133FD00800042805D16188A068C9B2FFF7E0FD94
S1133FE07FBD207B00061CD4F07BD0B9608AC0B1B1
S1133FF0206A48B1B06808300190636A6069256A34
S113400001AA03A9A8470546B06810F1010F08D01A
S113401001A8009003AB04F10C02E9B2204600F0C1
S113402029F87FBD3802FF1F30B5044683B0A0686D
S11340300D46FFF749FF00208DF802008DF80000BF
S113404001224020019000A900208DF80100286879
S1134050FFF759FE01208DF802000122286800A90B
S1134060FFF751FEE269A06918B1A369002100209D
S1134070984737BD38B50446CE291546184606D1AB
S1134080A068BDE8384001220021FFF7FCBE049976
S1134090EA880B689A4238BF0A6002680B68A06815
S11340A00021FFF7A4FE2878000608D5A06801B017
S11340B0BDE83040002200231146FFF774BE31BD35
S11340C070B5154604461E460A78FF201F231A427F
S11340D009D1A06822460621FFF76AFD217801F084
S11340E00301218013E002F01F03012B03D10021FF
S11340F0218001210CE002F01F02022A09D18888E4
S113410040F01001A0682246C9B2FFF751FD022118
S113411031602C60C0B270BD70B5044682B000201E
S11341201860CE250A7848781F231A42C0F340004D
S113413012D1897811F0030138D0012936D1002831
S113414014BF11261226A369002518002ED0626A16
S113415000213046984729E002F01F02022A02BFDC
S11341608A7803231A4221D189888DF800109DF89A
S113417000209DF8001001F00F01D20920B1A068C1
S1134180FFF781FE132608E09DF8000014260F2394
S1134190184203D1A068FFF75CFE0546A369180026
S11341A004D0626A00A9304698470025E8B276BD7B
S11341B038B50446002018600D46A0680422012189
S11341C0FFF70BFD68886080002032BD0121196073
S11341D0303010600020704738B5002204461A6061
S11341E04888ADF8000000B90122A0680121FFF75A
S11341F0F4FC0546BDF80000A369208618000BD026
S1134200E26900A901209847BDF8000020B1E269E5
S1134210A369002103209847E8B232BD38B50446AB
S1134220012018601546A06A4368180001D1CA200D
S113423032BD8988E06A2246C9B298472C6032BDF3
S113424038B5044600200D461860287800F00300B5
S1134250012801D0042032BDA06A8368180001D16E
S1134260CA2032BD6A88A988E06AD2B2C9B2984726
S1134270A369180003D0E269A91C02209847002012
S113428032BD38B50446022018601546A06822469F
S11342900521FFF78DFC2C60C0B232BD30B5846AB5
S11342A083B02468250001D1CA203EBD4D88019306
S11342B00092EAB28B88C06A290AA0473EBD10B5B5
S11342C0044610460A4601462046FDF791F9204669
S11342D010BD000038B500244FF0FF310F4A00280C
S11342E003BF136843F0004313600C46A4B90C4D9C
S11342F000232B6078B9106840F000401060102152
S11343000848037001700020FFF7F6FD0122042124
S1134310FFF7F9FD00E00C46204632BD0070044072
S113432000D0004008210740F8B504460D46164663
S11343300020FFF7E1FD0D4F844204BF3D607E6025
S1134340002000F015F8844208BFBD60012000F091
S11343500FF8844208BFFD600120F2BD03480168E4
S11343600A001CBF40680847704700008C06FF1F06
S1134370042804D2034951F820001030704700206B
S113438070470000C400FF1F70B50D0082B00446E2
S1134390164601D1002076BD00AA00F071F830B9AC
S11343A0009B9B685B68324629462046984776BD49
S11343B070B50D0082B00446164601D1002076BDCA
S11343C000F07FF800B14CE000F047F868B9009BBA
S11343D09B689B6832462946204698474E490028E8
S11343E006BF009A926800220A6076BD38B504467A
S11343F00D4600AA00F044F8A0B90098806840690E
S113440008B9662032BD2946204600F05AF810B19A
S113441042F2D87032BD009A926852692946204609
S1134420904732BD002DFCD1002032BD70B50D0087
S113443082B00446164601D1002076BD00F041F852
S113444000B10EE000F009F830B9009B9B68DB680E
S1134450324629462046984776BD00AA294620467A
S11344600EE042F2D87076BD10B52B4C21680020C6
S113447029B109690A0002D088470021216010BDD2
S113448070B5264C6468002918BF002A42F2D8731C
S113449014D000E00C348CB12568002D04BF66688C
S11344A0002E01D1A6684EB1A84224BF656885429A
S11344B0F0D30818401E854228BF00231460184614
S11344C070BD30B5154A92681269536BA3B10918CF
S11344D0491E002302EBC304603465682468002C81
S11344E008BF002D05D0854228BFA14201D3012079
S11344F030BD5B1C022BEDDB002030BD10B507483E
S1134500446804E00068010018BF80470C34A068C8
S11345100028F7D110BD0000A004FF1F0000FF1FFA
S113452010B596488068006900F1700430224AF2A0
S1134530C0312046FDF72CF820689149884204D008
S1134540FF2230212046FDF799FFFCF7B5FC00203F
S113455010BD38B5894DA86804694B20E07004F19A
S113456010020120A0700421052060700120207039
S11345705020E0710120A0710220607100202071A0
S11345805420E0720120A072002060722072012089
S1134590206360634EF6FF70A06300F05EF804F1E0
S11345A01402012100F059F804F11802002100F06E
S11345B054F804F11C02022100F04FF804F1200227
S11345C0032100F04AF804F14C02052100F045F8FB
S11345D004F15002062100F040F804F154020721CE
S11345E000F03BF8A069674A404252424FF0FF3165
S11345F00240891A644A61661040206600216348BB
S1134600A0666348E0666869E16007E094F880307A
S1134610134202D0E3681A43E260491C182202FBE9
S113462001021268002AF1D15A480168A164416864
S1134630616481682164C068E063686850F80C1F95
S1134640616241680068081A401CA0622046FCF7B9
S1134650B7F80120A065002032BD05F12000FDF768
S11346602BBF0000F8B51446444A4B4F916804260A
S1134670401E096917281D464ED8DFE800F00C12C9
S11346801416181A20224D24282F261C1E323540B9
S1134690434547494D4B05B12E6004B121600020CC
S11346A0F2BD0C31F7E71031F5E71431F3E71831B7
S11346B0F1E72031EFE72431EDE72831EBE738313A
S11346C0E9E72C31E7E73031E5E73431E3E7D06956
S11346D041694969884738603946DCE7102660310A
S11346E0D9E72E480068F6E700A902F12000FDF79B
S11346F0CBFA9DF800000028EDD00120EBE710264E
S11347003C31C8E74C31C6E75031C4E75431C2E705
S11347105831C0E70831BEE742F63C00F2BD174A03
S113472092681369401E072842F63E0220D90938D0
S11347300CD0401E01281BD9801E0DD0401E03281A
S113474016D908380ED0801E12D014E0002918BFE4
S1134750012909D119637047002918BF012903D120
S113476059637047032901D3104670479965704710
S113477042F63D00704742F63C0070470000FF1FC0
S11347806B636667745A0000000000000000FF1F9E
S1134790FF11FF1F548004406805FF1F248004405C
S11347A0012100F01F029140A04A04E0012100F021
S11347B01F0291409E4A400942F820107047002190
S11347C0C1708170017004214170002181724174B3
S11347D07047F8B5974E3360130191FBF3F633013C
S11347E00025B1FBF3F3044693424FF0FF3038BF8A
S11347F0761E00D310D001274B0007EB461CB3FBF9
S1134800FCF39A4234BF9B1AD31A984224BF184629
S11348103D467F1C212FEFDB642192FBF1F101EB7C
S1134820410188425ED28449844F8C420FD084492E
S11348308C4213D083498C4217D083498C421BD0BD
S113484082498C4220D082498C4224D02AE01F2005
S1134850FFF7A6FFF86840F4806013E02120FFF71B
S11348609FFFF86840F400600CE02320FFF798FFF6
S1134870F86840F4805005E02520FFF791FFF868C0
S113488040F40050F8600DE04220FFF789FF3868DB
S113489040F4806005E04420FFF782FF386840F46C
S11348A000603860E07800F0F300E070310A002026
S11348B0A07001F01F01207800F0E0000843207090
S11348C06670A07A00F0E0002843A072C0206074F3
S11348D0E07840F02000E070E07840F00C00E070F8
S11348E00020F2BD0120F2BD02791206FCD5C1718F
S11348F0704758480178890600D50AE07047564841
S113490001788A0701D5C0787047890600D500E090
S11349107047C078474909680847504801788906B4
S113492000D5F6E770474E480178890600D5F0E7D0
S113493070474C480178890600D5EAE770474A4831
S11349400178890600D5E4E7704758B53A493B4EEB
S1134950884204460FD03A49884213D039498842E4
S113496017D0394988421BD03849884220D0384969
S1134970884224D02AE01F20FFF718FFF06840F493
S1134980806013E02120FFF711FFF06840F400601D
S11349900CE02320FFF70AFFF06840F4805005E0A4
S11349A02520FFF703FFF06840F40050F0600DE0AD
S11349B04220FFF7FBFE306840F4806005E04420AD
S11349C0FFF7F4FE306840F4006030602046FFF7E3
S11349D0F6FE194884420FD01948844210D0194871
S11349E0844211D01848844212D01848844214D00A
S11349F01748844215D051BDF06820F480600AE065
S1134A00F06820F4006006E0F06820F4805002E0D2
S1134A10F06820F40050F06051BD306820F48060EC
S1134A2002E0306820F40060306051BD00E100E035
S1134A3080E100E0F005FF1F00A00640288004404C
S1134A4000B0064000C0064000D0064000A00E4062
S1134A5000B00E4004A0064004B0064004C0064066
S1134A6004D0064004A00E4004B00E40012808D033
S1134A7005D3032809D006D305280AD007D3204834
S1134A8070472048704720487047204870472048A6
S1134A9070472048704770B5044682B0606800A92A
S1134AA0FCF72FF8E0B960681B4EFCF77DF905466A
S1134AB06068FFF7DBFF3368009A2946FFF789FE39
S1134AC058B96068A2680221904731685A20884723
S1134AD03168A6208847012076BD6068FBF7F8FF9F
S1134AE0002076BD10B504460B4801606068A268DA
S1134AF0012190476068FBF7EBFF002010BD000028
S1134B0000A0064000B0064000C0064000D00640A9
S1134B1000A00E4000B00E40F405FF1F10B504467F
S1134B206068FFF7A3FFFFF710FF6068FBF7E7FF7C
S1134B306068A268BDE810400021104770B50446C3
S1134B400D46164606E06068FFF790FF15F8011B56
S1134B50FFF7CAFE3046461E0028F4D170BD00009F
S1134B60A649D1F88820531C5218C1F8883082F81D
S1134B702000D1F8880000F03F00C1F88800704799
S1134B8000207047B8E02DE9FC410C00154614BF25
S1134B90002D0420984628D0984F002007F1900655
S1134BA02860707000F0A8F818B11EE0A22000F090
S1134BB075F820213846FDF781F84246394600A8A9
S1134BC000F0E7F810B1002129600EE0394600A892
S1134BD000F030F9BDF804108142E7D101203070B3
S1134BE02760BDF8020028600020BDE8F6812DE9A9
S1134BF0F0410C0082B015461E4635D0212D33D22B
S1134C0000F07AF800283FD1DFF8F08198F891009D
S1134C1010B1002088F8910008F160075A2038701C
S1134C20A42078700EB1A52078707D802DB12A461D
S1134C30214608F16600FCF79BFC08F16601384642
S1134C4000F0F8F8B880A91D384600F064F8D8B927
S1134C5000A800F0DDF8B8B99DF80100A12812D031
S1134C60A22806D0A32801D004200DE042F212703D
S1134C700AE07888811D384600F04DF820B99DF887
S1134C800100A228E4D00020BDE8F6815C4801219F
S1134C9081700021017070472020704780B55A212F
S1134CA08DF800108DF801000120544981F891001D
S1134CB0022100A800F02FF802BD10B504465048A8
S1134CC00178427880781140014282B011D10FF20C
S1134CD094100088ADF80000022223695B6800A9E3
S1134CE02046984723690FF280115B68082220460A
S1134CF0984742F2137016BD4148017819B100215A
S1134D000170A12004E0817819B100218170A320F1
S1134D10C4E7002070473B4AD3690A460146184657
S1134D201B695B6818472DE9F14F8B461446FBF766
S1134D306CFF06464FF47A7089466043FBF775FFB3
S1134D400025DFF8B8A00446A8460AF188070EE05B
S1134D507868396888420CD05044009990F8200053
S1134D6068546D1C7868401C00F03F0078605D4515
S1134D700CD0002CECD0FBF748FF801B61EB090141
S1134D80414501D8A042E3D3052000E00020BDE85E
S1134D90F28F70B582B005460C46164600F038F81E
S1134DA058BB6878A62804D11648C069FFF785FF68
S1134DB076BDA42106B1A521884201D0012076BD8B
S1134DC000F022F8BDF800106980B0B90846212827
S1134DD0A8BF2020688000F017F8BDF80010A98053
S1134DE058B9698849B12046FCF7FEFB69880A2056
S1134DF000FB01F22046FFF796FF76BDF805FF1F82
S1134E008806FF1F0000FF1F1422022100A88AE762
S1134E1010B50446002201212046FFF784FF40B963
S1134E2020785A28F6D1601CBDE810400A220121DE
S1134E3079E710BD30B583B004460D4600A800F0F4
S1134E4017F80422214600A800F015F862882946C4
S1134E5000A800F010F801A900A800F02FF8BDF890
S1134E6004003EBD5AA70000000201500000AAEA57
S1134E700021018070477FB5044600208DF80000B2
S1134E800D4620880190164641F221000290002030
S1134E90ADF80C008DF80E006EB1FBF74DFD00A9C6
S1134EA00020FBF769FD324629460020FBF77DFD13
S1134EB00190FBF747FD019820807FBD00880880A2
S1134EC00020FBF763BD00000748016841F470014E
S1134ED001604CF220510548C1814DF62811C18171
S1134EE04FF4E9710180704788ED00E0002005402F
S1134EF0F8B5044615461E460020174A02EB001773
S1134F007A6822B1401C0228F7DBC120F2BDF960A7
S1134F107C60BE6032462046FEF7C1FF3246294619
S1134F202046FEF7C3FF069932462046FEF7C5FF2A
S1134F303846F2BD0020084A02EB00128A4204D02F
S1134F40401C0228F7DB9E20704700205060106050
S1134F509060D060704700009C06FF1F00281CBFB3
S1134F604068FEF744BFFF20704770477CB50E468B
S1134F7014461D4600F0AFF8069A0799364B032EE7
S1134F8011D0212E09D0222E2AD120B903F13000CC
S1134F9010604C200860002076BD10B903F11600A3
S1134FA010600920F6E725B903F17C0010600420A5
S1134FB0F0E70020012340F20946B54203D1032C57
S1134FC002DA234600E001200FF2E4040C2515FB6D
S1134FD00040C46854F8234014600069185CD9E7A1
S1134FE0082E18DA20B90FF2A40454F826401460ED
S1134FF0012E02D11C68641C1C601C68022CA4BF16
S113500000241C60126832B10028C4D10FF2580089
S113501050F82600BEE7CE2076BD21B90F480078AF
S1135020107000207047CE20704719B90B480270E9
S113503000207047CE2070470020704730B549B932
S11350400848012101700649D1E90045C0E901453C
S11350500C301060002030BD1C01FF1F2008FF1F12
S1135060E800FF1FF000FF1F000000001200000016
S11350702900000000000000000000000000000003
S113508000000000000000004C00000000000000D0
S11350900801FF1F2001FF1F0000000000000000A6
S11350A00000000000000000000000004C01FF1F91
S11350B09801FF1F040000000904000070070000AD
S11350C06C070000012100F01F029140C84A40090A
S11350D042F82010704700207047406840083C2187
S11350E04843C449425C12B14018407870470020DC
S11350F0704710B5002818BF0128BE4C02D100200B
S1135100208010BD0328FCD10120207004F114027A
S1135110A06BBDE810402423022100F0DABAF8B5F0
S113512015461E68B34C042800F001020BD1A86890
S113513010F1010F18BF002849D0E068012846DBB0
S113514004F10C0039E0052807D1A86810F1010F1B
S113515018BF00283BD020612BE01219002701283A
S11351601F600BD0022818BF03282CD009280ED0AA
S11351700A2825D00B2808BF117128E0242104F146
S11351801400FCF79BFD04F1140028601FE029685B
S11351908A78002A04BFCA78002A04D10878012832
S11351A008BFA07013D0324604F11400FCF7E0F9F4
S11351B026610120607004F10800FBF7B1FB06E0F2
S11351C0080A107103E0101D2860012018600020F7
S11351D0F2BD70B504468749606840083C2202FB72
S11351E0001588B03C212846FCF7FEF9FBF7C2FD08
S11351F0814E78B9B068006990F8801001F0EF0131
S113520080F88010B0680069C16821F01001C160A5
S1135210012038E0606830B93520FFF753FF774943
S11352204FF4001008604FF6FF72B068006930F860
S1135230841F4388934208BF914209D0704A117277
S11352400188090A5172418891724188090AD17210
S113525005F1380240686B4910F1010F08BF6A4834
S1135260086000A96948009005F138000190684879
S1135270049005F138000590664806906068C0B255
S113528000F0B5F9002008B070BD38B54068440896
S1135290A8B9614D2868400311D560494FF4001046
S11352A008603520FFF70EFF52483C2101FB040043
S11352B0806B00F0DDF9286820F48020286031BD7F
S11352C010B540684B4940083C2202FB0014002101
S11352D004F10800FBF718FB002104F10C00FBF7B4
S11352E013FB04F10800FBF71BFB002010BDF8B50D
S11352F040680C4640081546002C18BF002D01D10B
S11353000420F2BD0021296013B1012B1ED027E037
S1135310012638493C2202FB0017F87830B1B86BFB
S1135320242307F11402022100F0D3F90120F870BC
S11353304FF0FF3107F10800FBF7E8FA387DB0427F
S113534006D0012E08BF02280AD169E00226E0E750
S1135350B87DF97D40EA01203969091F814201D2F3
S11353600120F2BD07F11801216028600020F2BD80
S1135370F8B5406815464608212D0C4601D3042093
S1135380F2BD13B1012B0ED00FE00327FBF7D4FAC3
S113539018483C2101FB0606B07840B10020B070EB
S11353A0FBF7D0FA3CE00427F0E70120F2BDFBF75D
S11353B0C9FA002070753775280A002C18BF002D13
S11353C0B575F07505D02A46214606F11800FCF79C
S11353D0CFF8B06B242306F11402012100F072F916
S11353E04FF0FF3106F10C00FBF790FA0020F2BDFC
S11353F080E200E0E407FF1F0000FF1F04E100E07B
S11354000801FF1FBC06FF1FB0500000F35000004E
S11354101F5100002402FF1F3480044084E100E097
S113542042F21270F2BD10B54469A4680022002350
S11354301146A04710BD0020704720207047FFF799
S113544094BD000010B50C6A220082B009D08268B5
S113545012F1010F0CBF0021496A00F013F8042077
S1135460A04713BD10B50C6A220082B009D082682F
S113547012F1010F0CBF0021496A00F003F8052066
S1135480A04713BD0091024600234FF6FF717047F9
S11354902DE9F84F012880468B46164646D13068E0
S11354A0B36B00AA0021984700988068011DF16041
S11354B000270079032866DA00240FE0896811F8D0
S11354C0341006EB440000F83C1F00998968896891
S11354D001EBC401641C49784170E4B2009881680E
S11354E008798442EADBF468DFF8C491DFF8C4A1E8
S11354F007E028B9297833464A463068FEF722FC8B
S11355007F1C2078FFB2874236D2606800EBC70563
S1135510306801222946FEF7F6FBA8780128E8D175
S113552029783346524641EAC011E6E7032818BFFA
S1135530B8F1000F20D009280ED19BF8007016F1A5
S11355403C0019D0002400F020F801D100F025F827
S1135550641C022CF7DB0FE014280DD19BF80070BB
S113556016F13C0008D0002400F00FF801D100F03F
S113557014F8641C022CF7DB3369180003D0726939
S1135580594640469847BDE8F18F06EB440107F0C1
S11355900F0091F83C1088427047F80900F00102AE
S11355A0306807F00F01FEF754BC70B582B01D4699
S11355B00446CE20237803F06006202E0CD12B6AFB
S11355C0A3B1E08810601346686A00900A466188B7
S11355D060782C6AA04776BD03F06003402B05D1A8
S11355E0AE69330002D0EB692046B04776BDF8B50A
S11355F00D000446164601D1FF20F2BD00202E49BD
S113560001EB8017396821B1401C0228F7D3C1206F
S1135610F2BD39462046FEF7F9FA40BBA869274A8D
S1135620274900903B463868FFF762FCB8600822BF
S1135630294607F11000FEF750FC082205F1080185
S113564007F11800FEF749FC082205F1100107F1E3
S11356502000FEF742FCA969142207F12800FEF796
S11356603CFC376020463968FEF72EFB0020F2BD73
S113567038B5040001D1FF2032BDA1682068FFF7CE
S113568059FC050003D12068FEF72AFB05460020DB
S1135690094901EB8012A24203D0401C0228F8DB26
S11356A004E0402200212046FEF709FE284632BDD0
S11356B065540000455400006407FF1FAB5500000B
S11356C09154000000281CBF8068FFF747BCFF20EE
S11356D0704700281CBF0068FEF765BBFF207047B9
S11356E04EF68851CEF20001086840F4700008605C
S11356F0BFF34F8FBFF36F8F4FF00070E1EE100ACE
S11357007047000000F00BF8002801D000F00AF800
S11357100020C046C046FBF7DCFCFBF71BFD012064
S11357207047000010B5074979441831064C7C4491
S1135730163404E00A68081D511888470146A1423E
S1135740F8D110BD200300002C0300007C060000EB
S11357507C00FF1F240700004800FF1F000000001A
S1135760AC06000000000000000000000000000083
S11357700000000000000000000000000000000025
S11357800000000000000000000000000100000014
S113579000000000811600008F1600001C050000A8
S11357A0C402FF1F000000004803FF1F6803FF1F1F
S11357B0B72E0000DB2E0000FF2E000010000000BA
S11357C0000000000000000000000000FFFF0F00C8
S11357D0F80500000000FF1FFFFF022094060000F0
S11357E000000040FFFF0740A405000000F00F4048
S11357F0FFFF0F40A4050000000000E0FFFF0FE0E2
S1135800A4050000000000000000000000000000EB
S113581030000000310000003200000033000000BE
S113582000004001010301004000000002030000E9
S11358304000000002000000D800FF1F000000002C
S11358400000000000000000000000000100000053
S1135850F000FF1F1201000200000040A2157300B7
S113586002000102000100000000000009022900FA
S1135870010100C0320904000002030000000921F4
S113588000010001224C000705810340000A0705BE
S1135890020340000A0000000600FF0901A101857F
S11358A00119012901150026FF00750895239102AD
S11358B0850219012901150026FF00750895239119
S11358C002850319012901150026FF007508952397
S11358D08102850419012901150026FF0075089528
S11358E0238102C0040309043A03460072006500E0
S11358F065007300630061006C00650020005300C4
S113590065006D00690063006F006E00640075003F
S1135910630074006F007200200049006E00630091
S11359202E00000026034B0069006E006500740021
S113593069007300200042006F006F0074006C0067
S11359406F006100640065007200000022034200E1
S113595041004400200053005400520049004E000E
S11359604700200049004E00440045005800000054
S11359706D4F00001B5000002B50000039500000F8
S11359803D50000001010001010000000001010080
S113599000000000010101010100000001010001FB
S11359A0010001000001000001000000C1400000EE
S11359B0194100000000000019410000000000002F
S11359C0B14100009D42000000000000CD410000F4
S11359D0D94100001D420000414200008342000002
S11359E0FAF716BD30B504E012F8014B00F8014B8C
S11359F0491ED1B1C507F7D40129F5D0850701D4D3
S1135A00042904D232F8024B20F8024B891E8B0879
S1135A10EFD000EB830403E052F8045B40F8045B2E
S1135A20A042F9D3A1EB8301E3E730BD80B513466F
S1135A300246184600E080B5FFF7D4FF002002BDFF
S1135A4010B514460A462146BDE810400123FCF770
S1135A50CDBEFFF7FEBFC046C046FFF741FEFFF7CD
S1135A6051FE000057B4FFFF8C0500009802FF1F91
S1075A70000000002E
S9030411E7
