<?xml version="1.0" encoding="UTF-8" standalone="no"?>
<!DOCTYPE svg PUBLIC "-//W3C//DTD SVG 1.1//EN"
 "http://www.w3.org/Graphics/SVG/1.1/DTD/svg11.dtd">
<!-- Generated by graphviz version 2.38.0 (20140413.2041)
 -->
<!-- Title: blfwk::CommandPacket Pages: 1 -->
<svg width="127pt" height="173pt"
 viewBox="0.00 0.00 127.00 173.00" xmlns="http://www.w3.org/2000/svg" xmlns:xlink="http://www.w3.org/1999/xlink">
<g id="graph0" class="graph" transform="scale(1 1) rotate(0) translate(4 169)">
<title>blfwk::CommandPacket</title>
<polygon fill="white" stroke="none" points="-4,4 -4,-169 123,-169 123,4 -4,4"/>
<!-- Node1 -->
<g id="node1" class="node"><title>Node1</title>
<polygon fill="#bfbfbf" stroke="black" points="0,-0.5 0,-19.5 119,-19.5 119,-0.5 0,-0.5"/>
<text text-anchor="middle" x="59.5" y="-7.5" font-family="Helvetica,sans-Serif" font-size="10.00">blfwk::CommandPacket</text>
</g>
<!-- Node2 -->
<g id="node2" class="node"><title>Node2</title>
<g id="a_node2"><a xlink:href="group__host__commands.html#structblfwk_1_1_command_packet_1_1_packet_with_args" target="_top" xlink:title="Format of command packet. ">
<polygon fill="white" stroke="black" points="0,-67.5 0,-97.5 119,-97.5 119,-67.5 0,-67.5"/>
<text text-anchor="start" x="8" y="-85.5" font-family="Helvetica,sans-Serif" font-size="10.00">blfwk::CommandPacket</text>
<text text-anchor="middle" x="59.5" y="-74.5" font-family="Helvetica,sans-Serif" font-size="10.00">::PacketWithArgs</text>
</a>
</g>
</g>
<!-- Node2&#45;&gt;Node1 -->
<g id="edge1" class="edge"><title>Node2&#45;&gt;Node1</title>
<path fill="none" stroke="#9a32cd" stroke-dasharray="5,2" d="M59.5,-57.0913C59.5,-44.2136 59.5,-29.1974 59.5,-19.8932"/>
<polygon fill="#9a32cd" stroke="#9a32cd" points="56.0001,-57.2332 59.5,-67.2333 63.0001,-57.2333 56.0001,-57.2332"/>
<text text-anchor="middle" x="82.5" y="-41" font-family="Helvetica,sans-Serif" font-size="10.00"> m_packet</text>
</g>
<!-- Node3 -->
<g id="node3" class="node"><title>Node3</title>
<g id="a_node3"><a xlink:href="group__packet.html#structcommand__packet__t" target="_top" xlink:title="Command packet format. ">
<polygon fill="white" stroke="black" points="8.5,-145.5 8.5,-164.5 110.5,-164.5 110.5,-145.5 8.5,-145.5"/>
<text text-anchor="middle" x="59.5" y="-152.5" font-family="Helvetica,sans-Serif" font-size="10.00">command_packet_t</text>
</a>
</g>
</g>
<!-- Node3&#45;&gt;Node2 -->
<g id="edge2" class="edge"><title>Node3&#45;&gt;Node2</title>
<path fill="none" stroke="#9a32cd" stroke-dasharray="5,2" d="M59.5,-135.236C59.5,-123.408 59.5,-108.383 59.5,-97.5762"/>
<polygon fill="#9a32cd" stroke="#9a32cd" points="56.0001,-135.355 59.5,-145.355 63.0001,-135.355 56.0001,-135.355"/>
<text text-anchor="middle" x="82.5" y="-119" font-family="Helvetica,sans-Serif" font-size="10.00"> m_header</text>
</g>
</g>
</svg>
