<?xml version="1.0" encoding="UTF-8" standalone="no"?>
<!DOCTYPE svg PUBLIC "-//W3C//DTD SVG 1.1//EN"
 "http://www.w3.org/Graphics/SVG/1.1/DTD/svg11.dtd">
<!-- Generated by graphviz version 2.38.0 (20140413.2041)
 -->
<!-- Title: apps Pages: 1 -->
<svg width="196pt" height="76pt"
 viewBox="0.00 0.00 196.00 76.00" xmlns="http://www.w3.org/2000/svg" xmlns:xlink="http://www.w3.org/1999/xlink">
<g id="graph0" class="graph" transform="scale(1 1) rotate(0) translate(4 72)">
<title>apps</title>
<polygon fill="white" stroke="none" points="-4,4 -4,-72 192,-72 192,4 -4,4"/>
<g id="clust1" class="cluster"><title>clusterdir_916438c29c6e23d7352ccc50acb19127</title>
<g id="a_clust1"><a xlink:href="dir_916438c29c6e23d7352ccc50acb19127.html" target="_top">
<polygon fill="#eeeeff" stroke="black" points="8,-8 8,-60 180,-60 180,-8 8,-8"/>
</a>
</g>
</g>
<!-- dir_916438c29c6e23d7352ccc50acb19127 -->
<g id="node1" class="node"><title>dir_916438c29c6e23d7352ccc50acb19127</title>
<text text-anchor="middle" x="145" y="-31.5" font-family="Helvetica,sans-Serif" font-size="10.00">apps</text>
</g>
<!-- dir_1171d9c8400a33c22b807cbc4436b75a -->
<g id="node2" class="node"><title>dir_1171d9c8400a33c22b807cbc4436b75a</title>
<g id="a_node2"><a xlink:href="dir_1171d9c8400a33c22b807cbc4436b75a.html" target="_top" xlink:title="flash_driver_api">
<polygon fill="white" stroke="red" points="99.5,-52 16.5,-52 16.5,-16 99.5,-16 99.5,-52"/>
<text text-anchor="middle" x="58" y="-31.5" font-family="Helvetica,sans-Serif" font-size="10.00">flash_driver_api</text>
</a>
</g>
</g>
</g>
</svg>
