<?xml version="1.0" encoding="UTF-8" standalone="no"?>
<!DOCTYPE svg PUBLIC "-//W3C//DTD SVG 1.1//EN"
 "http://www.w3.org/Graphics/SVG/1.1/DTD/svg11.dtd">
<!-- Generated by graphviz version 2.38.0 (20140413.2041)
 -->
<!-- Title: arch Pages: 1 -->
<svg width="186pt" height="111pt"
 viewBox="0.00 0.00 186.00 111.00" xmlns="http://www.w3.org/2000/svg" xmlns:xlink="http://www.w3.org/1999/xlink">
<g id="graph0" class="graph" transform="scale(1 1) rotate(0) translate(4 107)">
<title>arch</title>
<polygon fill="white" stroke="none" points="-4,4 -4,-107 182,-107 182,4 -4,4"/>
<g id="clust1" class="cluster"><title>clusterdir_70d3b41cbdbe6a3c0219091a1843aba1</title>
<g id="a_clust1"><a xlink:href="dir_70d3b41cbdbe6a3c0219091a1843aba1.html" target="_top" xlink:title="platform">
<polygon fill="#ddddee" stroke="black" points="8,-8 8,-95 170,-95 170,-8 8,-8"/>
<text text-anchor="middle" x="89" y="-83" font-family="Helvetica,sans-Serif" font-size="10.00">platform</text>
</a>
</g>
</g>
<g id="clust2" class="cluster"><title>clusterdir_16d8150ae67aa7e2bc951735cc9fc5fa</title>
<g id="a_clust2"><a xlink:href="dir_16d8150ae67aa7e2bc951735cc9fc5fa.html" target="_top">
<polygon fill="#eeeeff" stroke="black" points="16,-16 16,-68 162,-68 162,-16 16,-16"/>
</a>
</g>
</g>
<!-- dir_16d8150ae67aa7e2bc951735cc9fc5fa -->
<g id="node1" class="node"><title>dir_16d8150ae67aa7e2bc951735cc9fc5fa</title>
<text text-anchor="middle" x="127" y="-39.5" font-family="Helvetica,sans-Serif" font-size="10.00">arch</text>
</g>
<!-- dir_2bdd073a48752c2633722323c4d0f943 -->
<g id="node2" class="node"><title>dir_2bdd073a48752c2633722323c4d0f943</title>
<g id="a_node2"><a xlink:href="dir_2bdd073a48752c2633722323c4d0f943.html" target="_top" xlink:title="cortex_m">
<polygon fill="white" stroke="black" points="81.5,-60 24.5,-60 24.5,-24 81.5,-24 81.5,-60"/>
<text text-anchor="middle" x="53" y="-39.5" font-family="Helvetica,sans-Serif" font-size="10.00">cortex_m</text>
</a>
</g>
</g>
</g>
</svg>
