<?xml version="1.0" encoding="UTF-8" standalone="no"?>
<!DOCTYPE svg PUBLIC "-//W3C//DTD SVG 1.1//EN"
 "http://www.w3.org/Graphics/SVG/1.1/DTD/svg11.dtd">
<!-- Generated by graphviz version 2.38.0 (20140413.2041)
 -->
<!-- Title: hid_device Pages: 1 -->
<svg width="102pt" height="95pt"
 viewBox="0.00 0.00 102.00 95.00" xmlns="http://www.w3.org/2000/svg" xmlns:xlink="http://www.w3.org/1999/xlink">
<g id="graph0" class="graph" transform="scale(1 1) rotate(0) translate(4 91)">
<title>hid_device</title>
<polygon fill="white" stroke="none" points="-4,4 -4,-91 98,-91 98,4 -4,4"/>
<g id="clust1" class="cluster"><title>clusterdir_981f8fd0449d984842bfc1fd3b3eaaca</title>
<g id="a_clust1"><a xlink:href="dir_981f8fd0449d984842bfc1fd3b3eaaca.html" target="_top" xlink:title="usb_stack">
<polygon fill="#ddddee" stroke="black" points="8,-8 8,-79 86,-79 86,-8 8,-8"/>
<text text-anchor="middle" x="47" y="-67" font-family="Helvetica,sans-Serif" font-size="10.00">usb_stack</text>
</a>
</g>
</g>
<!-- dir_7ddbb4720326cac08fe50b41de3cfee5 -->
<g id="node1" class="node"><title>dir_7ddbb4720326cac08fe50b41de3cfee5</title>
<g id="a_node1"><a xlink:href="dir_7ddbb4720326cac08fe50b41de3cfee5.html" target="_top" xlink:title="hid_device">
<polygon fill="#eeeeff" stroke="black" points="78,-52 16,-52 16,-16 78,-16 78,-52"/>
<text text-anchor="middle" x="47" y="-31.5" font-family="Helvetica,sans-Serif" font-size="10.00">hid_device</text>
</a>
</g>
</g>
</g>
</svg>
