<?xml version="1.0" encoding="UTF-8" standalone="no"?>
<!DOCTYPE svg PUBLIC "-//W3C//DTD SVG 1.1//EN"
 "http://www.w3.org/Graphics/SVG/1.1/DTD/svg11.dtd">
<!-- Generated by graphviz version 2.38.0 (20140413.2041)
 -->
<!-- Title: src Pages: 1 -->
<svg width="107pt" height="95pt"
 viewBox="0.00 0.00 107.00 95.00" xmlns="http://www.w3.org/2000/svg" xmlns:xlink="http://www.w3.org/1999/xlink">
<g id="graph0" class="graph" transform="scale(1 1) rotate(0) translate(4 91)">
<title>src</title>
<polygon fill="white" stroke="none" points="-4,4 -4,-91 103,-91 103,4 -4,4"/>
<g id="clust1" class="cluster"><title>clusterdir_1171d9c8400a33c22b807cbc4436b75a</title>
<g id="a_clust1"><a xlink:href="dir_1171d9c8400a33c22b807cbc4436b75a.html" target="_top" xlink:title="flash_driver_api">
<polygon fill="#ddddee" stroke="black" points="8,-8 8,-79 91,-79 91,-8 8,-8"/>
<text text-anchor="middle" x="49.5" y="-67" font-family="Helvetica,sans-Serif" font-size="10.00">flash_driver_api</text>
</a>
</g>
</g>
<!-- dir_81339ab14850b612c9bd959c3a23cf34 -->
<g id="node1" class="node"><title>dir_81339ab14850b612c9bd959c3a23cf34</title>
<g id="a_node1"><a xlink:href="dir_81339ab14850b612c9bd959c3a23cf34.html" target="_top" xlink:title="src">
<polygon fill="#eeeeff" stroke="black" points="76,-52 22,-52 22,-16 76,-16 76,-52"/>
<text text-anchor="middle" x="49" y="-31.5" font-family="Helvetica,sans-Serif" font-size="10.00">src</text>
</a>
</g>
</g>
</g>
</svg>
