<?xml version="1.0" encoding="UTF-8" standalone="no"?>
<!DOCTYPE svg PUBLIC "-//W3C//DTD SVG 1.1//EN"
 "http://www.w3.org/Graphics/SVG/1.1/DTD/svg11.dtd">
<!-- Generated by graphviz version 2.38.0 (20140413.2041)
 -->
<!-- Title: property Pages: 1 -->
<svg width="166pt" height="76pt"
 viewBox="0.00 0.00 166.00 76.00" xmlns="http://www.w3.org/2000/svg" xmlns:xlink="http://www.w3.org/1999/xlink">
<g id="graph0" class="graph" transform="scale(1 1) rotate(0) translate(4 72)">
<title>property</title>
<polygon fill="white" stroke="none" points="-4,4 -4,-72 162,-72 162,4 -4,4"/>
<g id="clust1" class="cluster"><title>clusterdir_5ad771437973f7e3f3f69d50ccc37b88</title>
<g id="a_clust1"><a xlink:href="dir_5ad771437973f7e3f3f69d50ccc37b88.html" target="_top">
<polygon fill="#eeeeff" stroke="black" points="8,-8 8,-60 150,-60 150,-8 8,-8"/>
</a>
</g>
</g>
<!-- dir_5ad771437973f7e3f3f69d50ccc37b88 -->
<g id="node1" class="node"><title>dir_5ad771437973f7e3f3f69d50ccc37b88</title>
<text text-anchor="middle" x="115" y="-31.5" font-family="Helvetica,sans-Serif" font-size="10.00">property</text>
</g>
<!-- dir_6619047cc40280c6c722bca85962dcfe -->
<g id="node2" class="node"><title>dir_6619047cc40280c6c722bca85962dcfe</title>
<g id="a_node2"><a xlink:href="dir_6619047cc40280c6c722bca85962dcfe.html" target="_top" xlink:title="src">
<polygon fill="white" stroke="black" points="70,-52 16,-52 16,-16 70,-16 70,-52"/>
<text text-anchor="middle" x="43" y="-31.5" font-family="Helvetica,sans-Serif" font-size="10.00">src</text>
</a>
</g>
</g>
</g>
</svg>
