<?xml version="1.0" encoding="UTF-8" standalone="no"?>
<!DOCTYPE svg PUBLIC "-//W3C//DTD SVG 1.1//EN"
 "http://www.w3.org/Graphics/SVG/1.1/DTD/svg11.dtd">
<!-- Generated by graphviz version 2.38.0 (20140413.2041)
 -->
<!-- Title: systick Pages: 1 -->
<svg width="182pt" height="111pt"
 viewBox="0.00 0.00 182.00 111.00" xmlns="http://www.w3.org/2000/svg" xmlns:xlink="http://www.w3.org/1999/xlink">
<g id="graph0" class="graph" transform="scale(1 1) rotate(0) translate(4 107)">
<title>systick</title>
<polygon fill="white" stroke="none" points="-4,4 -4,-107 178,-107 178,4 -4,4"/>
<g id="clust1" class="cluster"><title>clusterdir_27a2dc3b98b533564dd071c2586f4e5f</title>
<g id="a_clust1"><a xlink:href="dir_27a2dc3b98b533564dd071c2586f4e5f.html" target="_top" xlink:title="drivers">
<polygon fill="#ddddee" stroke="black" points="8,-8 8,-95 166,-95 166,-8 8,-8"/>
<text text-anchor="middle" x="87" y="-83" font-family="Helvetica,sans-Serif" font-size="10.00">drivers</text>
</a>
</g>
</g>
<g id="clust2" class="cluster"><title>clusterdir_0dd567bcb3b3eaf301c877aff6ef288c</title>
<g id="a_clust2"><a xlink:href="dir_0dd567bcb3b3eaf301c877aff6ef288c.html" target="_top">
<polygon fill="#eeeeff" stroke="black" points="16,-16 16,-68 158,-68 158,-16 16,-16"/>
</a>
</g>
</g>
<!-- dir_0dd567bcb3b3eaf301c877aff6ef288c -->
<g id="node1" class="node"><title>dir_0dd567bcb3b3eaf301c877aff6ef288c</title>
<text text-anchor="middle" x="123" y="-39.5" font-family="Helvetica,sans-Serif" font-size="10.00">systick</text>
</g>
<!-- dir_5a1e706c68f26bebe21f45e072d5ad84 -->
<g id="node2" class="node"><title>dir_5a1e706c68f26bebe21f45e072d5ad84</title>
<g id="a_node2"><a xlink:href="dir_5a1e706c68f26bebe21f45e072d5ad84.html" target="_top" xlink:title="src">
<polygon fill="white" stroke="black" points="78,-60 24,-60 24,-24 78,-24 78,-60"/>
<text text-anchor="middle" x="51" y="-39.5" font-family="Helvetica,sans-Serif" font-size="10.00">src</text>
</a>
</g>
</g>
</g>
</svg>
