<?xml version="1.0" encoding="UTF-8" standalone="no"?>
<!DOCTYPE svg PUBLIC "-//W3C//DTD SVG 1.1//EN"
 "http://www.w3.org/Graphics/SVG/1.1/DTD/svg11.dtd">
<!-- Generated by graphviz version 2.38.0 (20140413.2041)
 -->
<!-- Title: mkl80z72m Pages: 1 -->
<svg width="108pt" height="95pt"
 viewBox="0.00 0.00 108.00 95.00" xmlns="http://www.w3.org/2000/svg" xmlns:xlink="http://www.w3.org/1999/xlink">
<g id="graph0" class="graph" transform="scale(1 1) rotate(0) translate(4 91)">
<title>mkl80z72m</title>
<polygon fill="white" stroke="none" points="-4,4 -4,-91 104,-91 104,4 -4,4"/>
<g id="clust1" class="cluster"><title>clusterdir_90d83665dc866d89da569e7f9ef9b57c</title>
<g id="a_clust1"><a xlink:href="dir_90d83665dc866d89da569e7f9ef9b57c.html" target="_top" xlink:title="bsp">
<polygon fill="#ddddee" stroke="black" points="8,-8 8,-79 92,-79 92,-8 8,-8"/>
<text text-anchor="middle" x="50" y="-67" font-family="Helvetica,sans-Serif" font-size="10.00">bsp</text>
</a>
</g>
</g>
<!-- dir_656d95bbf2fbb0de562735e3ccc03ba5 -->
<g id="node1" class="node"><title>dir_656d95bbf2fbb0de562735e3ccc03ba5</title>
<g id="a_node1"><a xlink:href="dir_656d95bbf2fbb0de562735e3ccc03ba5.html" target="_top" xlink:title="mkl80z72m">
<polygon fill="#eeeeff" stroke="black" points="83.5,-52 16.5,-52 16.5,-16 83.5,-16 83.5,-52"/>
<text text-anchor="middle" x="50" y="-31.5" font-family="Helvetica,sans-Serif" font-size="10.00">mkl80z72m</text>
</a>
</g>
</g>
</g>
</svg>
