<?xml version="1.0" encoding="UTF-8" standalone="no"?>
<!DOCTYPE svg PUBLIC "-//W3C//DTD SVG 1.1//EN"
 "http://www.w3.org/Graphics/SVG/1.1/DTD/svg11.dtd">
<!-- Generated by graphviz version 2.38.0 (20140413.2041)
 -->
<!-- Title: mk80f150m Pages: 1 -->
<svg width="108pt" height="95pt"
 viewBox="0.00 0.00 108.00 95.00" xmlns="http://www.w3.org/2000/svg" xmlns:xlink="http://www.w3.org/1999/xlink">
<g id="graph0" class="graph" transform="scale(1 1) rotate(0) translate(4 91)">
<title>mk80f150m</title>
<polygon fill="white" stroke="none" points="-4,4 -4,-91 104,-91 104,4 -4,4"/>
<g id="clust1" class="cluster"><title>clusterdir_f6deee7cf9d2ed43a9490e4f565a362b</title>
<g id="a_clust1"><a xlink:href="dir_f6deee7cf9d2ed43a9490e4f565a362b.html" target="_top" xlink:title="bsp">
<polygon fill="#ddddee" stroke="black" points="8,-8 8,-79 92,-79 92,-8 8,-8"/>
<text text-anchor="middle" x="50" y="-67" font-family="Helvetica,sans-Serif" font-size="10.00">bsp</text>
</a>
</g>
</g>
<!-- dir_76a18242f68dcc1f061dbd0ac54494a0 -->
<g id="node1" class="node"><title>dir_76a18242f68dcc1f061dbd0ac54494a0</title>
<g id="a_node1"><a xlink:href="dir_76a18242f68dcc1f061dbd0ac54494a0.html" target="_top" xlink:title="mk80f150m">
<polygon fill="#eeeeff" stroke="black" points="83.5,-52 16.5,-52 16.5,-16 83.5,-16 83.5,-52"/>
<text text-anchor="middle" x="50" y="-31.5" font-family="Helvetica,sans-Serif" font-size="10.00">mk80f150m</text>
</a>
</g>
</g>
</g>
</svg>
