<?xml version="1.0" encoding="UTF-8" standalone="no"?>
<!DOCTYPE svg PUBLIC "-//W3C//DTD SVG 1.1//EN"
 "http://www.w3.org/Graphics/SVG/1.1/DTD/svg11.dtd">
<!-- Generated by graphviz version 2.38.0 (20140413.2041)
 -->
<!-- Title: cortex_m Pages: 1 -->
<svg width="98pt" height="95pt"
 viewBox="0.00 0.00 98.00 95.00" xmlns="http://www.w3.org/2000/svg" xmlns:xlink="http://www.w3.org/1999/xlink">
<g id="graph0" class="graph" transform="scale(1 1) rotate(0) translate(4 91)">
<title>cortex_m</title>
<polygon fill="white" stroke="none" points="-4,4 -4,-91 94,-91 94,4 -4,4"/>
<g id="clust1" class="cluster"><title>clusterdir_16d8150ae67aa7e2bc951735cc9fc5fa</title>
<g id="a_clust1"><a xlink:href="dir_16d8150ae67aa7e2bc951735cc9fc5fa.html" target="_top" xlink:title="arch">
<polygon fill="#ddddee" stroke="black" points="8,-8 8,-79 82,-79 82,-8 8,-8"/>
<text text-anchor="middle" x="45" y="-67" font-family="Helvetica,sans-Serif" font-size="10.00">arch</text>
</a>
</g>
</g>
<!-- dir_2bdd073a48752c2633722323c4d0f943 -->
<g id="node1" class="node"><title>dir_2bdd073a48752c2633722323c4d0f943</title>
<g id="a_node1"><a xlink:href="dir_2bdd073a48752c2633722323c4d0f943.html" target="_top" xlink:title="cortex_m">
<polygon fill="#eeeeff" stroke="black" points="73.5,-52 16.5,-52 16.5,-16 73.5,-16 73.5,-52"/>
<text text-anchor="middle" x="45" y="-31.5" font-family="Helvetica,sans-Serif" font-size="10.00">cortex_m</text>
</a>
</g>
</g>
</g>
</svg>
