<?xml version="1.0" encoding="UTF-8" standalone="no"?>
<!DOCTYPE svg PUBLIC "-//W3C//DTD SVG 1.1//EN"
 "http://www.w3.org/Graphics/SVG/1.1/DTD/svg11.dtd">
<!-- Generated by graphviz version 2.38.0 (20140413.2041)
 -->
<!-- Title: MK64F120M Pages: 1 -->
<svg width="112pt" height="95pt"
 viewBox="0.00 0.00 112.00 95.00" xmlns="http://www.w3.org/2000/svg" xmlns:xlink="http://www.w3.org/1999/xlink">
<g id="graph0" class="graph" transform="scale(1 1) rotate(0) translate(4 91)">
<title>MK64F120M</title>
<polygon fill="white" stroke="none" points="-4,4 -4,-91 108,-91 108,4 -4,4"/>
<g id="clust1" class="cluster"><title>clusterdir_c1524543f292681de5cedbe609719715</title>
<g id="a_clust1"><a xlink:href="dir_c1524543f292681de5cedbe609719715.html" target="_top" xlink:title="soc">
<polygon fill="#ddddee" stroke="black" points="8,-8 8,-79 96,-79 96,-8 8,-8"/>
<text text-anchor="middle" x="52" y="-67" font-family="Helvetica,sans-Serif" font-size="10.00">soc</text>
</a>
</g>
</g>
<!-- dir_9ad7090b3787477e1645b6d2233aa363 -->
<g id="node1" class="node"><title>dir_9ad7090b3787477e1645b6d2233aa363</title>
<g id="a_node1"><a xlink:href="dir_9ad7090b3787477e1645b6d2233aa363.html" target="_top" xlink:title="MK64F120M">
<polygon fill="#eeeeff" stroke="black" points="88,-52 16,-52 16,-16 88,-16 88,-52"/>
<text text-anchor="middle" x="52" y="-31.5" font-family="Helvetica,sans-Serif" font-size="10.00">MK64F120M</text>
</a>
</g>
</g>
</g>
</svg>
