<?xml version="1.0" encoding="UTF-8" standalone="no"?>
<!DOCTYPE svg PUBLIC "-//W3C//DTD SVG 1.1//EN"
 "http://www.w3.org/Graphics/SVG/1.1/DTD/svg11.dtd">
<!-- Generated by graphviz version 2.38.0 (20140413.2041)
 -->
<!-- Title: frdmkl25z Pages: 1 -->
<svg width="100pt" height="95pt"
 viewBox="0.00 0.00 100.00 95.00" xmlns="http://www.w3.org/2000/svg" xmlns:xlink="http://www.w3.org/1999/xlink">
<g id="graph0" class="graph" transform="scale(1 1) rotate(0) translate(4 91)">
<title>frdmkl25z</title>
<polygon fill="white" stroke="none" points="-4,4 -4,-91 96,-91 96,4 -4,4"/>
<g id="clust1" class="cluster"><title>clusterdir_e9561d3932f7c6f98cdf2f7245b13206</title>
<g id="a_clust1"><a xlink:href="dir_e9561d3932f7c6f98cdf2f7245b13206.html" target="_top" xlink:title="include">
<polygon fill="#ddddee" stroke="black" points="8,-8 8,-79 84,-79 84,-8 8,-8"/>
<text text-anchor="middle" x="46" y="-67" font-family="Helvetica,sans-Serif" font-size="10.00">include</text>
</a>
</g>
</g>
<!-- dir_dcb237f02ac8e5752b235b9fd5bc3bf2 -->
<g id="node1" class="node"><title>dir_dcb237f02ac8e5752b235b9fd5bc3bf2</title>
<g id="a_node1"><a xlink:href="dir_dcb237f02ac8e5752b235b9fd5bc3bf2.html" target="_top" xlink:title="frdmkl25z">
<polygon fill="#eeeeff" stroke="black" points="75.5,-52 16.5,-52 16.5,-16 75.5,-16 75.5,-52"/>
<text text-anchor="middle" x="46" y="-31.5" font-family="Helvetica,sans-Serif" font-size="10.00">frdmkl25z</text>
</a>
</g>
</g>
</g>
</svg>
