<?xml version="1.0" encoding="UTF-8" standalone="no"?>
<!DOCTYPE svg PUBLIC "-//W3C//DTD SVG 1.1//EN"
 "http://www.w3.org/Graphics/SVG/1.1/DTD/svg11.dtd">
<!-- Generated by graphviz version 2.38.0 (20140413.2041)
 -->
<!-- Title: Shared SPI Types Pages: 1 -->
<svg width="171pt" height="28pt"
 viewBox="0.00 0.00 171.00 28.00" xmlns="http://www.w3.org/2000/svg" xmlns:xlink="http://www.w3.org/1999/xlink">
<g id="graph0" class="graph" transform="scale(1 1) rotate(0) translate(4 24)">
<title>Shared SPI Types</title>
<polygon fill="white" stroke="none" points="-4,4 -4,-24 167,-24 167,4 -4,4"/>
<!-- Node1 -->
<g id="node1" class="node"><title>Node1</title>
<g id="a_node1"><a xlink:href="group__spi.html" target="_top" xlink:title="SPI driver. ">
<polygon fill="white" stroke="black" points="0,-0.5 0,-19.5 32,-19.5 32,-0.5 0,-0.5"/>
<text text-anchor="middle" x="16" y="-7.5" font-family="Helvetica,sans-Serif" font-size="10.00">SPI</text>
</a>
</g>
</g>
<!-- Node0 -->
<g id="node2" class="node"><title>Node0</title>
<polygon fill="#bfbfbf" stroke="black" points="68,-0.5 68,-19.5 163,-19.5 163,-0.5 68,-0.5"/>
<text text-anchor="middle" x="115.5" y="-7.5" font-family="Helvetica,sans-Serif" font-size="10.00">Shared SPI Types</text>
</g>
<!-- Node1&#45;&gt;Node0 -->
<g id="edge1" class="edge"><title>Node1&#45;&gt;Node0</title>
<path fill="none" stroke="black" d="M42.424,-10C50.203,-10 59.0188,-10 67.749,-10"/>
<polygon fill="black" stroke="black" points="42.2344,-6.5001 32.2344,-10 42.2343,-13.5001 42.2344,-6.5001"/>
</g>
</g>
</svg>
