<?xml version="1.0" encoding="UTF-8" standalone="no"?>
<!DOCTYPE svg PUBLIC "-//W3C//DTD SVG 1.1//EN"
 "http://www.w3.org/Graphics/SVG/1.1/DTD/svg11.dtd">
<!-- Generated by graphviz version 2.38.0 (20140413.2041)
 -->
<!-- Title: FlexCAN Driver Pages: 1 -->
<svg width="183pt" height="28pt"
 viewBox="0.00 0.00 183.00 28.00" xmlns="http://www.w3.org/2000/svg" xmlns:xlink="http://www.w3.org/1999/xlink">
<g id="graph0" class="graph" transform="scale(1 1) rotate(0) translate(4 24)">
<title>FlexCAN Driver</title>
<polygon fill="white" stroke="none" points="-4,4 -4,-24 179,-24 179,4 -4,4"/>
<!-- Node0 -->
<g id="node1" class="node"><title>Node0</title>
<polygon fill="#bfbfbf" stroke="black" points="92,-0.5 92,-19.5 175,-19.5 175,-0.5 92,-0.5"/>
<text text-anchor="middle" x="133.5" y="-7.5" font-family="Helvetica,sans-Serif" font-size="10.00">FlexCAN Driver</text>
</g>
<!-- Node1 -->
<g id="node2" class="node"><title>Node1</title>
<g id="a_node2"><a xlink:href="group__flexcan.html" target="_top" xlink:title="FlexCAN">
<polygon fill="white" stroke="black" points="0,-0.5 0,-19.5 56,-19.5 56,-0.5 0,-0.5"/>
<text text-anchor="middle" x="28" y="-7.5" font-family="Helvetica,sans-Serif" font-size="10.00">FlexCAN</text>
</a>
</g>
</g>
<!-- Node1&#45;&gt;Node0 -->
<g id="edge1" class="edge"><title>Node1&#45;&gt;Node0</title>
<path fill="none" stroke="black" d="M66.3308,-10C74.6165,-10 83.4382,-10 91.8494,-10"/>
<polygon fill="black" stroke="black" points="66.1934,-6.5001 56.1934,-10 66.1934,-13.5001 66.1934,-6.5001"/>
</g>
</g>
</svg>
