<?xml version="1.0" encoding="UTF-8" standalone="no"?>
<!DOCTYPE svg PUBLIC "-//W3C//DTD SVG 1.1//EN"
 "http://www.w3.org/Graphics/SVG/1.1/DTD/svg11.dtd">
<!-- Generated by graphviz version 2.38.0 (20140413.2041)
 -->
<!-- Title: i2c_master_state_t Pages: 1 -->
<svg width="108pt" height="95pt"
 viewBox="0.00 0.00 108.00 95.00" xmlns="http://www.w3.org/2000/svg" xmlns:xlink="http://www.w3.org/1999/xlink">
<g id="graph0" class="graph" transform="scale(1 1) rotate(0) translate(4 91)">
<title>i2c_master_state_t</title>
<polygon fill="white" stroke="none" points="-4,4 -4,-91 104,-91 104,4 -4,4"/>
<!-- Node1 -->
<g id="node1" class="node"><title>Node1</title>
<polygon fill="#bfbfbf" stroke="black" points="0,-0.5 0,-19.5 100,-19.5 100,-0.5 0,-0.5"/>
<text text-anchor="middle" x="50" y="-7.5" font-family="Helvetica,sans-Serif" font-size="10.00">i2c_master_state_t</text>
</g>
<!-- Node2 -->
<g id="node2" class="node"><title>Node2</title>
<g id="a_node2"><a xlink:href="group__rtos__irq__sync.html#structsemaphore__t" target="_top" xlink:title="semaphore_t">
<polygon fill="white" stroke="black" points="13.5,-67.5 13.5,-86.5 86.5,-86.5 86.5,-67.5 13.5,-67.5"/>
<text text-anchor="middle" x="50" y="-74.5" font-family="Helvetica,sans-Serif" font-size="10.00">semaphore_t</text>
</a>
</g>
</g>
<!-- Node2&#45;&gt;Node1 -->
<g id="edge1" class="edge"><title>Node2&#45;&gt;Node1</title>
<path fill="none" stroke="#9a32cd" stroke-dasharray="5,2" d="M50,-57.037C50,-44.6703 50,-29.1198 50,-19.6273"/>
<polygon fill="#9a32cd" stroke="#9a32cd" points="46.5001,-57.2338 50,-67.2338 53.5001,-57.2338 46.5001,-57.2338"/>
<text text-anchor="middle" x="68.5" y="-41" font-family="Helvetica,sans-Serif" font-size="10.00"> irqSync</text>
</g>
</g>
</svg>
