S01A000066726565646F6D5F626F6F746C6F616465722E737265639E
S113000000000020110400007D4B00004914000092
S113001000000000000000000000000004050000D3
S11300200000000000000000000000007D4B000004
S113003000000000000000007D4B0000450C0000A3
S1130040814B0000814B0000814B0000814B00007C
S1130050814B0000814B0000814B0000814B00006C
S1130060412A00004B2A0000012C00000B2C000048
S11300707B4C0000914B00009F4B0000814B000023
S1130080814B0000814B0000814B0000814B00003C
S1130090814B0000814B0000814B0000814B00002C
S11300A0A9420000814B0000814B0000814B0000FD
S11300B0814B0000814B00007D0A0000814B000051
S11300C0000000000000000000000000000000002C
S11300D0000000000000000000000000000000001C
S11300E0000000000000000000000000000000000C
S11300F000000000000000000000000000000000FC
S113010000000000000000000000000000000000EB
S113011000000000000000000000000000000000DB
S113012000000000000000000000000000000000CB
S113013000000000000000000000000000000000BB
S113014000000000000000000000000000000000AB
S1130150000000000000000000000000000000009B
S1130160000000000000000000000000000000008B
S1130170000000000000000000000000000000007B
S1130180000000000000000000000000000000006B
S1130190000000000000000000000000000000005B
S11301A0000000000000000000000000000000004B
S11301B0000000000000000000000000000000003B
S11301C0000000000000000000000000000000002B
S11301D0000000000000000000000000000000001B
S11301E0000000000000000000000000000000000B
S11301F000000000000000000000000000000000FB
S113020000000000000000000000000000000000EA
S113021000000000000000000000000000000000DA
S113022000000000000000000000000000000000CA
S113023000000000000000000000000000000000BA
S113024000000000000000000000000000000000AA
S1130250000000000000000000000000000000009A
S1130260000000000000000000000000000000008A
S1130270000000000000000000000000000000007A
S1130280000000000000000000000000000000006A
S1130290000000000000000000000000000000005A
S11302A0000000000000000000000000000000004A
S11302B0000000000000000000000000000000003A
S11302C0000000000000000000000000000000002A
S11302D0000000000000000000000000000000001A
S11302E0000000000000000000000000000000000A
S11302F000000000000000000000000000000000FA
S113030000000000000000000000000000000000E9
S113031000000000000000000000000000000000D9
S113032000000000000000000000000000000000C9
S113033000000000000000000000000000000000B9
S113034000000000000000000000000000000000A9
S11303500000000000000000000000000000000099
S11303600000000000000000000000000000000089
S11303700000000000000000000000000000000079
S11303800000000000000000000000000000000069
S11303900000000000000000000000000000000059
S11303A00000000000000000000000000000000049
S11303B00000000000000000000000000000000039
S11303C00000000000000000000000000000000029
S11303D00000000000000000000000000000000019
S11303E00000000000000000000000000000000009
S11303F000000000000000000000000000000000F9
S1130400FFFFFFFFFFFFFFFFFFFFFFFFFEFFFFFFF9
S113041072B60E480E49886000220023002400258D
S113042000260027B846B946BA46BB46BC4609482A
S1130430854609488047094880470948804762B68D
S113044000200021074A9047FEE70000000000005A
S113045000ED00E000000020854B0000A112000028
S1130460D9120000410E0000030201466911000088
S1130470592400000D2A00005D2300009D22000085
S1130480551A00002D2100008D240000DD230000FA
S1130490FD22000025220000B51100007921000092
S11304A0D121000099200000491100000000000043
S11304B00000000000000000436F707972696768F3
S11304C0742028632920323031332D3230313420E6
S11304D0467265657363616C652053656D69636F0E
S11304E06E647563746F722C20496E632E20416CA8
S11304F06C207269676874732072657365727665BF
S1130500642E0000A55800000105014BB80400004A
S113051000F0FF1F68040000AC040000A9150000EF
S113052000000000BB15000000000000531600008E
S11305309917000033160000C51600006318000068
S1130540000000001719000000000000F115000071
S113055000000000CD150000C51600008118000041
S113056000000000F1180000000000006D150000FC
S1130570000000001F160000000000000000000042
S113058000000000251900000000000039190000D7
S1130590000000005B190000991700000000000033
S11305A00000000000000000F5580000FF580000A3
S11305B009590000000000000000000002000400CF
S11305C000000800000010000000200000004000AF
S11305D000000000000000000000200004000240B1
S11305E0891A0000B51A0000BD1A00009B1B000008
S11305F0000000001F1C0000612D0000CF2D000032
S1130600F92D000000000000000000000D2E000085
S113061095330000BD3300001B3400005535000045
S1130620A1350000973700003D3400000935000073
S1130630B9360000593800006D3800000000000091
S1130640F13700000B380000000000003D360000C8
S1130650A5380000DB3800008F2E0000233900008D
S113066069440000D54200000143000091430000AA
S1130670CD4300004D4300006922000071220000B8
S11306807D2200008D220000000000000000000018
S11306900100000000000000950900005007000060
S11306A0600700001C0700000200000000000000BA
S11306B0BF090000F8050000080600001C07000040
S11306C00400000000000000D70900003807000003
S11306D0480700001C070000100000000000000094
S11306E0000000007C070000000000008C070000F0
S11306F000000000000000000000000000000000F6
S1130700000000000000000091440000BF4400000D
S1130710CD450000874600005CF4FF1F354700000C
S113072041470000B1470000674800003947000016
S11307307348000015470000C94A0000194B000027
S11307403F4B00000000000000000000534B00007D
S1130750D94C00001F4D00003D4D0000000000007A
S113076000000000554D0000043A2622A8F1FF1FA6
S1130770ACF1FF1FE8F1FF1F10F2FF1F5D4F0000F7
S11307805F50000019510000E15200005151000077
S11307907F51000009520000C9520000D9520000E4
S11307A0DD5200000000000003487047002070473D
S11307B00020704700207047FFFF000038B5040098
S11307C0424D0023AB610020002103C5083D2A00EF
S11307D0083203C22A00103203C22B623C4800F0E4
S11307E0B8F8E8613B49200000F05AF931BD80B502
S11307F000F06BF901BD70B50C00344DA9690729EF
S11308001CD1296A884219D100F0A8F89626F6006E
S113081001010A1A03CD030003CD1918100000F0DA
S1130820AFF90A214843310000F0AAF9401D0A211A
S113083000F0A6F970432060002070BD012070BD57
S1130840F1B582B000F07BF804000D001F4EB769CB
S11308507F1CF0690021009001913000103003C822
S11308602B00221A8B4100980021994203D801D30E
S1130870904200D20127B761012F06D0042F09D07E
S1130880052F0FD0072F11D01CE030C6083E029868
S1130890306217E00CCE083E2900A01A994103C625
S11308A0083E0FE03000083030C00BE03000083064
S11308B00CC82900A01A99413200083203C20298D8
S11308C000F003F9103630C6F7BD0000A8F2FF1F90
S11308D0803801004108000030B5264801688022B4
S11308E012040A4302600021234A1160234A0023B0
S11308F0DB43136191610124D461916904250D43A3
S113090095619169214391611360D4609460816819
S11309101B4800684903490F491C00F031F9C00025
S1130920184900F02DF9002800D10120164908606B
S113093030BD1148016802220A430260704713481F
S1130940036840680022002180185941C043C9430C
S113095070470D4909684843C008704700B50C4802
S11309600168074800684903490F491C00F008F969
S113097000BD00003C80044000700340007103404F
S1130980E4F0FF1F40420F0054F4FF1FE0700340E7
S113099044800440002811D15F4800290CD002296A
S11309A008D00BD28021490001600220C0435B497A
S11309B00860704780218900016041607047002809
S11309C008D15748002903D0022903D18021890086
S11309D001604160704700280AD15248002903D0C1
S11309E0022905D180218900016041608160C160D4
S11309F0704780B500F0F4F84B48416BF82292013F
S1130A000A4342630168494A0A43026001BD4848F7
S1130A100168484A0A400260474848490860484813
S1130A2048490860704700B5474800684749096865
S1130A304903490F491C00F0A3F800BD0120704789
S1130A4000B50200404800680721404B002A03D04B
S1130A50022A0BD00AD30DE03D490968491C4843DA
S1130A603C490978002906D0400800BD1A68120CD8
S1130A701140DFE7002000BD0020704736480068C1
S1130A80C101C90F00D1704780B53448016808001E
S1130A9005D0002088470020C0433149086001BDCB
S1130AA0002811D12F4802682F4B13408022D20313
S1130AB01A4302608020C0052C4A1060A020000365
S1130AC02B4A106025480160704700280BD1802014
S1130AD0C0052849086020480168274A0A40026086
S1130AE000201E4908607047704780B516480068AA
S1130AF0800900F08DF8214800F09BF801BD80B515
S1130B0000F0C4F800F0D6F800F0C6F801BD80B5D6
S1130B1000F092F801BD00000490145414F00F4446
S1130B2020B0145400C01454048004400000010494
S1130B3038800440FFC1FFFFFFFFFF7F00700444C3
S1130B40FFFFFAF304800444E4F0FF1F44800440F0
S1130B5044801C5E064086520490044088F3FF1FC4
S1130B60A09004401CE400E0FFFF00FF00E100E06F
S1130B7004901C5880E100E0FFFFF0FEFF0A000033
S1130B80094214D088420FD30122030C01D100047E
S1130B901204002300185B418B4200D35B1A5241BC
S1130BA0F8D319001000704701000020704708B501
S1130BB000F08AF808BD30B4012100220368001D4A
S1130BC0002B0BD00468001D0C4202D04D466D1E54
S1130BD064192260241D1B1FF0D0FAE730BC704753
S1130BE009487F2182780A40042A0CD102789F2385
S1130BF013400370FF2283780B40012B01D1034B78
S1130C001B78521EF7D1704701E0074002D007401D
S1130C1080214904884201D3042070470D49000211
S1130C20000A401E486000208860072008600020F9
S1130C3070470949086070470648016806229143D5
S1130C400160704704480068010000D1704780B516
S1130C50804701BD10E000E04CF6FF1F01607047C3
S1130C6072B60168491C016062B601680029FCD1B2
S1130C700120704772B60168491E016062B6704770
S1130C8072B600200A49086062B6704772B6084816
S1130C900168491C0160704705480168022903D2B4
S1130CA00021016062B670470168491E0160704707
S1130CB074F3FF1F00BF034855210160AA2101609E
S1130CC070470000048104407047000001280CD8DC
S1130CD0012200BF07A3185CC006C00E8240012990
S1130CE001D1024800E002480260704700E100E0E0
S1130CF080E100E00809000038B505000C00002080
S1130D0000F0F0F86E4804604560802109026D4AE5
S1130D101160016881F3088881F30988406880477D
S1130D20002000F0DFF831BD6749896809690028AF
S1130D300DD00022D243904209D0644A904206D09A
S1130D400A69904203D34B69D218904208D34A6A85
S1130D50904207D3896A511888428041C00F704776
S1130D600120704700207047F0B585B0564EB0683A
S1130D7004696C34564D09E0217C014205D0686950
S1130D8081692800EA685268904718352868002865
S1130D90F2D10027FA208000FFF7DBFD0500802058
S1130DA000024168009100680190FFF765FE002889
S1130DB029D10098FFF7B8FF002824D0B068006953
S1130DC08A300078C00703D401990098FFF794FF94
S1130DD0678A4048874200D13F4F6F43FFF7AFFD1A
S1130DE002AA03C2002F0ED0FFF7A9FD02AA0CCA63
S1130DF0801A99410023994201D8B84203D301993A
S1130E000098FFF779FF324D00E018352868002874
S1130E10E8D02800E968096888470028F5D0002D43
S1130E20E0D02B4C06E0A54203D02000E16889689D
S1130E308847183420680028F5D1280005B0F0BD93
S1130E4038B5FFF71DFFFFF7D4FD1F4CA0680068FD
S1130E508047002000F07AF8FFF73EFD20002030A4
S1130E6000F082F91D492000203000F0A3F9FFF7BB
S1130E703CFE206800688047A06840688047FFF710
S1130E8073FFE0610169002903D009680A0000D0FA
S1130E908847E0694169002903D009680A0000D045
S1130EA08847E06800688047E569E06840688047F3
S1130EB0E868C1680800F8D028008847F5E7000012
S1130EC0CCF2FF1F08ED00E000F0FF1F110400004A
S1130ED090060000FFFF000088130000FF0A0000D6
S1130EE07047000070B505000024022D04D00020D6
S1130EF000F0C0F9012D0ED0002605E0C168896814
S1130F000A0000D08847761C0E4818217143401807
S1130F1001680029F2D1002D0FD1FFF7B7FEFFF7CA
S1130F2008FD00F0D9F908480460012000F00EF82B
S1130F30FFF76DFD62B6FFF7EAFDBFF36F8FBFF3F6
S1130F404F8F70BD9006000008ED00E0F8B5634CCB
S1130F50002854D162480068606062488068016972
S1130F606C310A7CD006C00F0A7FD307DB0F012245
S1130F70424013420BD0A02040045B490968491C3D
S1130F80FFF7FEFD59490860002059493FE0497FB9
S1130F90CA431607360F761C0127564D002801D187
S1130FA007E0761E28003100FFF7EAFD5249884227
S1130FB0F7D328003100FFF7E3FD5049884201D3FD
S1130FC0761CF6E749490860050000E07F1C28000C
S1130FD03900FFF7D5FD4A498842F7D2761E30071B
S1130FE07F1E3904E022D2020A4002433C480260D8
S1130FF00421207800F00DF804202070F1BD0128B0
S113100006D10021207800F004F8606834490860B3
S1131010F1BD884200D17047F0B540200C22002376
S1131020384C394D04292FD138490E68C70037434D
S11310300F603749374E37680F403760776839405B
S1131040716089212970242161709A212170E178CD
S1131050C906C90EE170012121716371A179C90624
S1131060FCD4A17911400829FBD16071A179114008
S11310700829FBD1A1790142FCD01A202070A07963
S113108010400C28FBD1F0BD002925D18021224E2F
S11310903170224E3370224E307022480370A07992
S11310A010400828FBD118201F4F38703370A079E6
S11310B08006FCD4184803700420184F3870A679B1
S11310C0F606FCD5A7791742FCD12B70A2799207BA
S11310D0FCD4617020702371F0BD0000D4F2FF1FB6
S11310E04480044000F0FF1F44801C5EE4F0FF1FB6
S11310F00480045800D8B805002D3101016CDC02CD
S113110001366E010040064000500640388004401D
S1131110FFF8FFFE4890044000400E530040065183
S1131120054006530140865000409651002801D1E5
S113113004207047C069002804D00068022801D147
S1131140002070476D20704710B5002801D104209D
S113115010BDC469606800F0E6F8A06800F07DF88E
S113116002202060002010BD10B5040001D104202D
S113117010BD2348234909680901090F4900405A51
S1131180000301D1642010BD0021216060600120B2
S1131190A0608002E0606161A16121612000FFF72D
S11311A0C5FF002804D01848E0612000FFF7CCFFF9
S11311B0002010BD002801D10420704701610020E7
S11311C07047002801D1042070475B1E194201D1E9
S11311D0134001D0652070470368994204D34068E6
S11311E018188918884201D2662070470020704779
S11311F00649884201D06B207047002070470000E8
S1131200BC0500004C80044050F0FF1F6B66656B0A
S113121000280DD0042A02D0082A0BD008E00029A7
S11312200DD010290BD3202909D02139132906D335
S113123004207047102902D011390329F8D2002064
S11312407047000001688022D2000A430260BFF3A5
S11312506F8FBFF34F8F7047704710B504000C4970
S11312600C48421A491E200000F08EF8641C0A48FB
S1131270046010BD38B504002000FFF757FF0500D7
S1131280002D03D1054804490968884731BD000091
S113129045120000591200000CF3FF1F0C3000F03F
S11312A080B511481149086011491248421A124880
S11312B0884203D0002A01D000F066F80F48104994
S11312C0091A01D000F0BCF80E490F48421A02D0A6
S11312D00E4800F059F801BD0020C0430C490860D5
S11312E00C490860704700000000000008ED00E0B1
S11312F000560000A458000000F0FF1FA8F2FF1FD2
S1131300D4F7FF1F345900003459000000FCFF1FBC
S113131080E100E080E200E08021017002780A426E
S1131320FCD07047704710B5040013491348421AA3
S1131330491E200000F028F8641C1148046010BD08
S113134010B5104C70212170FFF7F0FE002811D168
S113135020000B49096888472078810601D5672059
S113136010BDC10601D5682010BDC00701D5692094
S113137010BD002010BD000019130000251300004B
S113138010F3FF1F00000240124207D08B0706D063
S11313900B78491C0370401C521EF7D87047830712
S11313A006D00B78491C0370401C521EF9D17047BB
S11313B070B4103A03D378C9103A78C0FBD25307FB
S11313C001D318C918C001D508C908C0D20704D36D
S11313D00B880380891C801C002A01D50B780370BC
S11313E070BC70471206130A1A43130C1A4300BF49
S11313F0094205D083070BD00270401C491EF9D165
S1131400704700001206130A1A43130C1A4300BF54
S1131410130030B414001500103902D310393CC045
S1131420FCD2490700D30CC000D504C0890002D304
S11314300280801C002900D5027030BC7047000077
S11314400022D5E70022E3E7BFF34F8F02480349A8
S11314500860BFF34F8FFEE70400FA050CED00E0CF
S113146000209649C968C96808607047FEB500261F
S113147000206A469670914CE7697D69002D74D00E
S1131480E168C9680A68012A59D000230A000832B1
S1131490091D38006D68A847002805D0884988428E
S11314A002D0491C884260D1E268D1688B68002B65
S11314B05BD002934868019000786B4618706846C8
S11314C00078002808D068460078122804DA926868
S11314D0C0001018083800E0002008620127002826
S11314E021D0006800281ED000A9491C200020300B
S11314F000F0B0FA050017D168464078002809D0FA
S1131500E720400169460978491EC840384001D1A6
S11315109F4D09E002990198E268D268126A126844
S11315209047002007E09B4D68460178280000F0B2
S11315302DFA280019D1E168C9680F60FEBD096A57
S113154000290DD04968080003D000A8801C8847F2
S113155000E00020002803D0E168C9680E60FEBDE9
S113156069468978E268D2681160FEBD80B5017869
S1131570002000F00BFA5148C069416909698847A5
S11315800220FFF7AFFCBFF34F8FBB48BB49086095
S1131590BFF34F8FFEE780B514214848C068C06888
S11315A00C30FFF74FFF01BD10B5040000F05FFBE6
S11315B0FFE7217800F0EAF910BD10B50400A16836
S11315C060683E4A126852699047F2E710B5040019
S11315D0FFF7E1FF3948C068C0686168016108210C
S11315E001772178002000F0D1F900F0CFFC10BD84
S11315F07CB5002401940094304D6B4601AA8168A7
S1131600C9B24068C0B2AE68B668B047E968C96894
S11316100C6100998A08019900F0C0F973BD10B5F6
S11316200400A1686068C0B2244A9268D2689047F6
S1131630BFE710B50400FFF7AEFF2048C068C068DC
S1131640A16801616168416104210177217800206A
S1131650B0E710B50400FFF79EFF1848C068C068E3
S1131660A16801616168416103210177A1680020DB
S113167000F0A8F910BD38B50400104DE868C06842
S1131680002141610161007F042805D128680069B7
S11316908047002C00D10400E868C068017F200066
S11316A000F074F90648844206D1E868C068007FF7
S11316B0082801D100F0C0FC31BD000000F0FF1F7C
S11316C012270000F1B584B0AF4DE868C06800246B
S11316D00169002905D1049804700020FFF7CBFFAD
S11316E052E00121049A1170076940690290009444
S11316F0E86901236A4601A946697668B04706008D
S113170004D0E8694169C968884732E00098002834
S113171001D1C0482EE0B84200D938000090E868F2
S1131720C068017F082910D10199C16000998161C5
S11317300099019800F03EFC0600C248864202D09F
S1131740093886420CD100260AE0019A00990298D1
S11317502B689B68984706000298009940180290ED
S113176000983F1A05D0002E09D0E8694169C9687C
S113177088473000FFF77FFF0498047004E0E868AE
S1131780C068076102994161002005B0F0BD000006
S11317901127000010270000F1B58CB07A4FF868CB
S11317A0C06800250169002905D10C980570002046
S11317B0FFF761FF52E001210C9A11700169029157
S11317C04469C168027F029B212B00D3202301932B
S11317D0002915D0019A04A8FFF7D6FD02980199B3
S11317E0401A0290F8690123019A04A94669B6686F
S11317F0B04706000298002825D0002E29D022E008
S1131800019961180391032A06D104AA01992000C1
S11318103B685B6898470CE0102A01D00C46DDE772
S1131820407F0090019B04AA21003800203000F082
S113183033FC0600039CD1D0F8690123002204A9DB
S11318404469A468A0473000FFF715FF0C980570A1
S113185004E0F868C06802990161446100200DB099
S1131860F0BD10B50400E268A1686068464B1B68CF
S1131870DB6898479DE600000400FA050CED00E0E3
S11318807CB5060070680090B0680190F0686E4CFA
S1131890206000253C4949680C31002807D00A68BB
S11318A0904203D34968491C814200D20425009820
S11318B0FFF73AFA002800D104253178280000F017
S11318C065F8002D13D1009860600020FFF70AFB33
S11318D00198A0602068002803D080F3088880F372
S11318E00988A068616888470020FFF7FBFA73BD88
S11318F038B504006068FFF717FA002801D1042006
S113190005E065680120FFF7EDFAA068A847217893
S113191000F03CF831BD10B50400211D4B4800F027
S113192005FC46E610B50400A36822000C32616889
S1131930464800F021FC3CE61CB504006846002142
S1131940002206C0A3686A466168404800F040FC73
S1131950A268694600F03BF813BD10B50400FFF718
S11319601AFE0948C168C968A2680A6162684A61C6
S113197010220A77E168C068C0684177A168002036
S113198000F04AF810BD000000F0FF1F10B584B04D
S11319906A46A02313700023537045E030B589B024
S11319A06C46A723237000236370A370551CE57055
S11319B0019004E098000D58201885605B1C934248
S11319C0F8DB1BE010B584B06A46A32328E030B5E9
S11319D089B06C46AF23237000236370A370022583
S11319E0E5700190002808D19008801CE0700292F4
S11319F020000C30FFF7DCFC00E002931448C069BF
S1131A000023E1788A00121D69464469A468A0474E
S1131A1009B030BD1227000010B584B06A46B02367
S1131A20137001235370002393700223D370019029
S1131A3002910748C06900230C2269464469A468DE
S1131A40A0471FBD7D27000000F3FF1F20F0FF1FEC
S1131A5000F0FF1F002801D0002901D104207047A5
S1131A60084800788207920F022A01D1002006E07C
S1131A70C0220240802A01D1012000E00220087027
S1131A80002070470200024038B59F4C65682A0068
S1131A9004212000203000F0C5FB6A4601212034D7
S1131AA0200000F0BFFB286800994018401E6860C1
S1131AB0002032BD80B500F0DBFB02BDF5B589B076
S1131AC08808800003900F1A8F4CA0680069056B8A
S1131AD0002D00D001250020C0430490002F06D023
S1131AE03A000A980399411804A8FFF74DFC002610
S1131AF0FFF7CCF809980399401807900398002839
S1131B0008D003460A9A09992000203000F0C6FB49
S1131B10060009D1002F07D0042304AA0799200046
S1131B20203000F0BBFB0600FFF7B6F8002E2FD1E3
S1131B302D062FD0FFF7AAF80398002811D005A886
S1131B40029006A80190A0680069406DC0B20090A0
S1131B500A9B039A09992000203000F0CFFB06006D
S1131B6012D1002F10D005A8029006A80190A068F9
S1131B700069406DC0B2009004AB04220799203480
S1131B80200000F0BBFB0600FFF786F8002E01D012
S1131B90300000E000200BB0F0BDF0B587B00400C9
S1131BA0594FB8680069006B002800D001200690E6
S1131BB00392484203218843454201E0241D2D1F1E
S1131BC0002D29D0FFF762F8042303AA210038006E
S1131BD0203000F063FB0600FFF75EF8002E19D1F9
S1131BE006980028EAD0FFF751F804A8029005A847
S1131BF00190B8680069406DC0B2009003AB042244
S1131C0021003800203000F079FB0600FFF744F88B
S1131C10002ED3D0300000E0002007B0F0BDF8B5AE
S1131C2007000D00FFF732F8374C384B2A00390013
S1131C302000203000F092FB0600FFF72DF8002E64
S1131C4013D1A0680069006B00280ED0FFF71EF8BE
S1131C50A0680069436DDBB22A00390020342000FB
S1131C6000F0BCFB0600FFF717F83000F2BDF8B532
S1131C7000220026244CA06803691D005C352968F5
S1131C80002903D16868421E9241D20F98695B6BA8
S1131C90002B19D0002A17D14742002906D0394019
S1131CA004D00020FFF7BBFF06002BD161686868F1
S1131CB04242174078424968884223D2491C091A93
S1131CC0FFF7ADFF06001DE0FEF7E0FF0F4920001F
S1131CD0203000F0C1FB0600FEF7DEFF002E11D11C
S1131CE0A0680069006B00280CD0FEF7CFFFA06845
S1131CF00069416DC9B22034200000F0C7FB060022
S1131D00FEF7CAFF3000F2BD00F0FF1F6B66656B83
S1131D10416882688A4208D2891A416082667A4997
S1131D2001600121816000207047964870479C49FA
S1131D30016000207047416A4A898282CA68921E03
S1131D4042604A68714B9A4202D1097A022901DB46
S1131D508D487047934901600020704710B582B0E8
S1131D600400606A4168A1610168C91EA1606268DB
S1131D70914201D38C4816BD0089002801D08B48BC
S1131D8016BD694608708A48FFF764FE6846007805
S1131D90002801D0994816BD2000FFF7B9FF16BDF1
S1131DA038B50400A34D626A216EE06D2B689B6810
S1131DB09847002818D1286800698047002813D163
S1131DC01022616A20001C3000F074FB6946200078
S1131DD01C3000F085FB0098616E884201D0A04859
S1131DE032BD49482060002032BD38B504001022BD
S1131DF0616A1C3000F05EFB8E4D626A1021E06D5A
S1131E002B689B689847002820D1E06D1030E0656E
S1131E10206E10382066112801D3924814E000285F
S1131E2001D0914810E028680069804700280DD14E
S1131E30694620001C3000F053FB0098616E884214
S1131E4001D0874832BD30482060002032BD10B533
S1131E5004001C3000F028FB206E112801D38148B7
S1131E6000E081482060002010BD80B5426E016E04
S1131E70C06D704B1B68DB68984702BD10B5040049
S1131E80E26D7B4811000ED021001831606E90473E
S1131E90012803D12000FFF73BFF10BD022802D127
S1131EA000F074F8002010BD10B501005C314B68DF
S1131EB0021D536014689C4201D23B4810BD0B7A4A
S1131EC0DB0707D50B685469A34203D148689060C7
S1131ED0002010BD5A21415CC90701D5654810BDD9
S1131EE0FFF716FF10BD80B55A21415CC90702D522
S1131EF0FFF7BDFE02BD5C30416800684D4A1268C0
S1131F005269904702BD0000111F000053544D5008
S1131F1070B50400250058355A262800616A10223D
S1131F20FFF746FA0120295C7618401C1028FAD3E2
S1131F302878F1B2884201D04F4870BD68780728EC
S1131F401ED801A1095C8F4432060E161E22322AC5
S1131F502000FFF7A9FF70BD2000FFF778FF70BDD8
S1131F602000FFF782FF70BD404870BD2000FFF7DE
S1131F7085FF70BD2000FFF7B6FF70BD002070BD67
S1131F803E4870BD782700007527000010B53C4C12
S1131F9070212000FFF756FA3A482060002010BD57
S1131FA0371D00005D1D0000762700007727000024
S1131FB020F0FF1FF2B50700002400200025324E58
S1131FC000998D4219D010203169401A0099491B9B
S1131FD00AE0002910D07A5D3369F2546D1C32692D
S1131FE0521C3261401E491E0028F2D1346100F0B7
S1131FF007F8002801D1E3E72448F2BD8127000057
S113200080B500201E49204A4A62CA68002A07D0C7
S11320100869904202D2401C086104E01C4802BDD9
S11320208A6E002A03D108000968884702BD521E3F
S11320308A6602BD00F0FF1F38B5114C5920205CA0
S113204004280AD15C342568280004D00020FEF757
S113205049FFA068A8470F4832BD002032BD0000E8
S11320607A270000EB1D0000A11D000012270000CC
S11320707F2700007C270000792700007B270000D1
S113208014F5FF1F2F1D000084F5FF1F7D2700009E
S1132090742700007E270000F1B50F0014001D0016
S11320A0002801D0002C01D10420F2BD6846027E34
S11320B02900380000F01EF8002815D104E07168EA
S11320C02160241D3F1D2D1F002D0DD007480668DB
S11320D037600748032101706946097E0172009840
S11320E0FFF72EF90028EAD0F2BD0000DC0500005D
S11320F00700024010B50323184201D10B4001D060
S1132100652010BD022A0EDA4418641E012A06D185
S1132110002808D1491E072905D1002010BD002A36
S1132120FBD1FF2CF9D9042010BD000010B502002A
S113213001D0002901D1042010BD00200D4B1C78D2
S1132140A407A40F022C14D04520587108785872A3
S1132150487818728878D871C87898710879587353
S1132160487918738879D872C87998721000FFF783
S1132170E7F810BD02000240F1B50C0015001F0085
S1132180002D01D10420F2BD3A00FFF741F806000A
S113219018D10D484321417004700C480068296827
S11321A04160102C02D0113C032C03D2082F01D122
S11321B0696881600098FFF7C3F806000098FFF78C
S11321C059F83000F2BD00BF06000240DC050000F3
S11321D0F8B507000C0015001E00002D01D10420E5
S11321E0F2BD3200FFF714F8002815D10B48412145
S11321F0417004703800FFF7A3F800280CD1084997
S113220009684A682A60102C02D0113C032C03D2BE
S1132210082E01D189686960F2BD00BF0600024042
S1132220DC050000002801D0002A01D104207047F9
S1132230072917D801A35B5C9F4400BF0810101442
S1132240181C2024C0681060002070474068FAE71A
S11322508068F8E70068F6E70020F4E74069F2E7F1
S11322608069F0E76A20704780B500F04FFB02BD3B
S113227080B513000A000100180003E080B51300C4
S11322800A001900FFF780F8002002BD10B50C0009
S113229011000123220000F059FB10BDF1B50F001D
S11322A015001C00002D01D10420F2BD04232200DE
S11322B0FEF787FF060002D0F2BD3F1D241F002C4D
S11322C013D00C4800680760296841602D1D062062
S11322D0094908700098FFF733F806000098006970
S11322E0010000D08047002EE7D00098FEF7C2FF1F
S11322F03000F2BDDC05000007000240F1B50C001F
S113230016001D0001D10420F2BD0423FEF759FF7D
S113231000281DD1069F02E0361F2D1D241D002E0E
S113232016D00C48006804600B4902220A700F7131
S1132330296881600098FFF703F80028ECD007991A
S1132340002900D00C600899002901D000220A60FD
S1132350F2BD00BFDC05000007000240F8B582B002
S113236007000E0015000423FEF72BFF040021D103
S113237075196D1EF868009028000099FEF700FC9E
S113238000290AD028000099FEF7FAFB451C0098A2
S113239045436D1E01E0F8683618B54216D30D4862
S11323A00068066009200C4908700298FEF720FFB7
S11323B0040001D02000FEBD3800FEF7C1FF040078
S11323C03869010000D08047002CE4D03800FEF7C3
S11323D051FFEFE7DC05000007000240F9B581B0CA
S11323E00F0015000423FEF7ECFE00282ED10198FF
S11323F0406801998968FEF7C3FB00907842009910
S11324004A4202405442BC4205D1641803E0AD1B69
S1132410BF1900982418002D17D0E01B2E00854208
S113242000D90600B0080A4909680F600121094A69
S11324301170010A1171D0706846007A9070019889
S1132440FEF77EFF0028E2D0FEBD0020FEBD00BFE7
S1132450DC0500000700024038B504000800002C29
S113246001D1042032BD4421074A1170FEF7C0FE99
S1132470050007D12000FEF763FF05002000FEF7EA
S1132480F9FE280032BD00BF0700024080B50028D5
S113249001D1042002BD034A402353701170FEF79A
S11324A04FFF02BD060002400021C9430160002124
S11324B04160704770B503684468A418446000BF65
S11324C012A407E00E78491C1D021B0E5E40B300E7
S11324D0E3586B4015006A1E002DF3D1036070BDF4
S11324E030B502684368032423420BD004251C4002
S11324F02B1B00BF05A41502120E9200A2586A40BD
S11325005B1EF8D102600A6030BD000000000000CC
S1132510B71DC1046E3B8209D926430DDC76041332
S11325206B6BC517B24D861A0550471EB8ED0826C9
S11325300FF0C922D6D68A2F61CB4B2B649B0C3566
S1132540D386CD310AA08E3CBDBD4F3870DB114C13
S1132550C7C6D0481EE09345A9FD5241ACAD155FF6
S11325601BB0D45BC2969756758B5652C836196AFF
S11325707F2BD86EA60D9B6311105A6714401D79EA
S1132580A35DDC7D7A7B9F70CD665E74E0B6239894
S113259057ABE29C8E8DA191399060953CC0278BFE
S11325A08BDDE68F52FBA582E5E66486585B2BBE85
S11325B0EF46EABA3660A9B7817D68B3842D2FADA2
S11325C03330EEA9EA16ADA45D0B6CA0906D32D445
S11325D02770F3D0FE56B0DD494B71D94C1B36C77A
S11325E0FB06F7C32220B4CE953D75CA28803AF283
S11325F09F9DFBF646BBB8FBF1A679FFF4F63EE1DE
S113260043EBFFE59ACDBCE82DD07DEC77708634A2
S1132610C06D4730194B043DAE56C539AB06822711
S11326201C1B4323C53D002E7220C12ACF9D8E1250
S113263078804F16A1A60C1B16BBCD1F13EB8A0185
S1132640A4F64B057DD00808CACDC90C07AB977812
S1132650B0B6567C69901571DE8DD475DBDD936B55
S11326606CC0526FB5E6116202FBD066BF469F5E36
S1132670085B5E5AD17D1D576660DC5363309B4D09
S1132680D42D5A490D0B1944BA16D84097C6A5AC97
S113269020DB64A8F9FD27A54EE0E6A14BB0A1BF5D
S11326A0FCAD60BB258B23B69296E2B22F2BAD8A8C
S11326B098366C8E41102F83F60DEE87F35DA99941
S11326C04440689D9D662B902A7BEA94E71DB4E004
S11326D0500075E4892636E93E3BF7ED3B6BB0F3D9
S11326E08C7671F7555032FAE24DF3FE5FF0BCC6BA
S11326F0E8ED7DC231CB3ECF86D6FFCB8386B8D5FD
S1132700349B79D1EDBD3ADC5AA0FBD8EEE00C69DC
S113271059FDCD6D80DB8E6037C64F643296087AE2
S1132720858BC97E5CAD8A73EBB04B77560D044F35
S1132730E110C54B383686468F2B47428A7B005CB6
S11327403D66C158E4408255535D43519E3B1D256F
S11327502926DC21F0009F2C471D5E28424D1936A6
S1132760F550D8322C769B3F9B6B5A3B26D61503EB
S113277091CBD40748ED970AFFF0560EFAA011103A
S11327804DBDD014949B93192386521D0E562FF1E0
S1132790B94BEEF5606DADF8D7706CFCD2202BE22E
S11327A0653DEAE6BC1BA9EB0B0668EFB6BB27D771
S11327B001A6E6D3D880A5DE6F9D64DA6ACD23C472
S11327C0DDD0E2C004F6A1CDB3EB60C97E8D3EBD81
S11327D0C990FFB910B6BCB4A7AB7DB0A2FB3AAEAA
S11327E015E6FBAACCC0B8A77BDD79A3C660369BEF
S11327F0717DF79FA85BB4921F4675961A163288AE
S1132800AD0BF38C742DB081C330718599908A5DC2
S11328102E8D4B59F7AB085440B6C95045E68E4E41
S1132820F2FB4F4A2BDD0C479CC0CD43217D827BBC
S11328309660437F4F460072F85BC176FD0B866855
S11328404A16476C93300461242DC565E94B9B11EE
S11328505E565A1587701918306DD81C353D9F0285
S113286082205E065B061D0BEC1BDC0F51A6933722
S1132870E6BB52333F9D113E8880D03A8DD09724D9
S11328803ACD5620E3EB152D54F6D4297926A9C563
S1132890CE3B68C1171D2BCCA000EAC8A550ADD60D
S11328A0124D6CD2CB6B2FDF7C76EEDBC1CBA1E378
S11328B076D660E7AFF023EA18EDE2EE1DBDA5F091
S11328C0AAA064F4738627F9C49BE6FD09FDB889C0
S11328D0BEE0798D67C63A80D0DBFB84D58BBC9A89
S11328E062967D9EBBB03E930CADFF97B110B0AF26
S11328F0060D71ABDF2B32A66836F3A26D66B4BC4D
S1132900DA7B75B8035D36B5B440F7B10C4800689E
S11329100003010F082910D2802292008A400CD0B3
S1132920084840680C30910880229205521A0260CF
S11329304A005118044A891841600020704700BFBA
S11329402480044000F0FF1FFFFFFF1F002A01D175
S113295001207047F0B41F46034603242340002B94
S113296009D00424E31A017001300824E141521E05
S113297026D05B1EF7D1042A1ADB13D0002F11D006
S11329800C460D460E46102A02DB72C0103AFAE7D6
S11329900C2A02DB32C00C3AFAE7082A02DB12C026
S11329A0083AFAE7042A03DB01600430121FF9E74E
S11329B0002A05D0017001300824E141521EF7D1EC
S11329C0F0BC00207047000000210180704770B502
S11329D003001D8800240EE0085D00026840050025
S11329E008206E002D0402D53500054E6E403500DA
S11329F0401EF6D1641C9442EED31D8070BD0000CD
S1132A0021100000008808807047000038B50400D9
S1132A100800002C01D1042032BD4921074A11705D
S1132A20FEF7E6FB050007D12000FEF789FC050050
S1132A302000FEF71FFC280032BD00BF0700024043
S1132A4080B5002000F006F801BD80B5012000F03B
S1132A5001F801BDF8B500BF67A182008C585F4939
S1132A6002018B18E11C0A788026360512271740CC
S1132A7031430F7050211140102912D0A11C0D00B8
S1132A80241D57060ED5500713D510202E43307041
S1132A9000206946087068461968884768460078C7
S1132AA02070F1BD012609780909314008D016408B
S1132AB0EED0EF208021C904294308702078F1BDAD
S1132AC02278010010005A689047F1BD4AA18000A5
S1132AD0085800218170017081717047F3B583B08B
S1132AE045A00399890044583C48039909014018BA
S1132AF004991022FEF75CFC8027402603980028E6
S1132B0001D1402000E0802035490860A01C0190DC
S1132B1000250570A01D009006700220E0700121C0
S1132B200398FEF7D3F80498007B40002D49214315
S1132B300870657100990D706570019970050843FE
S1132B400770067005B0F0BD70B5040080264025FE
S1132B502548002C03D10068284005D170BD012C04
S1132B600FD1006830400CD000212000FEF7AEF8F1
S1132B702000FFF7ABFF002C00D08025E8431B4961
S1132B80086070BD30B514001BA280001558080001
S1132B90FA218900FDF7F4FF01001548FDF7F0FF65
S1132BA0002100E011004A1C13004343A342F9D35F
S1132BB0002905D10A225443844204D3012102E0AE
S1132BC0202900D31F21AD1D0A482843017030BDC0
S1132BD0024A0001101841607047000054F3FF1FBF
S1132BE0348004480000B01034800440348004442D
S1132BF040420F00000018100060064000700640BC
S1132C0080B5002000F006F801BD80B5012000F079
S1132C1001F801BDF8B5050043A0A90047583C4898
S1132C20E90046187C1DFF1C3878C00903D02078C1
S1132C30A9B2726890473878800609D500206946A1
S1132C400870A9B2684632689047684600782070D8
S1132C50F1BD2F4AC000101841607047F8B5040058
S1132C600E0000BF30A0A100475803CE083E284AFA
S1132C70E300D21803C2002C02D18020C00301E07B
S1132C808020000423490860380000F051F8002532
S1132C909021490539430D70B37A327A717A38003C
S1132CA000F04DF880200005384380210170202178
S1132CB00170002C01D1490100E08901164A11601C
S1132CC0402101707D71F1BD70B5040016A0A10012
S1132CD0405880252D046E081049002C04D1096841
S1132CE0314013D00A2105E0012C0FD10968294095
S1132CF00CD00B2101228A4009490A6000F018F81F
S1132D00002C00D13500E8430649086070BD00007E
S1132D1078F3FF1F3480044800E100E0348004406D
S1132D2080E100E034800444006007400070074004
S1132D3004210170002141708170C171704710B588
S1132D40C9008C2464050443217091008822520533
S1132D50024311708021490501430B7010BD00002E
S1132D602E4940680818007C70472D494A68002A9B
S1132D7008D00A6813780370521C0A604868401E21
S1132D804860704700210170704780B52349496944
S1132D90884701BD38B5040008005A2C09D11F4DDD
S1132DA001212A1811741F49FFF712FF5A2069697B
S1132DB0884731BD10B504001849FFF78FFEFDF7B1
S1132DC032FE322201002000FFF7DCFE10BD10B5F8
S1132DD00400124841611449896809697D31097800
S1132DE0FF2900D0017302216068A26890476068DF
S1132DF0FFF7E0FF002010BD10B504006068FFF786
S1132E00A3FE00216068A268904710BD04480160D9
S1132E10426041680029FCD1002070475CF0FF1F2C
S1132E208CF3FF1F8B2D000000F0FF1F012A01D13E
S1132E30012000E0002004E0012A01D1042000E088
S1132E400820944A0906890D51180A78104308701D
S1132E50704790480906890D40180178FD220A4000
S1132E600270704738B505000C0000F0B5FD286904
S1132E70002801D12C6101E0686904616C610020C3
S1132E802061A869401CA86100F0B0FD31BD38B5CF
S1132E9005000C0000F0A0FDA869002803D100F093
S1132EA0A5FDC12032BD286920602869002804D00E
S1132EB000692861002800D16861A869401EA861E2
S1132EC000F094FD002032BD7349802292008A18DC
S1132ED0C262942292008918C16001610C2181614F
S1132EE0C2680B2311001C3111610A005B1EF9D169
S1132EF00021116142610020704738B50400694621
S1132F00FFF7C5FF65484068400A40022C34216839
S1132F10E27D002A01D1416005E00A00083208235D
S1132F2003435A600831009A51600021009B1970D4
S1132F30009B5970009A9160009B99700122009D3A
S1132F40EA75009BA3606175E17D0A40D1000143ED
S1132F50CF48086031BDF8B504000D0017001E000D
S1132F6000F03AFD4D484068410A49022807C00D67
S1132F70084314214D436119413101228B781340D8
S1132F80DB0003435F608B781340DB000343B00531
S1132F90800909780A409101014388200843186098
S1132FA000F024FD72E370B514244C43001938304A
S1132FB004889C4200D91C00049B1C60374B5B684E
S1132FC05B0A5B020907C90D194310230125867AA0
S1132FD02E40F6000E431E437260827A2A40D200CD
S1132FE00A431343A1058909007A0540A80108434F
S1132FF0882101431960CC480178DF220A4002701D
S1133000002070BDF1B5C948FF2101720222037D81
S113301002241C430475037E80242340037600238A
S1133020002400271D4D6D686E0A76022507ED0DFC
S113303035432B6008262E43336010262E4333601D
S113304018262E433360009D14266643AD1942357D
S11330506B702B700F4D2606B60DAF55641C062CF5
S1133060E0D30E4D2B7001240470057DFD262E4007
S11330700675009D1C35EB732A806C800173017901
S11330808D220A430271017DDF220A40027500206D
S1133090F2BD0000C020074000F8FF1F94F3FF1F9B
S11330A0F0B58BB00700A148007C694648729F4880
S11330B0007C00090090012801D0022801D19B481E
S11330C0007C9A48007C0124C008012101409748F3
S11330D0027C0820954B1870B7484068430A5B028D
S11330E00098400118430B01034392080125154041
S11330F0EA001A43126893019B0D01939206120F82
S113310005920D2A02D16B461C7202E000226B4626
S11331101A72009A14235A43BD183035009A019B41
S113312013430493002937D02E68002E2ED0F06864
S113313001994018F060B168081A0390A87C012135
S11331404140A974287C0121414029740398002836
S113315003D001982989884219D2F06808907068D0
S113316007900020286031003800FFF77BFE0198AB
S11331702989884268D10098002865D18E48047056
S1133180002300220021786800F0B9FD7EE03100C0
S1133190380000F0DFF979E0049900295ED086490F
S11331A00978002902D00021834A11706E68002E2C
S11331B06CD0F17D00290CD1E97C2140C900014388
S11331C049687068F2688018814202D0019A00F060
S11331D010FEF06801994018F060B168081A039075
S11331E0009800280FD105980D280CD10122002148
S11331F0380000F0D0FA3800403004704470C178D0
S11332004C40C47006E0687C012141406974E87C4C
S11332104440EC74B068002806D00398002803D01A
S11332200198298988420AD2F0680890706807904A
S11332300020686031003800FFF714FE0EE0310012
S1133240380000F0ADF921E00498002806D15A486E
S11332500078002802D13800FFF74FFE7868069006
S113326006A8009901736946097A81736946497A07
S11332700A07D20FC27306A90098C0B200F0EEFB91
S11332802A48007DDF210140284801750BB0F0BDBC
S113329088000800254904220A70AD4A137912787F
S11332A01B0213430384202008707047F8B50700FD
S11332B000240026142070433D183835A8780128CE
S11332C021D13100AC203858FFF7C3FD3A4840689B
S11332D0410A49023007C00D0843A97ACA07120FF0
S11332E00243102111432A889205920908231343AB
S11332F00B60E97ACA07110F014328888005800909
S1133300082202430A60761C062ED3DB802007497C
S113331008703A20385C012804D13A203C54380023
S1133320FFF7EBFDF1BD000094200740802007402B
S113333030B585B0BF4C20782179BF4D01400807D6
S113334002D52800FFF7ACFE207821790122014044
S113335011420DD02270207C6968009169460009F1
S113336008730020C88101900290102000F076FBC1
S1133370207821790140480702D52800FFF78AFF09
S1133380207821790140080602D52800FFF78EFF36
S113339005B030BD70B505000C00A74E3000FFF736
S11333A093FDBE48BE490860FDF7FEF9A8217050A0
S11333B026607560002070BD94F3FF1F70B5040093
S11333C00D002E00283600F023FD3070200000F0A0
S11333D017FDAC2168501020B070964CFF2020706F
S11333E0B04801784906490E01702A00AE49307888
S11333F000F014FD002801D18A2070BDAB48AC490F
S11334004860010A2177AB49020C0A70000E08716A
S11334102800FFF7F7FD002070BDA2480178802244
S11334200A4302707830017801220A4302706C303A
S113343001784906490E01700020704770B50500F7
S11334400C000120217814225143691862788918EC
S11334503C310870A28AA178012904D18602B242C3
S113346004DB721E02E0412A00DB4022237814268A
S11334707343EB183E3319702178142359436918A8
S11334803F3163780B7021781423594369180A87F4
S113349000222178594369183A310A702178594336
S11334A069183B310A7021785943691840316378AF
S11334B0002B06D14A7021781423594369184A63B2
S11334C005E00A7021781423594369180A63A17826
S11334D0012900D001222E00AC3621783068FFF794
S11334E0A5FC6278002A00D0012221783068FFF719
S11334F0A3FC6078002805D12078002802D1280098
S1133500FFF7FBFC002070BD70B504000E00150031
S113351000F041F90020CA4AB300D054C9494968AF
S1133520490A49023207D20D0A43E907C90E114379
S11335300022D2434A6008230B435A6014214E43AD
S1133540A119120C0A8749193C31087070BD00009A
S1133550A02007407CB506000C00A068E168401A72
S11335600190E068002804D1217814225143711895
S11335700C6301A90091019B61680A18217830004D
S1133580FFF711FD050009D02078142148433018B5
S11335900021016321003000FFF764FC280076BDA0
S11335A0F8B506000D00E868A9680C1A002804D1D3
S11335B029781422514371184D63297814225143F8
S11335C07118098FA14200D20C0069680A183448A6
S11335D00068002809D003210C4201D10A4204D01A
S11335E00022EA7542421140421823002978300033
S11335F0FFF7B1FC070009D028781421484330189C
S11336000021416329003000FFF72CFC002C0FD16E
S1133610287800280CD129003000FFF723FC432030
S1133620305C01214140432031543000FFF765FCF8
S11336303800F2BD802007409CF3FF1FF8B5160048
S11336400F0014227A43841838340125E570A570DC
S1133650320000F0A0F82088800581098C200843FE
S1133660134949684A0A52023907C90D1143002E09
S113367007D0A27A1540EA000A43102111430860DA
S113368004E0E27A1540EA000A4310606E480178CB
S1133690DF220A4002700020F2BD000010FAFF1F72
S11336A04CF4FF1F1C2007403133000000F8FF1FBB
S11336B094F3FF1FB0200740F7B584B00D4604987B
S11336C0142169434018383000900024C4700099D4
S11336D08C700498AC3002906846007D01900146DD
S11336E002980068FFF7B5FB2807C00D0390029805
S11336F00068564F534EBD0D6946097E00291ED001
S113370001220199FFF792FB0122019902980068B6
S1133710FFF792FB009804727068074003983843DF
S11337200099897ACA07110F0143102008430099B0
S113373009880D40290408220A43026023E001227B
S11337400199FFF773FB0022019902980068FFF7C3
S113375073FB009844726846007D002803D10498E6
S1133760FFF7CBFB0FE070680740039838430099DC
S1133770C97ACA07110F014300980088054028043C
S1133780082202430A6030480178DF220A400270AE
S1133790002007B0F0BDF2B584B00700140008465D
S11337A01421484338180025002C02D1466B456388
S11337B001E0066B0563002E17D031003800FFF7D7
S11337C051FB0020C043029070680190786800901B
S11337D068466946097C01738573210000D0012184
S11337E0C1736946007C00F039F9002005B0F0BDD2
S11337F010B5174A1378802423400B4313701C30F0
S1133800C17301210180002010BD10B5114A117847
S1133810002313708021147D0C40147513747C32C2
S1133820137840241C431470137819431170FF213A
S11338308183A8300068FCF7BDFF002010BD0000A4
S1133840C020074094F3FF1F9420074000FEFFFFB1
S113385098200740842007400907090F142359437F
S113386040183A30007810800020704738B50300C3
S11338700C00FF202107090F14254D435D193A352B
S11338802A70012A04D1E2091800FFF7D7FE32BDDD
S1133890002A06D16A78002A03D06A791800FFF753
S11338A00BFF32BDF8B504000F0015002600A83642
S11338B03068FCF77BFF1C34012F06D0042F08D09E
S11338C0052F08D0062F02D006E0258004E065808D
S11338D002E0658100E0A5801EE0F8B504000F0059
S11338E015002600A8363068FCF760FF1C34012F51
S11338F008D0032F0AD0042F0AD0052F0AD0062F90
S113390002D009E0208806E0608804E0E07B02E061
S1133910608900E0A08828803068FCF749FF002017
S1133920F2BD38B504000025002229002000FFF76D
S1133930EBFD012229002000FFF7E6FD6D1C062D9A
S1133940F2DB2000FFF75EFB2000FFF7BDFA00204A
S113395032BD000070B50B000400103CE4B2022B31
S11339601DDA212C1BDA264D21000326B1436918E8
S113397035024919A407E40E0D68FF26A640B54395
S1133980DB0180263340A3402B430B60002A02D086
S113399000F008F801E000F012F8002070BD0020EB
S11339A0C04370BD1038C0B2212805DA012181401E
S11339B013480160002070470020C043704710384E
S11339C0C0B2212805DA012181400E48016000209F
S11339D070470020C04370470B480168002900D19C
S11339E072B60168491C016070470000064801680E
S11339F0002903D0491E0160002900D162B6704736
S1133A0000E100E080E100E058F4FF1F38B5050054
S1133A100C00607B002802D0102806D00AE00022A7
S1133A202800083000F002FA04E0002228000830E0
S1133A3000F092FA00200C2141436A183C32117ABA
S1133A40637B994205D15168200012689047002099
S1133A5032BD401C0828EED3832032BD10B50200CD
S1133A6008684A737F237F24144006D01340102B28
S1133A7003DACA7BD20114434C73FFF7C7FF10BDAE
S1133A8080B54268126B130002D00068904702BDF3
S1133A90FF2002BD70B504000D001600FFF79CFF67
S1133AA06068E90607D5436A18000CD03200290083
S1133AB02068984718E0436C180004D032002900AD
S1133AC020689847F6E713E070B504000D0016006F
S1133AD0FFF782FF6068036C180004D032002900ED
S1133AE02068984700E003E0FFF780FF002070BDE6
S1133AF0FFF77CFFFF2070BDF8B506000F002F4CC8
S1133B0020009C300090007801282FD0A4220021AE
S1133B10200000F06DFB01200099087000984670A9
S1133B20FCF742FE00994860300025496022424378
S1133B308918E16100210022FF230C2555436519F2
S1133B4044352B70521C082AF7DB002E01D00128C3
S1133B500ED11C4D65602A68100002D0210020009F
S1133B6090472068002807D18720F2BDC120F2BD0C
S1133B7000980170C020F2BDE0602461300000F0C4
S1133B8041FB002806D0696B080001D020688847F3
S1133B90C420F2BD6A68100006D021683000904746
S1133BA0002803D13C60F2BDFF20F2BD696B080020
S1133BB001D0206888478D20F2BD000070F6FF1FF9
S1133BC0A0FBFF1F1006000010B5020000204B6888
S1133BD09B681C0001D01000984710BD38B5050043
S1133BE001D1FF2032BD2C009C346068FCF7E2FD5B
S1133BF06868416B080001D028688847002020705D
S1133C0032BD10B588B0002814D06B460C781C70F7
S1133C108C785C704C689C82497899709A75002104
S1133C200291039141688A69110003D069460068D2
S1133C30904700E0FF2008B010BDF8B507000C0065
S1133C4015001E00002F01D1FF20F2BDFFF7C4FEB6
S1133C5000200C224243BA1844321278A24203D103
S1133C60FFF7C4FE8420F2BD401C0828F1D30020D5
S1133C700C21414379183C310A7AFF2A06D10C728F
S1133C800D604E60FFF7B2FE0020F2BD401C082814
S1133C90EED3FFF7ABFE8120F2BDF8B505000C00B2
S1133CA017001E00002D26D06868826C100022D0F8
S1133CB069462868904700281DD1FFF78DFE0098BB
S1133CC004700020009A507000998E6000994F6033
S1133CD00099C86006200099C870686802691000DD
S1133CE009D00099286890470400FFF77FFE002C54
S1133CF003D10020F2BDFF20F2BD9420F2BDF8B53F
S1133D0005000C0017001E00002D27D06868826C87
S1133D10100023D069462868904700281ED1FFF779
S1133D205BFE00980470012000994870009886603A
S1133D300098476000200099C86006200099C87068
S1133D406868C268100009D0009928689047040088
S1133D50FFF74CFE002C03D10020F2BDFF20F2BD82
S1133D609320F2BD70B504000D001600002C0ED097
S1133D70FFF732FE6068036A180008D03200290099
S1133D80206898470400FFF731FE200070BDFF2033
S1133D9070BD10B5002806D04368DB6B1C0002D050
S1133DA00068984710BDFF2010BD002801D1FF20F6
S1133DB070470162426200207047002801D1FF2051
S1133DC070478162C26200207047002801D1FF2041
S1133DD07047016342630020704780B5002806D015
S1133DE04168C96C0A0002D00068884702BDFF2000
S1133DF002BD10B50400FDF7C7FA200010BD000095
S1133E00002801D101487047002070470020074076
S1133E10002801D128207047FF20704780B500F0AA
S1133E2029FA02BD80B5FFF795FD02BDF0B585B056
S1133E3004000F0000206A461081CE25039002AAD8
S1133E400121A068FFF726FE8026B87B002850D009
S1133E500822796820000C30FFF7CBFF208A2082EB
S1133E60E089E081608A6082217B6022114217D15F
S1133E70607B384982008A18966A32005ED06A46AE
S1133E801289032A5ADA430018180818805C01289A
S1133E9054D101AB03AA21000C312000B04726E025
S1133EA0019000281AD0207B304217D101980830A5
S1133EB0552805D300220021A068FFF76AFF46E0D9
S1133EC0082221000C316069FFF793FF019B6269AE
S1133ED0083200213868FFF7E0FE38E0266A300037
S1133EE02CD0636A01AA03A920000C30B047050056
S1133EF024E068460089042805D16188C9B2A06815
S1133F00FFF7BEFD23E0207B304220D1F87B002860
S1133F101DD1608A00281AD0206A002809D0B86808
S1133F2008300190636A01AA03A96069256AA84759
S1133F300500B8680021C943884208D001A8009050
S1133F4003AB22000C32E9B2200000F027F805B0E0
S1133F50F0BD000048F2FF1F7CB505000E00A86804
S1133F60FFF73BFF00206C46A070207040210191B8
S1133F706070012269463068FFF743FE0120A0709B
S1133F80012269463068FFF73CFEEA69A869002807
S1133F9003D000210020AB69984773BD38B50400F5
S1133FA015001800CE2905D101220021A068FFF7D1
S1133FB0F0FE31BDEA8804990B689A4200D20A6087
S1133FC00B6802680021A068FFF799FE28780006B4
S1133FD005D5002300220021A068FFF75EFE31BD55
S1133FE078B50EB40500FF200B7802241F221F268B
S1133FF0334209D12A000621A868FFF74BFD29782E
S11340008907890F298013E01E40012E05D1002164
S113401029800121029A11600CE01A40022A09D178
S11340202A00888810210143C9B2A868FFF732FD2D
S113403002990C6001990D60C0B204B070BDF8B56E
S11340400600CE240020186048788307DB0F087828
S11340506A4650701F2203206D466F78174212D1B2
S11340604988084036D0012834D1002B01D01125CD
S113407000E012250024B36918002BD0726A0021D5
S11340802800984726E03A40022A23D14A8802426F
S113409020D18888694608700F20097801406A4653
S11340A01278D209002B04D01325B068FFF771FEF3
S11340B007E014256B461B78034203D1B068FFF771
S11340C051FE0400B369180004D0726A69462800DE
S11340D098470024E0B2F2BD38B504000D0000207A
S11340E0186004220121A068FFF7EEFC6888608054
S11340F0002032BD0121196030301060002070476B
S113410038B50400002000221860488869460880F9
S113411068460088002800D101220121A068FFF729
S1134120D3FC0500684600882086A36918000CD0DB
S1134130E26969460120984768460088002804D04F
S1134140E26900210320A3699847E8B232BD38B57B
S11341500400150001201860A06A4368180001D10A
S1134160CA2032BD22008988C9B2E06A98472C600F
S113417032BD38B505000C00002018602078800797
S1134180800F012801D0042032BDA86A836818007A
S113419001D1CA2032BD6288D2B2A188C9B2E86A0C
S11341A09847AB69180003D0EA69A11C022098471C
S11341B0002032BD38B5040015000220186022002A
S11341C00521A068FFF766FC2C60C0B232BD30B593
S11341D083B0846A2468250001D1CA203EBD4D887D
S11341E0019300928B88EAB2290AC06AA0473EBDB7
S11341F010B5040010000A0001002000FDF7F2F8D9
S1134200200010BD10B500210024002828D1164834
S11342108022D202036B1343036303681A430260D0
S1134220026880235B0213430360104842688023C2
S11342305B0413434360026880231B06134303603B
S11342400B48017010210172017B40220A43027362
S11342500020FFF7DDFD01220121FFF7E3FD00E06F
S1134260E443200010BD00BF0480044000700440FB
S113427000210740F8B504000D0017000F4E002080
S1134280FFF7C6FD844201D135607760002000F05D
S113429017F8844200D1B560012000F011F884427F
S11342A000D1F5600120F2BD044801680A0000D184
S11342B0704780B54068884701BD00002CF6FF1F99
S11342C0002803D10248006810307047002070476E
S11342D0E0F0FF1F70B582B004000E001500002E40
S11342E001D1002076BD6A4600F07DF8002806D191
S11342F02A0031002000009B9B685B68984776BDCC
S113430070B582B004000E001500002E01D100200B
S113431076BD00F08BF8002801D05A4876BD6A4675
S11343203100200000F05FF800280ED12A0031008F
S11343302000009B9B689B6898475349002802D142
S1134340009A926800E000220A6076BD38B5040045
S11343500D006A4600F047F8002815D100988068DF
S11343604069002801D1662032BD2900200000F0F8
S11343705DF8002801D0434832BD29002000009A8E
S113438092685269904732BD002DFCD1002032BDA5
S113439070B582B004000E001500002E01D100207B
S11343A076BD00F043F8002801D0364876BD6A4651
S11343B03100200000F017F8002806D12A0031004F
S11343C02000009B9B68DB68984776BD38B50024C5
S11343D000202D4D2968002904D009690A0001D064
S11343E088472C6032BD70B50B002649274C6468A1
S11343F0002B18D0002A16D000E00C34002C12D068
S11344002568002D05D16668002E02D1A668002E0D
S113441009D0A842F1D365688542EED3C018401E86
S1134420854200D300211460080070BD30B5174ADE
S113443092681269536B002B14D04118491E002353
S1134440DC0014195C3465682468002C01D1002D4B
S113445005D0854203D3A14201D3012030BD5B1CAA
S1134460022BEDDB002030BD10B50848446804E0A1
S11344700068010000D080470C34A0680028F7D100
S113448010BD0000D827000050F4FF1F00F0FF1FEC
S113449010B59348806804696C3430229149200037
S11344A0FCF786FF20689049884204D0FF2230211F
S11344B02000FCF7A7FFFCF717FB002010BDF8B5A0
S11344C0874DA86804694B20E0700126A67005207A
S11344D0607026705020E071A67102206071002780
S11344E027715420E072A67267722772266366638E
S11344F07E48A06322001032042128002030FDF7FA
S113450091FE22001432012128002030FDF78AFE9A
S113451022001832002128002030FDF783FE2200FB
S11345201C32022128002030FDF77CFE22002032BC
S1134530032128002030FDF775FE220048320521B2
S113454028002030FDF76EFE22004C3206212800A0
S11345502030FDF767FE220050320721280020306A
S1134560FDF760FEA16948420021C943604A5342F5
S11345700340C91A5F4A1040E06521665E486066E0
S11345805E48A0666869E76007E07C22A35C0B4292
S113459002D0E2681143E1607F1C1821794341583D
S11345A00029F2D156480168616441682164806839
S11345B0E06368680C300168616241680068081A49
S11345C0401CA06266650020F2BD0000F8B517002B
S11345D01E00434A9168096904244A4D401E172865
S11345E04FD801A31B5C9F4416262A2E32364298CC
S11345F098464E5C4A3A3E62687E84888C909894D1
S1134600002E00D03460002F00D039600020F2BDAD
S11346100C31F5E71031F3E71431F1E71831EFE726
S11346202031EDE72431EBE72831E9E73831E7E7DA
S11346303031E5E73431E3E7D069416949698847B6
S113464028602900DCE710245C31D9E72E48006893
S1134650F6E7694620321000FDF7FCF96846007859
S11346600028EDD00120EBE70C243C31C8E74831A9
S1134670C6E74C31C4E75031C2E75431C0E70831D2
S1134680BEE72248F2BD020015488068036920484D
S1134690521E062A1FD9093A0CD0521E012A1AD9D1
S11346A0921E0DD0521E032A15D9083A0ED0921E1E
S11346B011D012E0002901D001290FD1196308E0BB
S11346C0002901D0012909D1596302E0032905D247
S11346D0596500207047401E7047801E70470000D7
S11346E000F0FF1FC08300006B636667FFEF0000EC
S11346F0345900000000000000F0FF1FFFFFFF1FFF
S11347005880044010F5FF1F248004403C2800001A
S11347103E28000010B501009B4A10008830036851
S11347205C1C0460D2182032117001688906890E5D
S1134730016010BD0020704780B500F0C6F802BDCE
S1134740FAB583B01700002901D0002F01D104204D
S11347502CE000263E608C4C200090300090467087
S113476000F0B3F8002821D101AD02E0A22000F04E
S113477082F820212000FCF765FE6846027C2100B7
S113478001A800F003F9002801D03E600EE02100EA
S113479001A800F077F9A9888142E7D101200099A6
S11347A008700398046068883860002005B0F0BD84
S11347B0F2B582B015001F00002944D0212D42D249
S11347C000F083F800284DD16F4C20009130002672
S11347D00178002900D006702000603000905A2033
S11347E000990870A42000994870002F02D0A520D9
S11347F000994870200062300570290A4170002D2C
S113480005D02A00029920006630FCF7BDFD210086
S11348106631009800F036F964342070000A607044
S1134820A91D009800F064F800281BD101AC01A870
S113483000F016F9002815D16078A12811D0A2281B
S113484005D0A32801D00420FEBD8048FEBD0098F9
S11348504188891D00F04CF8002803D16078A22813
S1134860E5D00020FEBD7A4801218170002101704D
S113487070472020704780B569465A220A704870F4
S11348800120744908700221684600F031F802BD25
S113489010B582B004006E48017842780A408078EE
S11348A0024210D1684600BF84A10A880280022215
S11348B06946200023695B689847082280A120008C
S11348C023695B689847644816BD80B56048002139
S11348D00278002A02D00170A12004E08278002A24
S11348E004D08170A320FFF7C6FF02BD002002BDE3
S11348F080B503005948C0690A00190003695B6860
S1134900984702BDF2B584B0070015000024FCF7F7
S113491016F802AA03C2FA20800045432800FCF7D7
S113492018F800216A4603C2174E350088350DE099
S11349306868296888420CD03018203000783855CF
S1134940641C6868401C8006800E68600498844279
S113495016D0684603C8002901D10028E8D0FBF727
S1134960EEFF02000B0002A803C8121A8B4168462E
S113497003C88B42DCD301D88242D9D3052000E09E
S1134980002005B0F0BD000098F5FF1F70B582B09F
S113499004000D00160000F063F8002855D160787B
S11349A0A62804D12D48C069FFF772FF76BDA42163
S11349B0002E00D0A521884201D0012076BD14220A
S11349C002216846FFF79EFF69460988A170090A1B
S11349D0E170002839D1A078E1780906090C084370
S11349E0212801DB202004E0A078E1780906090CE5
S11349F00843A070000AE070142202216846FFF701
S1134A0081FF694609882171090A617100281CD156
S1134A10A178E2781206120C114316D0A178E0783E
S1134A200006000C01432800FCF70AFDA078E17899
S1134A300906090C0843A178E2781206120C114306
S1134A400A2242432800FFF75DFF76BD12270000CB
S1134A5028F6FF1F29F6FF1F1327000000F0FF1F91
S1134A6010B50400002201212000FFF74BFF0028AD
S1134A7007D120785A28F5D10A220121601CFFF7BA
S1134A8041FF10BD30B583B004000D006846FDF74A
S1134A909BFF042221006846FDF799FFA278E07885
S1134AA00006000C024329006846FDF790FF01A9A7
S1134AB06846FDF7A7FF684680883EBD5AA70000F8
S1134AC0000201500000AAEA26494068085C7047C9
S1134AD025494A68002A08D00A6813780370521CD2
S1134AE00A604868401E48607047002101707047A2
S1134AF038B5040008005A2C08D11A4D0121295454
S1134B001A49FEF7A6F85A206968884731BD80B56E
S1134B1014494968884701BD3EB504001148416005
S1134B20684600BF12A12CC92CC002216068A2688B
S1134B30904769466068FEF791F800203EBD10B5C5
S1134B4004006068FEF7C0F800216068A26890471E
S1134B5010BD05480160426041680029FCD1002075
S1134B607047000044F6FF1F3CF6FF1F0F4B000088
S1134B70D14A0000F14A000001010000FEE70000F4
S1134B80FEE70000002001490860704700810440EE
S1134B9009480178890600D4704780B505E00748C4
S1134BA00178890600D4704780B5C0780149096846
S1134BB0884701BD50F6FF1F04B0064004C00640FC
S1134BC03C480021C170C1720F228272017004211D
S1134BD041707047F8B507000D0016000A207843AD
S1134BE0A900FBF7CDFF401D0A21FBF7C9FF040014
S1134BF03800A100FBF7C4FF854202D207000095EC
S1134C0004E02F00A84200D9280000902800642165
S1134C10FBF7B6FF410008180099791A81422AD29D
S1134C202548066025480168020D0A4302602148B0
S1134C30C178F3220A40C270C17A02220A43C272C6
S1134C40817AE022114003230B43837201780A40E6
S1134C50E104C90E114301704470C17820220A4353
S1134C60C27080214901164A1160C1780C220A439E
S1134C70C2700020F2BD0120F2BD80B51148007859
S1134C800D490968884701BD0F490A781206FCD509
S1134C90C870704780B5802040010C4908600748FF
S1134CA00168020D0A430260FFF78AFF08480949B8
S1134CB0086001BD00A0064054F6FF1F3480044084
S1134CC000E100E007A0064004A0064080E100E007
S1134CD0FFFBFFFF3480044438B504006946606874
S1134CE0FBF789FD002818D16068FBF7A9FE124D77
S1134CF02A680099FFF76EFF00280BD10221606833
S1134D00A26890475A2029688847A62029688847BE
S1134D10012032BD6068FBF751FD002032BD10B5A3
S1134D2004000548016001216068A268904760683A
S1134D30FBF744FD002010BD58F6FF1F10B504001A
S1134D40FFF7A8FF6068FBF752FD00216068A268C6
S1134D50904710BD38B50C00150003E02078FFF72C
S1134D6093FF641C2800451E0028F7D132BD0000C3
S1134D70F8B5040016001D000020184A0301D718D6
S1134D807A68002A04D0401C0128F6DBC120F2BD59
S1134D907C60F960BD602A002000FFF706F82A0055
S1134DA031002000FFF709F82A0006992000FFF7D8
S1134DB00CF83800F2BD10B500200022074B140196
S1134DC01B198B4204D0521C012AF7DB9E2010BD14
S1134DD0586018609860D86010BD00005CF6FF1F32
S1134DE080B5002801D1FF2002BD4068FEF787FF8F
S1134DF002BD7047F8B50C00150000F0ADF80021B5
S1134E00394E069A079B032C11D0212C09D0222C51
S1134E102BD1002803D1303616604C2018600020B6
S1134E20F2BD002801D1163616600920F6E768465F
S1134E300088002803D17C3616600420EEE70120A8
S1134E406E463688294FBE4203D1032D02DA28006C
S1134E5000E001213BA40C2569436118CC6885005E
S1134E60645914600969085CD8E7082C17DAA500AE
S1134E70002802D12AA77F591760012C02D1346877
S1134E80641C34603468022C00DB31601168002932
S1134E9005D00028C3D100BF18A04059BEE7CE20DA
S1134EA0F2BD002904D11248007810700020704728
S1134EB0CE207047002903D10D48027000207047AE
S1134EC0CE2070470020704710B51300002908D188
S1134ED0094C01202070074803C8221D03C20C346A
S1134EE01C60002010BD00002CF1FF1F090400000D
S1134EF0D0F7FF1FF8F0FF1F00F1FF1F00000000B4
S1134F001200000029000000000000000000000062
S1134F100000000000000000000000004C00000041
S1134F200000000018F1FF1F30F1FF1F0000000017
S1134F30000000000000000000000000000000006D
S1134F405CF1FF1FA8F1FF1F04000000090400002A
S1134F506C070000680700000020704740684008A4
S1134F60A8493C22504308180178002901D0407810
S1134F7070470020704710B5A24C002801D00128CA
S1134F8002D10020208010BD0328FCD10120207014
S1134F902423220014320221A06B00F004FB10BD74
S1134FA0F9B581B01400012568460279012010404A
S1134FB01E686A461379B54F0022D243042B09D1E7
S1134FC0A068904249D0002847D0F868012844DB03
S1134FD00C3736E0052B06D1A06890423DD000285E
S1134FE03BD038612BE00022029B1A6038186A46D5
S1134FF01279521E09D0521E012A28D9D21F0CD070
S1135000521E22D0521E27D027E02421380014300B
S1135010FCF718FA143727601FE021688A78002A01
S113502007D1CA78002A04D10878012801D1BD70BB
S113503013E0320038001430FCF7A6F93E617D70AD
S113504008373800FBF716FE07E0090A04E0001DE4
S113505020600298056000E001710020FEBD70B57B
S113506088B005006868400866493C2250430C1823
S11350703C212000FCF7E4F9854EFBF7DFFC002817
S11350800FD1B06800697C21415CEF220A407C307A
S11350900270B0680069C16810229143C1600120A8
S11350A038E06868002805D1802040047949086008
S11350B079490860B068006980300288774943887C
S11350C08B4201D18A4209D075490A720288120AB8
S11350D04A7242888A724288120ACA72406800215F
S11350E0C943884200D16F486F4908606F480090F7
S11350F02000383001906E4804902000383005902C
S11351006C4806903834220069466868C0B200F0E2
S1135110CDF9002008B070BD41684808002900D0CE
S1135120704710B5644C2168490310D580214904A7
S1135130624A1160574A116032493C2250430818B0
S1135140806B00F0F7F920685D490140216010BDD3
S113515010B5406840084D493C2250430C180021CA
S113516020000830FBF77AFD002120000C30FBF70B
S113517075FD08342000FBF77DFD002010BDF2B55D
S1135180170040684008002901D0002F01D10420F5
S1135190F2BD002139600126002B02D0012B1FD063
S11351A028E0012517493C2250430C18E0780028D8
S11351B006D02423220014320221A06B00F0F3F95C
S11351C0E6700021C94320000830FBF749FD207D2B
S11351D0A84207D0012D0DD102280BD13948F2BDC8
S11351E00225DFE7A17DE07D000208432169091F54
S11351F0814201D20120F2BD183400990C6038605C
S11352000020F2BD94F7FF1FF2B517004068440870
S1135210212F01D30420F2BD002B02D0012B10D08A
S113522011E00325FBF732FD18483C214C430419D7
S11352300026A078002808D0A670FBF72DFD214891
S1135240F2BD0425EEE70120F2BDFBF725FD25752F
S11352506675A775380AE0750098002807D0002FF6
S113526005D03A00014620001830FCF78DF82423BD
S1135270220014320121A06B00F08CF90021C943F3
S11352800C342000FBF7ECFC0020F2BD94F7FF1F68
S113529000F0FF1F80E200E000E100E0FFFF0000FB
S11352A018F1FF1F444F00006CF6FF1F774F0000FA
S11352B0A14F000034F2FF1F3480044080E100E07D
S11352C0FFFFFBFF1227000010B50023002200217E
S11352D04469A468A04710BD00207047202070478F
S11352E080B5FFF786FD01BD10B582B00C6A2200BF
S11352F00DD082680023DB439A4201D1002100E0F3
S1135300496A0091002302009C490420A04713BD70
S113531010B582B00C6A22000DD082680023DB43F2
S11353209A4201D1002100E0496A00910023020061
S113533092490520A04713BDF3B583B01500684614
S1135340007B0024012845D1002601AA00212868F9
S1135350AB6B984701988068011DE96000790328C8
S11353600FDB7FE0600028183C30E1009268525C5B
S11353700270019A92689268511849784170641CCD
S1135380E4B20198826810798442EBDBE86800900B
S11353907B4F08E0002805D12B007A4A2178286841
S11353A0FEF74BFC761C00980078F6B2864251D288
S11353B000984068F1004418012221002868FEF793
S11353C020FCA0780128E5D12B003A002478C10103
S11353D02143E4E703283DD000283BD00F260928C9
S11353E01BD104980078009028003C3032D00098FB
S11353F03040610069183C310978884209D100982D
S1135400C0110122024000980F2101402868FEF7D4
S1135410A9FC641C022C1DDAE9E714281AD10498AB
S11354200078009028003C3014D00098304061008F
S113543069183C310978884209D10098C0110122C9
S1135440024000980F2101402868FEF78BFC641C81
S1135450022CEADB2B69180004D06A6904996846B7
S1135460007B984705B0F0BDF8B504001D00CE20C0
S11354702378602660271F40202F0DD12B6A002B34
S113548013D0E0881060686A009013000A006188F5
S113549060782C6AA047F2BD1E40402E05D1AE694B
S11354A0330002D0EB692000B047F2BDF8B5060026
S11354B00C001700002C01D1FF20F2BD002032495E
S11354C082018D182968002904D0401C0228F6D3D3
S11354D0C120F2BD29003000FEF70EFB002828D1C0
S11354E0A06900902B00294A29492868FFF740FC4D
S11354F0A8600822210028001030FEF77AFC082258
S11355002100083128001830FEF773FC082221001E
S1135510103128002030FEF76CFC1422A169280009
S11355202830FEF766FC3D6029683000FEF74CFB2E
S11355300020F2BD38B5002801D1FF2032BD05009E
S113554001D1C32032BDA9682868FFF734FC0400E8
S113555003D12868FEF742FB040000200A498201B7
S11355608A18AA4203D0401C022805DAF7E7402231
S113557000212800FEF73CFE200032BDFFFF0000A2
S1135580E95200001153000014F7FF1F6954000092
S11355903953000080B5002801D1FF2002BD806886
S11355A0FFF71EFC02BD80B5002801D1FF2002BD1B
S11355B00068FEF772FB02BD00F00BF8002801D072
S11355C000F00AF80020C046C046FBF739FCFBF7A0
S11355D087FC01207047000010B507497944183151
S11355E0064C7C44163404E0081D0A688918884770
S11355F00100A142F8D110BD2C03000038030000C3
S11356006006000074F0FF1F0807000040F0FF1F51
S113561000000000900600000000000000000000F0
S11356200000000000000000000000000000000076
S11356300000000000000000000000000000000066
S1135640611400006D1400001C050000DCF2FF1F53
S11356500000000014F3FF1F34F3FF1F6B2D000044
S1135660952D0000B52D0000100000000000000082
S11356700000000000000000FFFF0100E005000042
S113568000F0FF1FFF2F00207806000000000040FC
S1135690FFFF0740A405000000F00F40FFFF0F408C
S11356A0A405000000000044FFFFFF5FA405000004
S11356B0000000E0FFFF0FE0A4050000003000F050
S11356C0FF3F00F0A4050000000000F8FFFFFFFF0B
S11356D0A40500000000000000000000000000001D
S11356E0160000000000400101030100400000001A
S11356F0020300004000000002000000E8F0FF1F69
S11357000000000000000000000000000000000095
S11357100100000000F1FF1F120100020000004020
S1135720A215730002000102000100000000000045
S113573009022900010100C032090400000203002B
S11357400000092100010001224C000705810340EB
S1135750000A0705020340000A0000000600FF09D2
S113576001A101850119012901150026FF00750811
S113577095239102850219012901150026FF007560
S11357800895239102850319012901150026FF00BC
S1135790750895238102850419012901150026FF46
S11357A000750895238102C0040309043A034600E6
S11357B07200650065007300630061006C006500A1
S11357C02000530065006D00690063006F006E00E7
S11357D064007500630074006F00720020004900CB
S11357E06E0063002E00000026034B0069006E006B
S11357F06500740069007300200042006F006F00B0
S113580074006C006F0061006400650072000000A9
S1135810220342004100440020005300540052007F
S113582049004E004700200049004E004400450056
S113583058000000F54D0000A34E0000B54E0000D6
S1135840C54E0000C94E0000010100010100000026
S1135850000101000000000001010101010000003D
S1135860010100010100010000010000010000002D
S1135870E13F00003F400000000000003F40000006
S113588000000000D9400000CF41000000000000EB
S1135890F5400000014100004F4100007341000049
S11358A0B541000080B5FAF7B3FD01BD30B504E0A1
S11358B014780470401C521C491E002919D0C507D5
S11358C0F6D40129F4D0850701D4042904D214881C
S11358D00480801C921C891E8B08EED09B00C41887
S11358E003E015680560001D121DA042F9D3C91A12
S11358F0E3E730BD80B513000200180000E080B576
S1135900FFF7D4FF002002BD10B50C0011000123E5
S11359102200FDF71BF810BDC046C046C046C04675
S1135920FFF74AFE93B2FFFF2C050000A8F2FF1F09
S1075930000000006F
S9030411E7
